
{
  "base_piece_points": [ 
    0, 100, 430, 450, 640, 690,  890, 1040, 0,
       700, 630, 640, 670,   0, 1150, 1300 
  ],

  "offense_relative_mod": [
    [  50,  50,  50,  50, 50, 50, 50, 50, 50 ],
    [  50,  50,  50,  50, 50, 50, 50, 50, 50 ],
    [  50,  50,  50,  50, 50, 50, 50, 50, 50 ],
    [  54,  53,  51,  55, 52, 50, 50, 50, 50 ],
    [  70,  66,  62,  55, 52, 50, 50, 50, 50 ],
    [  90,  85,  80,  68, 60, 53, 50, 50, 50 ],
    [  70,  97,  95,  85, 70, 62, 50, 50, 50 ],
    [  60,  60,  60, 102, 84, 71, 51, 50, 50 ],
    [   0,  70,  70, 115, 91, 75, 57, 50, 50 ],
    [  70,  70,  70, 121, 94, 78, 58, 52, 50 ],
    [  80,  70, 100, 114, 98, 80, 62, 55, 50 ],
    [ 140, 130, 110, 100, 95, 75, 54, 50, 50 ],
    [ 100,  99,  95,  87, 78, 69, 50, 50, 50 ],
    [  80,  78,  72,  67, 55, 51, 50, 50, 50 ],
    [  62,  60,  58,  52, 50, 50, 50, 50, 50 ],
    [  50,  50,  50,  50, 50, 50, 50, 50, 50 ],
    [  50,  50,  50,  50, 50, 50, 50, 50, 50 ]
  ],

  "defense_relative_mod": [
    [  50,  50,  50,  50, 50, 50, 50, 50, 50 ],
    [  56,  53,  50,  50, 50, 50, 50, 50, 50 ],
    [  64,  61,  55,  50, 50, 50, 50, 50, 50 ],
    [  79,  77,  70,  65, 54, 51, 50, 50, 50 ],
    [ 100,  99,  95,  87, 74, 58, 50, 50, 50 ],
    [ 116, 117, 101,  95, 88, 67, 54, 50, 50 ],
    [ 131, 129, 124, 114, 90, 71, 59, 51, 50 ],
    [ 137, 138, 132, 116, 96, 76, 61, 53, 50 ],
    [   0, 142, 136, 118, 98, 79, 64, 52, 50 ],
    [ 132, 132, 129, 109, 95, 75, 60, 51, 50 ],
    [ 121, 120, 105,  97, 84, 66, 54, 50, 50 ],
    [  95,  93,  89,  75, 68, 58, 51, 50, 50 ],
    [  79,  76,  69,  60, 53, 50, 50, 50, 50 ],
    [  64,  61,  55,  51, 50, 50, 50, 50, 50 ],
    [  56,  52,  50,  50, 50, 50, 50, 50, 50 ],
    [  50,  50,  50,  50, 50, 50, 50, 50, 50 ],
    [  50,  50,  50,  50, 50, 50, 50, 50, 50 ] 
  ],

  "inhand_points": [
    0, 115, 480, 510, 720, 780, 1110, 1270 
  ],

  "king_xy_points": [
    0,0,0,0,0,0,0,0,0,0,0,0,0,0,0,0,
    0, 90,  80,  80, 100, 100, 100,  80,  90, 100, 0,0,0,0,0,0,
    0, 80, 100,  80,  50,   0,  50,  80, 100,  80, 0,0,0,0,0,0,
    0, 50,  50,  30,   0,   0,   0,  30,  50,  50, 0,0,0,0,0,0,
    0,  0,   0,   0,   0,   0,   0,   0,   0,   0, 0,0,0,0,0,0,
    0,  0,   0,   0,   0,   0,   0,   0,   0,   0, 0,0,0,0,0,0,
    0,  0,   0,   0,   0,   0,   0,   0,   0,   0, 0,0,0,0,0,0,
    0, 50,  50,  30,   0,   0,   0,  30,  50,  50, 0,0,0,0,0,0,
    0, 80, 400, 200, 400,   0, 400, 200, 400,  80, 0,0,0,0,0,0,
    0, 90, 300, 300, 500,   0, 500, 300, 300, 100, 0,0,0,0,0,0
  ],

  "fu_position_bonus": 3000,

  "attack_count_bonus": [
    0,   0, 3000,   0,  0,   0, 2000, 2000, 0,
         0,    0,   0,  0,   0, 2000, 2000
  ],

  "atari_mod": 30,

  "control_around_oppo_king": [
    [   0,   0,   0,   0,  0,  0,  0,  0,  0 ],
    [   0,   0,   0,   0,  0,  0,  0,  0,  0 ],
    [   0,   0,   0,   0,  0,  0,  0,  0,  0 ],
    [   0,   0,   0,   0,  0,  0,  0,  0,  0 ],
    [   0,   0,   0,   0,  0,  0,  0,  0,  0 ],
    [   0,   0,   0,   0,  0,  0,  0,  0,  0 ],
    [  50,  50,  50,   0,  0,  0,  0,  0,  0 ],
    [ 130, 130,  50,   0,  0,  0,  0,  0,  0 ],
    [   0, 130,  50,   0,  0,  0,  0,  0,  0 ],
    [ 130, 130,  50,   0,  0,  0,  0,  0,  0 ],
    [  50,  50,  50,   0,  0,  0,  0,  0,  0 ],
    [  50,  50,  50,   0,  0,  0,  0,  0,  0 ],
    [   0,   0,   0,   0,  0,  0,  0,  0,  0 ],
    [   0,   0,   0,   0,  0,  0,  0,  0,  0 ],
    [   0,   0,   0,   0,  0,  0,  0,  0,  0 ],
    [   0,   0,   0,   0,  0,  0,  0,  0,  0 ],
    [   0,   0,   0,   0,  0,  0,  0,  0,  0 ]
  ],

  "king_movables": [
    -4000, -2000, -1000, 0, 0, 0, 0, 0, 0, 0, 0, 0, 0,
    0, 0, 0, 0, 0, 0, 0, 5000, 10000, 10000, 10000, 10000 
  ]
}
