/* XPM */
static const char * daemon_xpm[] = {
"128 128 3213 2",
"  	c None",
". 	c #42027E",
"+ 	c #450281",
"@ 	c #410279",
"# 	c #3C026F",
"$ 	c #39026A",
"% 	c #3F0275",
"& 	c #450280",
"* 	c #45027F",
"= 	c #44027E",
"- 	c #42027B",
"; 	c #44027F",
"> 	c #43027C",
", 	c #400276",
"' 	c #43027D",
") 	c #42027D",
"! 	c #3C0271",
"~ 	c #220240",
"{ 	c #0F0716",
"] 	c #070508",
"^ 	c #22033E",
"/ 	c #3F0278",
"( 	c #41027C",
"_ 	c #3E0276",
": 	c #39026C",
"< 	c #370268",
"[ 	c #350265",
"} 	c #32025F",
"| 	c #2F0255",
"1 	c #2B024F",
"2 	c #240344",
"3 	c #2A024E",
"4 	c #2D0254",
"5 	c #260347",
"6 	c #230341",
"7 	c #18032C",
"8 	c #240343",
"9 	c #29024C",
"0 	c #31025C",
"a 	c #360267",
"b 	c #3A026F",
"c 	c #3E0275",
"d 	c #400279",
"e 	c #40027A",
"f 	c #41027B",
"g 	c #43027F",
"h 	c #3A026C",
"i 	c #1E0237",
"j 	c #241D2A",
"k 	c #2B2430",
"l 	c #0F0914",
"m 	c #2C0353",
"n 	c #40027B",
"o 	c #370269",
"p 	c #2B0252",
"q 	c #22033F",
"r 	c #140225",
"s 	c #1C0C29",
"t 	c #251A2F",
"u 	c #312B36",
"v 	c #3A393B",
"w 	c #2F2B33",
"x 	c #353237",
"y 	c #3C3C3D",
"z 	c #3E3C3F",
"A 	c #423D47",
"B 	c #49434D",
"C 	c #4A484A",
"D 	c #525053",
"E 	c #535054",
"F 	c #505050",
"G 	c #4E4D4F",
"H 	c #423F44",
"I 	c #353039",
"J 	c #2D2139",
"K 	c #260D3F",
"L 	c #230340",
"M 	c #270349",
"N 	c #2B024E",
"O 	c #440280",
"P 	c #43027E",
"Q 	c #39026B",
"R 	c #251019",
"S 	c #7E5F69",
"T 	c #4D414C",
"U 	c #130620",
"V 	c #2F0259",
"W 	c #18042A",
"X 	c #2A2230",
"Y 	c #4D494E",
"Z 	c #625F63",
"` 	c #807C83",
" .	c #98979A",
"..	c #B8B1C0",
"+.	c #CCCACD",
"@.	c #B9B2C0",
"#.	c #C3BFC7",
"$.	c #CFCFD0",
"%.	c #D2CFD4",
"&.	c #D9D0E1",
"*.	c #E4DAEB",
"=.	c #E6E3E6",
"-.	c #F4EFF6",
";.	c #F4F0F7",
">.	c #F0F0F0",
",.	c #ECEBEE",
"'.	c #D9D4DC",
").	c #BCBBBD",
"!.	c #A3A2A4",
"~.	c #857F8A",
"{.	c #716E73",
"].	c #6C6B6D",
"^.	c #6D6C6D",
"/.	c #585357",
"(.	c #584F5F",
"_.	c #382549",
":.	c #260643",
"<.	c #2E0257",
"[.	c #380269",
"}.	c #17022B",
"|.	c #1F0E16",
"1.	c #833F40",
"2.	c #BF7178",
"3.	c #433034",
"4.	c #17022A",
"5.	c #3B0270",
"6.	c #3A026D",
"7.	c #230243",
"8.	c #3B373E",
"9.	c #A099A5",
"0.	c #D8D4DA",
"a.	c #F1E5EA",
"b.	c #FCE2E3",
"c.	c #FED8D8",
"d.	c #FED3D3",
"e.	c #FED5D5",
"f.	c #FCE0E0",
"g.	c #FEEAEB",
"h.	c #FBFBFC",
"i.	c #FEFEFE",
"j.	c #FCFBFD",
"k.	c #FDFCFD",
"l.	c #E3DFE1",
"m.	c #E3DBEA",
"n.	c #AEA9B3",
"o.	c #827C85",
"p.	c #6F6874",
"q.	c #41374B",
"r.	c #1C082F",
"s.	c #270249",
"t.	c #41027A",
"u.	c #39036C",
"v.	c #170326",
"w.	c #281415",
"x.	c #954A4A",
"y.	c #E26F6F",
"z.	c #B9686F",
"A.	c #312328",
"B.	c #240243",
"C.	c #3D0374",
"D.	c #260248",
"E.	c #150226",
"F.	c #1E1622",
"G.	c #67626B",
"H.	c #BDBAC1",
"I.	c #F5ECEF",
"J.	c #FEB0B0",
"K.	c #FE9B9B",
"L.	c #FE9191",
"M.	c #FE8D8D",
"N.	c #FC8B8B",
"O.	c #FB8D8D",
"P.	c #FE8F8F",
"Q.	c #FD9898",
"R.	c #FC9E9E",
"S.	c #FAB9BA",
"T.	c #FDCCCC",
"U.	c #FEE3E3",
"V.	c #FEF5F6",
"W.	c #FEFDFE",
"X.	c #FDFDFD",
"Y.	c #F8F5F9",
"Z.	c #EBE9ED",
"`.	c #C4C1C5",
" +	c #77707D",
".+	c #261C2D",
"++	c #1C0233",
"@+	c #41027D",
"#+	c #1F0338",
"$+	c #2C0252",
"%+	c #3E0274",
"&+	c #1A0231",
"*+	c #170E10",
"=+	c #8C4A51",
"-+	c #F17474",
";+	c #FC7979",
">+	c #9F5057",
",+	c #1F1217",
"'+	c #2C0250",
")+	c #42027C",
"!+	c #400278",
"~+	c #32035D",
"{+	c #0D0713",
"]+	c #454445",
"^+	c #A6A3A6",
"/+	c #E2DFE4",
"(+	c #FBE1E4",
"_+	c #FEB1B1",
":+	c #FE9090",
"<+	c #FE7E7E",
"[+	c #FE7A7A",
"}+	c #F87B7B",
"|+	c #FB7777",
"1+	c #FD7979",
"2+	c #FA7777",
"3+	c #F97A7A",
"4+	c #FC7A7A",
"5+	c #FB7E7E",
"6+	c #FC8787",
"7+	c #FE9595",
"8+	c #FE9F9F",
"9+	c #FEA2A3",
"0+	c #FDAAAB",
"a+	c #FDB3B3",
"b+	c #FEB4B4",
"c+	c #FCB8B9",
"d+	c #FEC9C9",
"e+	c #FCD5D7",
"f+	c #FEEEEE",
"g+	c #E9E6EB",
"h+	c #A59FA5",
"i+	c #3B363D",
"j+	c #170724",
"k+	c #280349",
"l+	c #170329",
"m+	c #0A0212",
"n+	c #1B0331",
"o+	c #370368",
"p+	c #400277",
"q+	c #11080D",
"r+	c #824040",
"s+	c #E67476",
"t+	c #FD7878",
"u+	c #934647",
"v+	c #170C0D",
"w+	c #2D0252",
"x+	c #3F0276",
"y+	c #2D0354",
"z+	c #0B0213",
"A+	c #29232C",
"B+	c #8E8D8F",
"C+	c #DAD7DA",
"D+	c #F6EBED",
"E+	c #FDC7C8",
"F+	c #F99596",
"G+	c #FA8080",
"H+	c #F97878",
"I+	c #FC7878",
"J+	c #FA7878",
"K+	c #F97B7B",
"L+	c #FB7878",
"M+	c #FC7777",
"N+	c #FD7B7B",
"O+	c #FE7F7F",
"P+	c #FD8181",
"Q+	c #FE8787",
"R+	c #FD8A8B",
"S+	c #FE9494",
"T+	c #FDA1A1",
"U+	c #FDB0B0",
"V+	c #FEC8C8",
"W+	c #FEE1E1",
"X+	c #F5EEEF",
"Y+	c #C9C8C9",
"Z+	c #6F6774",
"`+	c #180E1C",
" @	c #11021D",
".@	c #230242",
"+@	c #350365",
"@@	c #270845",
"#@	c #28242C",
"$@	c #262229",
"%@	c #22023F",
"&@	c #08040B",
"*@	c #7B4555",
"=@	c #F07373",
"-@	c #9E4C4C",
";@	c #1E0F0F",
">@	c #29024D",
",@	c #3F0277",
"'@	c #28024B",
")@	c #0F021B",
"!@	c #07020C",
"~@	c #2C2B2D",
"{@	c #9D8EA8",
"]@	c #DFDDE0",
"^@	c #F4EEEE",
"/@	c #FDC2C2",
"(@	c #FB9192",
"_@	c #FB7F7F",
":@	c #FD7A7A",
"<@	c #FE7979",
"[@	c #F67B7B",
"}@	c #FB7676",
"|@	c #FA7879",
"1@	c #F77B7B",
"2@	c #FE7C7C",
"3@	c #FD7D7D",
"4@	c #FC8A8A",
"5@	c #FB8989",
"6@	c #EB9193",
"7@	c #C47781",
"8@	c #5B4651",
"9@	c #120E14",
"0@	c #09020F",
"a@	c #0F021A",
"b@	c #250246",
"c@	c #370C5D",
"d@	c #706B74",
"e@	c #8F8892",
"f@	c #1F0F2C",
"g@	c #300258",
"h@	c #3A026E",
"i@	c #4B3F4F",
"j@	c #F49193",
"k@	c #B05353",
"l@	c #2B1515",
"m@	c #1D0335",
"n@	c #3D0273",
"o@	c #33035E",
"p@	c #150425",
"q@	c #09060B",
"r@	c #3B393D",
"s@	c #A19AA7",
"t@	c #E8E4E8",
"u@	c #F9F3F8",
"v@	c #FEC7C8",
"w@	c #FC9090",
"x@	c #F77A7A",
"y@	c #F87A7A",
"z@	c #F67677",
"A@	c #FC7879",
"B@	c #FA7778",
"C@	c #F57879",
"D@	c #E3797A",
"E@	c #8F4E4F",
"F@	c #3C2B2F",
"G@	c #0D070D",
"H@	c #0E0416",
"I@	c #27024A",
"J@	c #36095D",
"K@	c #726C76",
"L@	c #EABCC1",
"M@	c #713D41",
"N@	c #220632",
"O@	c #1F023A",
"P@	c #141117",
"Q@	c #D7C7D7",
"R@	c #FD7F7F",
"S@	c #E36D6D",
"T@	c #502727",
"U@	c #0C0314",
"V@	c #30025C",
"W@	c #0E0616",
"X@	c #272328",
"Y@	c #8B838B",
"Z@	c #E9E4E5",
"`@	c #FDEAEA",
" #	c #FDC5C5",
".#	c #FEA5A5",
"+#	c #FB7A7A",
"@#	c #F67979",
"##	c #FA7A7A",
"$#	c #F77677",
"%#	c #FD7C7D",
"&#	c #F1888C",
"*#	c #BC818C",
"=#	c #59444A",
"-#	c #130F11",
";#	c #150524",
">#	c #340262",
",#	c #340263",
"'#	c #633D51",
")#	c #F48D90",
"!#	c #CD6162",
"~#	c #432022",
"{#	c #2C034E",
"]#	c #3F0279",
"^#	c #12031F",
"/#	c #605E62",
"(#	c #F6DFDF",
"_#	c #F87878",
":#	c #853F3F",
"<#	c #130A0A",
"[#	c #2E0255",
"}#	c #2C0251",
"|#	c #0F0717",
"1#	c #3B3A3B",
"2#	c #B3B0B5",
"3#	c #F9F6F8",
"4#	c #FEDFDF",
"5#	c #F89595",
"6#	c #F97777",
"7#	c #F87778",
"8#	c #EE8388",
"9#	c #975F72",
"0#	c #321D27",
"a#	c #110516",
"b#	c #2A034E",
"c#	c #682C44",
"d#	c #F87777",
"e#	c #803D3D",
"f#	c #1E0920",
"g#	c #380268",
"h#	c #340363",
"i#	c #0C0215",
"j#	c #89838A",
"k#	c #F9E5E5",
"l#	c #FA7979",
"m#	c #BC5B5B",
"n#	c #2C1616",
"o#	c #1C0333",
"p#	c #3E0277",
"q#	c #100C11",
"r#	c #47454A",
"s#	c #B5B3B6",
"t#	c #FEFCFE",
"u#	c #FDEDED",
"v#	c #FDA5A5",
"w#	c #F97979",
"x#	c #F77979",
"y#	c #F87979",
"z#	c #FC7D7D",
"A#	c #BB5F62",
"B#	c #51282B",
"C#	c #11080B",
"D#	c #1F033A",
"E#	c #3D0274",
"F#	c #370362",
"G#	c #6A2F3B",
"H#	c #D96868",
"I#	c #49282C",
"J#	c #210638",
"K#	c #38026A",
"L#	c #0D0218",
"M#	c #7F6F7B",
"N#	c #F8DCDD",
"O#	c #EE7272",
"P#	c #552929",
"Q#	c #120418",
"R#	c #280249",
"S#	c #0E0B0D",
"T#	c #706775",
"U#	c #D0CCD5",
"V#	c #FEF3F3",
"W#	c #FDC4C5",
"X#	c #FD8B8C",
"Y#	c #FB7979",
"Z#	c #FB7879",
"`#	c #DB6969",
" $	c #6D3536",
".$	c #460282",
"+$	c #3D0660",
"@$	c #783737",
"#$	c #AC5B65",
"$$	c #301A2B",
"%$	c #340461",
"&$	c #6C494F",
"*$	c #F6AEAE",
"=$	c #FD7E7E",
"-$	c #9C4A4A",
";$	c #190D0D",
">$	c #230241",
",$	c #270248",
"'$	c #0A040B",
")$	c #635F62",
"!$	c #F0EAF3",
"~$	c #FEC3C3",
"{$	c #EC7171",
"]$	c #7F3D3D",
"^$	c #12080E",
"/$	c #260246",
"($	c #3F0D58",
"_$	c #8E4444",
":$	c #F97778",
"<$	c #F77676",
"[$	c #96495B",
"}$	c #2A093D",
"|$	c #10021D",
"1$	c #693434",
"2$	c #F67A7A",
"3$	c #E16B6B",
"4$	c #442121",
"5$	c #0B040F",
"6$	c #330260",
"7$	c #42027A",
"8$	c #31025D",
"9$	c #100816",
"0$	c #6A6071",
"a$	c #DCDBDC",
"b$	c #FEF7F8",
"c$	c #FD8A8A",
"d$	c #733738",
"e$	c #0B0310",
"f$	c #2B0250",
"g$	c #420573",
"h$	c #5C2545",
"i$	c #CF6464",
"j$	c #EC9999",
"k$	c #3B243E",
"l$	c #4C222B",
"m$	c #EF7273",
"n$	c #B85858",
"o$	c #1B0E10",
"p$	c #120220",
"q$	c #390369",
"r$	c #340361",
"s$	c #130222",
"t$	c #4F4855",
"u$	c #DFD9E5",
"v$	c #FDF6F8",
"w$	c #FDB2B3",
"x$	c #FD8F8F",
"y$	c #E16C6D",
"z$	c #5C2C2F",
"A$	c #4B0C72",
"B$	c #884245",
"C$	c #FD797A",
"D$	c #FED0D0",
"E$	c #584663",
"F$	c #42037D",
"G$	c #1A0A16",
"H$	c #D97A83",
"I$	c #060405",
"J$	c #160229",
"K$	c #3E0375",
"L$	c #1B0333",
"M$	c #211E23",
"N$	c #BEB9C0",
"O$	c #FBE7E8",
"P$	c #FCA8A9",
"Q$	c #C55D5D",
"R$	c #2B131A",
"S$	c #2E0A44",
"T$	c #480782",
"U$	c #400377",
"V$	c #481A46",
"W$	c #C86161",
"X$	c #FE7B7B",
"Y$	c #584568",
"Z$	c #2C0352",
"`$	c #08030D",
" %	c #C18A95",
".%	c #603030",
"+%	c #040206",
"@%	c #18032A",
"#%	c #38036A",
"$%	c #130A19",
"%%	c #8B8191",
"&%	c #F1ECF2",
"*%	c #FBAEAF",
"=%	c #ED7272",
"-%	c #783A3B",
";%	c #33132D",
">%	c #661B79",
",%	c #3D0666",
"'%	c #75363B",
")%	c #F67676",
"!%	c #F8DBDD",
"~%	c #3D2652",
"{%	c #350364",
"]%	c #7F6F7F",
"^%	c #FA9293",
"/%	c #E66D6D",
"(%	c #633030",
"_%	c #040205",
":%	c #0E0218",
"<%	c #5C5761",
"[%	c #DDDAE0",
"}%	c #FDDEDF",
"|%	c #FE8586",
"1%	c #F67576",
"2%	c #F87575",
"3%	c #B45657",
"4%	c #3A1B1E",
"5%	c #60255B",
"6%	c #4D0B85",
"7%	c #391636",
"8%	c #D86868",
"9%	c #D2B2B5",
"0%	c #391955",
"a%	c #3C0372",
"b%	c #574A60",
"c%	c #FDCACA",
"d%	c #EC6F6F",
"e%	c #0F080A",
"f%	c #060305",
"g%	c #0A0211",
"h%	c #130C19",
"i%	c #A4A1A5",
"j%	c #FAF8F9",
"k%	c #FCB0B0",
"l%	c #FE7D7D",
"m%	c #F47575",
"n%	c #D86767",
"o%	c #CC6161",
"p%	c #CF6363",
"q%	c #E76F6F",
"r%	c #F17878",
"s%	c #D66666",
"t%	c #542525",
"u%	c #5B213B",
"v%	c #681A7A",
"w%	c #39075F",
"x%	c #9F4D4D",
"y%	c #B28A96",
"z%	c #3B135F",
"A%	c #12031D",
"B%	c #121213",
"C%	c #E4D0E1",
"D%	c #FC8D8D",
"E%	c #C45D5D",
"F%	c #4E2525",
"G%	c #120909",
"H%	c #090506",
"I%	c #6E656D",
"J%	c #E7C8CA",
"K%	c #FE8A8A",
"L%	c #D46666",
"M%	c #5B2C2C",
"N%	c #261313",
"O%	c #201010",
"P%	c #2A1414",
"Q%	c #4F2525",
"R%	c #8A4242",
"S%	c #CA6161",
"T%	c #E46E6E",
"U%	c #F77777",
"V%	c #EA7272",
"W%	c #773C3E",
"X%	c #411A32",
"Y%	c #681C75",
"Z%	c #723346",
"`%	c #FE8E8E",
" &	c #8E7080",
".&	c #3C0E66",
"+&	c #270448",
"@&	c #09070B",
"#&	c #BBA5C1",
"$&	c #E36B6B",
"%&	c #904545",
"&&	c #361A1A",
"*&	c #DC6969",
"=&	c #A75151",
"-&	c #653131",
";&	c #391C1C",
">&	c #241212",
",&	c #422020",
"'&	c #7F3E3E",
")&	c #C25D5E",
"!&	c #DA6969",
"~&	c #EF7373",
"{&	c #9E4C4D",
"]&	c #462223",
"^&	c #6C2466",
"/&	c #3D0271",
"(&	c #461451",
"_&	c #E36C6F",
":&	c #FD7B7C",
"<&	c #FEAFAF",
"[&	c #745B74",
"}&	c #44097B",
"|&	c #360367",
"1&	c #615D60",
"2&	c #F6D3D4",
"3&	c #FB8787",
"4&	c #B65757",
"5&	c #4B2425",
"6&	c #C86060",
"7&	c #EB7171",
"8&	c #B45757",
"9&	c #673232",
"0&	c #311919",
"a&	c #261315",
"b&	c #452122",
"c&	c #843F40",
"d&	c #B25556",
"e&	c #CD6363",
"f&	c #E06E6E",
"g&	c #F67777",
"h&	c #D76767",
"i&	c #C85F5F",
"j&	c #833E3E",
"k&	c #3E1E1F",
"l&	c #5B1D5E",
"m&	c #3F0375",
"n&	c #34045A",
"o&	c #46193F",
"p&	c #BA585C",
"q&	c #F97676",
"r&	c #FB8C8D",
"s&	c #F9DADF",
"t&	c #573E6D",
"u&	c #400478",
"v&	c #150325",
"w&	c #181619",
"x&	c #C2B1B8",
"y&	c #FDA9A9",
"z&	c #522829",
"A&	c #C05B5C",
"B&	c #F17373",
"C&	c #BD5A5A",
"D&	c #854040",
"E&	c #2A1516",
"F&	c #281314",
"G&	c #401F1F",
"H&	c #683333",
"I&	c #964848",
"J&	c #B95858",
"K&	c #D06464",
"L&	c #FA7676",
"M&	c #D46565",
"N&	c #A65152",
"O&	c #7E3C3C",
"P&	c #5B2B2B",
"Q&	c #592A2A",
"R&	c #411F20",
"S&	c #291415",
"T&	c #331037",
"U&	c #361553",
"V&	c #583347",
"W&	c #BF5E5F",
"X&	c #F77575",
"Y&	c #FBB6B9",
"Z&	c #CFC0CA",
"`&	c #492768",
" *	c #340261",
".*	c #0B090B",
"+*	c #625A64",
"@*	c #F5C5CC",
"#*	c #622F2F",
"$*	c #C35E5E",
"%*	c #AD5353",
"&*	c #944646",
"**	c #703636",
"=*	c #432121",
"-*	c #271415",
";*	c #2E1616",
">*	c #492323",
",*	c #6D3535",
"'*	c #9B4A4B",
")*	c #C25D5D",
"!*	c #EC7272",
"~*	c #C35D5D",
"{*	c #CB6162",
"]*	c #EE7171",
"^*	c #9A4A4A",
"/*	c #C65F5F",
"(*	c #D96869",
"_*	c #924647",
":*	c #4B2627",
"<*	c #643030",
"[*	c #8A4141",
"}*	c #AC5151",
"|*	c #A34E4E",
"1*	c #3C1E1E",
"2*	c #34272B",
"3*	c #8E6974",
"4*	c #D88088",
"5*	c #F67C7D",
"6*	c #F7D6DB",
"7*	c #82798A",
"8*	c #40116B",
"9*	c #13041F",
"0*	c #262427",
"a*	c #C0A1AE",
"b*	c #683232",
"c*	c #B55757",
"d*	c #ED7070",
"e*	c #CA5F5F",
"f*	c #A85252",
"g*	c #944848",
"h*	c #7E3F40",
"i*	c #4D2626",
"j*	c #2D1616",
"k*	c #3F1E20",
"l*	c #663131",
"m*	c #DA6A6A",
"n*	c #8C4344",
"o*	c #D16667",
"p*	c #4E2526",
"q*	c #EC7070",
"r*	c #A85151",
"s*	c #623031",
"t*	c #633233",
"u*	c #924646",
"v*	c #BC5959",
"w*	c #E86F6F",
"x*	c #E96F6F",
"y*	c #733838",
"z*	c #553539",
"A*	c #D77E80",
"B*	c #FC7F7F",
"C*	c #FEAEAE",
"D*	c #BBA5A9",
"E*	c #4E2E66",
"F*	c #3F0476",
"G*	c #460582",
"H*	c #450581",
"I*	c #32055D",
"J*	c #0E0D10",
"K*	c #756A75",
"L*	c #FBC7C9",
"M*	c #FD8888",
"N*	c #653030",
"O*	c #AF5454",
"P*	c #F47878",
"Q*	c #793A3B",
"R*	c #6C3434",
"S*	c #6D3434",
"T*	c #6B3333",
"U*	c #6C3333",
"V*	c #6E3434",
"W*	c #904444",
"X*	c #B25656",
"Y*	c #D96969",
"Z*	c #D36666",
"`*	c #A95454",
" =	c #7E3C3D",
".=	c #4D2525",
"+=	c #974848",
"@=	c #DB6B6C",
"#=	c #844347",
"$=	c #693232",
"%=	c #B15656",
"&=	c #934748",
"*=	c #A04E4F",
"==	c #733737",
"-=	c #482222",
";=	c #8C4243",
">=	c #D26565",
",=	c #F87676",
"'=	c #A04D4D",
")=	c #4B2424",
"!=	c #BF5B5B",
"~=	c #FB7E7F",
"{=	c #D6999F",
"]=	c #684D75",
"^=	c #3F0A6E",
"/=	c #44057F",
"(=	c #460682",
"_=	c #490982",
":=	c #410678",
"<=	c #150424",
"[=	c #3E3C40",
"}=	c #D7C7C9",
"|=	c #FDAFAF",
"1=	c #ED7575",
"2=	c #612F2F",
"3=	c #BE5A5A",
"4=	c #8D4444",
"5=	c #341A1A",
"6=	c #321F21",
"7=	c #80797A",
"8=	c #938E8F",
"9=	c #928E8E",
"0=	c #918D8E",
"a=	c #928D8E",
"b=	c #8D8788",
"c=	c #7B7273",
"d=	c #65585A",
"e=	c #463234",
"f=	c #3E1E20",
"g=	c #6F3535",
"h=	c #BA5B5B",
"i=	c #D16565",
"j=	c #562929",
"k=	c #2D1617",
"l=	c #381C1E",
"m=	c #3F2021",
"n=	c #612E2E",
"o=	c #703536",
"p=	c #D56666",
"q=	c #7B3C3C",
"r=	c #954848",
"s=	c #4C2525",
"t=	c #6F3636",
"u=	c #BB5859",
"v=	c #EE7172",
"w=	c #C76060",
"x=	c #4D2627",
"y=	c #A15051",
"z=	c #F49094",
"A=	c #916B82",
"B=	c #42166A",
"C=	c #44067F",
"D=	c #480882",
"E=	c #4D0D85",
"F=	c #4B0C83",
"G=	c #33055E",
"H=	c #121212",
"I=	c #828081",
"J=	c #FDDBDC",
"K=	c #FE9797",
"L=	c #F87677",
"M=	c #B35757",
"N=	c #7B3B3B",
"O=	c #7D3C3D",
"P=	c #1A0D0D",
"Q=	c #514F52",
"R=	c #BAB9B9",
"S=	c #EDEDED",
"T=	c #F2F2F2",
"U=	c #F1F1F1",
"V=	c #EBEBEB",
"W=	c #E5E4E5",
"X=	c #DADADB",
"Y=	c #B1B0B0",
"Z=	c #787272",
"`=	c #4B3031",
" -	c #AA5151",
".-	c #E56E6E",
"+-	c #BD5B5C",
"@-	c #542929",
"#-	c #090505",
"$-	c #472222",
"%-	c #C25C5C",
"&-	c #6E3535",
"*-	c #C15B5B",
"=-	c #F17272",
"--	c #1F0F10",
";-	c #3B1C1E",
">-	c #9C4B4B",
",-	c #653031",
"'-	c #813F40",
")-	c #EF7272",
"!-	c #FD8384",
"~-	c #BC7C86",
"{-	c #5A3276",
"]-	c #4A0C80",
"^-	c #501388",
"/-	c #4E0F86",
"(-	c #4F1287",
"_-	c #4F1087",
":-	c #4F1187",
"<-	c #440B75",
"[-	c #160426",
"}-	c #C5BCC8",
"|-	c #F9B3B4",
"1-	c #C55E5E",
"2-	c #472224",
"3-	c #934747",
"4-	c #F57677",
"5-	c #A7585D",
"6-	c #231415",
"7-	c #585659",
"8-	c #E9E9E9",
"9-	c #FBFBFB",
"0-	c #FAFAFA",
"a-	c #B9B5B8",
"b-	c #422B2B",
"c-	c #EF7171",
"d-	c #CB6060",
"e-	c #2F1616",
"f-	c #2A1515",
"g-	c #BA5959",
"h-	c #F27474",
"i-	c #140A0A",
"j-	c #803D3E",
"k-	c #7D3B3C",
"l-	c #723738",
"m-	c #E17A80",
"n-	c #794677",
"o-	c #440F75",
"p-	c #4E0E86",
"q-	c #511488",
"r-	c #55168A",
"s-	c #521589",
"t-	c #541589",
"u-	c #531589",
"v-	c #4F1485",
"w-	c #350F57",
"x-	c #050307",
"y-	c #3E3A41",
"z-	c #C3949C",
"A-	c #FB8E8E",
"B-	c #F77C7C",
"C-	c #F37575",
"D-	c #8B4343",
"E-	c #5F2E2E",
"F-	c #F37475",
"G-	c #532828",
"H-	c #DE6C6D",
"I-	c #4E2D2D",
"J-	c #4D4C4F",
"K-	c #DEDAE0",
"L-	c #FDFDFE",
"M-	c #E2E1E2",
"N-	c #706F72",
"O-	c #1D191C",
"P-	c #151113",
"Q-	c #545256",
"R-	c #A19FA3",
"S-	c #E4E3E6",
"T-	c #AFAEAF",
"U-	c #533C3E",
"V-	c #A75353",
"W-	c #F67878",
"X-	c #E47071",
"Y-	c #DD6969",
"Z-	c #613132",
"`-	c #AD5555",
" ;	c #F57A7A",
".;	c #3F1F1F",
"+;	c #2F1717",
"@;	c #B85959",
"#;	c #502626",
"$;	c #EA7475",
"%;	c #94475A",
"&;	c #401664",
"*;	c #56168A",
"=;	c #56178B",
"-;	c #56178A",
";;	c #501681",
">;	c #2E1049",
",;	c #0B050D",
"';	c #4C424A",
");	c #C3959B",
"!;	c #F78D8E",
"~;	c #9D4C4C",
"{;	c #211010",
"];	c #E16A6A",
"^;	c #6D3636",
"/;	c #686264",
"(;	c #E3E2E3",
"_;	c #7A797B",
":;	c #1B181B",
"<;	c #68666A",
"[;	c #A1A1A1",
"};	c #7C7B7E",
"|;	c #4F4F4F",
"1;	c #545454",
"2;	c #959595",
"3;	c #7E7A7E",
"4;	c #4B292F",
"5;	c #BE5B5B",
"6;	c #D36768",
"7;	c #E16E6F",
"8;	c #F77778",
"9;	c #BF5D5D",
"0;	c #482323",
"a;	c #B85764",
"b;	c #4B1A60",
"c;	c #54168A",
"d;	c #581C8D",
"e;	c #581B8D",
"f;	c #57198B",
"g;	c #511A81",
"h;	c #2D1047",
"i;	c #09040D",
"j;	c #3A353E",
"k;	c #AA7E85",
"l;	c #EC7E7F",
"m;	c #BD5C5C",
"n;	c #B65B5B",
"o;	c #452121",
"p;	c #743838",
"q;	c #E46D6D",
"r;	c #F57778",
"s;	c #291414",
"t;	c #4B3537",
"u;	c #C0BEC0",
"v;	c #F2F1F2",
"w;	c #605E60",
"x;	c #302E31",
"y;	c #CFCFCF",
"z;	c #D8D6D8",
"A;	c #5E5D5E",
"B;	c #58505F",
"C;	c #4D4357",
"D;	c #693737",
"E;	c #DB696A",
"F;	c #E66E6E",
"G;	c #B95959",
"H;	c #944A4A",
"I;	c #894343",
"J;	c #AE5454",
"K;	c #C75F5F",
"L;	c #F77878",
"M;	c #5E2D2D",
"N;	c #B85757",
"O;	c #E16B6D",
"P;	c #713355",
"Q;	c #4C1979",
"R;	c #5A1E8E",
"S;	c #5A1F8E",
"T;	c #521C81",
"U;	c #2F104A",
"V;	c #251F2A",
"W;	c #90494F",
"X;	c #CE6364",
"Y;	c #A14D4D",
"Z;	c #E06B6B",
"`;	c #894242",
" >	c #554E50",
".>	c #D5D5D5",
"+>	c #939294",
"@>	c #1B1A1C",
"#>	c #858485",
"$>	c #F4F4F4",
"%>	c #474448",
"&>	c #5F5D62",
"*>	c #443D40",
"=>	c #974A4B",
"->	c #80474B",
";>	c #4A3739",
">>	c #413D3D",
",>	c #575656",
"'>	c #646264",
")>	c #545354",
"!>	c #454545",
"~>	c #3C2E30",
"{>	c #9E4E4F",
"]>	c #CF6364",
"^>	c #602E2E",
"/>	c #F17777",
"(>	c #AF5362",
"_>	c #4A1C6E",
":>	c #5D2490",
"<>	c #5D2290",
"[>	c #5D2690",
"}>	c #561F87",
"|>	c #3C1461",
"1>	c #15091E",
"2>	c #0C070D",
"3>	c #442222",
"4>	c #4E2626",
"5>	c #371B1C",
"6>	c #311818",
"7>	c #AB5252",
"8>	c #984848",
"9>	c #763939",
"0>	c #E26C6C",
"a>	c #2F1617",
"b>	c #DB6868",
"c>	c #7E3E40",
"d>	c #6D6A6B",
"e>	c #E5E5E5",
"f>	c #DCDADD",
"g>	c #484748",
"h>	c #252525",
"i>	c #A0A0A0",
"j>	c #CECECE",
"k>	c #8C898F",
"l>	c #807D83",
"m>	c #673A3B",
"n>	c #DE6A6A",
"o>	c #E57071",
"p>	c #87595D",
"q>	c #8A878D",
"r>	c #B0AFB1",
"s>	c #CBCACB",
"t>	c #EFEEEF",
"u>	c #FCFBFC",
"v>	c #EAEAEA",
"w>	c #898889",
"x>	c #434144",
"y>	c #100F10",
"z>	c #0F0809",
"A>	c #5B2C2D",
"B>	c #D46567",
"C>	c #632D55",
"D>	c #5B218F",
"E>	c #5D2590",
"F>	c #5F2891",
"G>	c #5F2691",
"H>	c #5F2890",
"I>	c #5E2790",
"J>	c #5F2791",
"K>	c #2F1440",
"L>	c #211014",
"M>	c #4C2426",
"N>	c #7C3C3C",
"O>	c #904646",
"P>	c #EB7273",
"Q>	c #211111",
"R>	c #A75050",
"S>	c #763A3A",
"T>	c #6E3737",
"U>	c #817F7F",
"V>	c #B1AFB2",
"W>	c #3B3A3C",
"X>	c #242324",
"Y>	c #787878",
"Z>	c #C0BFC1",
"`>	c #D5D4D5",
" ,	c #929192",
".,	c #525152",
"+,	c #C3C3C3",
"@,	c #A7A6A8",
"#,	c #684445",
"$,	c #D76666",
"%,	c #FB7B7B",
"&,	c #CD7A7C",
"*,	c #9E969A",
"=,	c #F5F5F5",
"-,	c #B2B1B3",
";,	c #898789",
">,	c #989898",
",,	c #8D8B8D",
"',	c #525052",
"),	c #211E20",
"!,	c #2D1718",
"~,	c #683233",
"{,	c #432122",
"],	c #B35656",
"^,	c #E86F70",
"/,	c #7E3C5C",
"(,	c #56247A",
"_,	c #542475",
":,	c #612A91",
"<,	c #642E94",
"[,	c #642D94",
"},	c #602991",
"|,	c #632C93",
"1,	c #281138",
"2,	c #5D2D30",
"3,	c #874141",
"4,	c #793B3B",
"5,	c #EB7272",
"6,	c #E67070",
"7,	c #1B0E0F",
"8,	c #622F30",
"9,	c #643031",
"0,	c #7F7E7E",
"a,	c #FBF9FB",
"b,	c #C2C0C2",
"c,	c #757475",
"d,	c #2A292B",
"e,	c #4F4F50",
"f,	c #5E5C5E",
"g,	c #ACABAB",
"h,	c #9F9CA0",
"i,	c #79484B",
"j,	c #E06C6C",
"k,	c #EC7979",
"l,	c #B0898A",
"m,	c #E4E3E5",
"n,	c #F9F7FA",
"o,	c #525153",
"p,	c #CBCBCB",
"q,	c #F9F9F9",
"r,	c #D6D5D6",
"s,	c #ADACAD",
"t,	c #6A686A",
"u,	c #241C1D",
"v,	c #DE6B6B",
"w,	c #793957",
"x,	c #5C2B7F",
"y,	c #632D93",
"z,	c #622B92",
"A,	c #4C2566",
"B,	c #652F95",
"C,	c #673197",
"D,	c #663096",
"E,	c #612A92",
"F,	c #1D0D2C",
"G,	c #713636",
"H,	c #6E3636",
"I,	c #843E3E",
"J,	c #7E3D3E",
"K,	c #7D3C3C",
"L,	c #F07272",
"M,	c #E97070",
"N,	c #190D0E",
"O,	c #F57576",
"P,	c #ED7171",
"Q,	c #663132",
"R,	c #653132",
"S,	c #C0BFC0",
"T,	c #B1B1B1",
"U,	c #B3B3B3",
"V,	c #908E91",
"W,	c #82484A",
"X,	c #FD7A7B",
"Y,	c #D68088",
"Z,	c #9C9496",
"`,	c #F8F6FA",
" '	c #5B5A5D",
".'	c #58535C",
"+'	c #D3D3D3",
"@'	c #C8C7C9",
"#'	c #414042",
"$'	c #150A0A",
"%'	c #B15454",
"&'	c #713850",
"*'	c #542579",
"='	c #662F96",
"-'	c #4C276E",
";'	c #683398",
">'	c #582C81",
",'	c #180C22",
"''	c #F37373",
")'	c #653232",
"!'	c #864141",
"~'	c #854041",
"{'	c #E56D6D",
"]'	c #E37070",
"^'	c #1A0D0F",
"/'	c #676668",
"('	c #E4E3E4",
"_'	c #888788",
":'	c #794243",
"<'	c #E66E6F",
"['	c #A17B7E",
"}'	c #D5D4D6",
"|'	c #CDCDCE",
"1'	c #302F30",
"2'	c #646164",
"3'	c #A6A5A7",
"4'	c #DBDADB",
"5'	c #C1BFC2",
"6'	c #545056",
"7'	c #1D171B",
"8'	c #331A20",
"9'	c #492243",
"0'	c #5C2E7E",
"a'	c #653095",
"b'	c #5A2789",
"c'	c #6D399C",
"d'	c #6B369A",
"e'	c #6A3599",
"f'	c #6A3699",
"g'	c #6C389B",
"h'	c #6B379A",
"i'	c #4D256A",
"j'	c #120918",
"k'	c #7C3C3D",
"l'	c #F57575",
"m'	c #8F494D",
"n'	c #6A3536",
"o'	c #D86B6B",
"p'	c #170C0C",
"q'	c #793A3A",
"r'	c #372F31",
"s'	c #C4C4C5",
"t'	c #8E8D8D",
"u'	c #3C383E",
"v'	c #605D64",
"w'	c #C7C7C8",
"x'	c #696969",
"y'	c #8F4849",
"z'	c #ED7677",
"A'	c #F57878",
"B'	c #7D787A",
"C'	c #E0DEE0",
"D'	c #7A7A7A",
"E'	c #444245",
"F'	c #252426",
"G'	c #333233",
"H'	c #7F7F7F",
"I'	c #B7B6B8",
"J'	c #3C1A58",
"K'	c #62318D",
"L'	c #693698",
"M'	c #6C389C",
"N'	c #532B73",
"O'	c #6E3A9D",
"P'	c #442361",
"Q'	c #0E0813",
"R'	c #884646",
"S'	c #F47676",
"T'	c #F57676",
"U'	c #632E2E",
"V'	c #8F4545",
"W'	c #994848",
"X'	c #CC6060",
"Y'	c #F47576",
"Z'	c #281414",
"`'	c #D76768",
" )	c #B95A5A",
".)	c #331B1B",
"+)	c #79797A",
"@)	c #ECECEC",
"#)	c #BDBABE",
"$)	c #4B464C",
"%)	c #A2A2A2",
"&)	c #A59EAA",
"*)	c #352F36",
"=)	c #636063",
"-)	c #EBEAEB",
";)	c #D1D0D2",
">)	c #514A4C",
",)	c #AB5151",
"')	c #D56969",
"))	c #9F9F9F",
"!)	c #F8F8F8",
"~)	c #F3F3F4",
"{)	c #EBE8EB",
"])	c #F6F4F6",
"^)	c #EFEFEF",
"/)	c #5C5C5C",
"()	c #341B4B",
"_)	c #663692",
":)	c #713F9F",
"<)	c #6D3A9B",
"[)	c #7240A0",
"})	c #6F3C9E",
"|)	c #703D9E",
"1)	c #703E9F",
"2)	c #703D9F",
"3)	c #3F1F53",
"4)	c #A14E4E",
"5)	c #F57474",
"6)	c #643131",
"7)	c #6B3434",
"8)	c #632F2F",
"9)	c #CD6262",
"0)	c #413F41",
"a)	c #D7D7D8",
"b)	c #B0ADB3",
"c)	c #39343E",
"d)	c #BAB9BA",
"e)	c #464647",
"f)	c #5E5C5F",
"g)	c #F8F8F9",
"h)	c #9B9B9B",
"i)	c #5E3A3A",
"j)	c #D16464",
"k)	c #A05050",
"l)	c #7D7B7E",
"m)	c #E6E5E6",
"n)	c #351C47",
"o)	c #693B93",
"p)	c #6F3B9E",
"q)	c #713E9F",
"r)	c #703C9E",
"s)	c #713FA0",
"t)	c #7342A0",
"u)	c #7341A0",
"v)	c #7241A0",
"w)	c #311C41",
"x)	c #B25555",
"y)	c #C45E5E",
"z)	c #E76E6E",
"A)	c #7A3B3B",
"B)	c #2D1D1E",
"C)	c #ACAAB0",
"D)	c #F9F8F9",
"E)	c #D7D4D9",
"F)	c #59525C",
"G)	c #5F5A5F",
"H)	c #C5C3C6",
"I)	c #D8D7D8",
"J)	c #949396",
"K)	c #333333",
"L)	c #EFECF1",
"M)	c #D9D7DA",
"N)	c #64595D",
"O)	c #894244",
"P)	c #8E4646",
"Q)	c #424142",
"R)	c #FDFBFD",
"S)	c #6B696C",
"T)	c #585758",
"U)	c #B8B8B8",
"V)	c #D7D7D7",
"W)	c #484848",
"X)	c #221229",
"Y)	c #643889",
"Z)	c #7848A2",
"`)	c #7747A2",
" !	c #7544A1",
".!	c #7645A1",
"+!	c #7646A1",
"@!	c #7443A1",
"#!	c #7746A2",
"$!	c #714499",
"%!	c #2E1C3B",
"&!	c #381C1C",
"*!	c #DA6868",
"=!	c #F67575",
"-!	c #8E4445",
";!	c #803E3F",
">!	c #D96B6B",
",!	c #2B1414",
"'!	c #C96161",
")!	c #713737",
"!!	c #DC6B6B",
"~!	c #472323",
"{!	c #514F50",
"]!	c #E1E1E1",
"^!	c #B8B5B8",
"/!	c #4B494B",
"(!	c #4E4C4F",
"_!	c #5C5A5D",
":!	c #565458",
"<!	c #A7A7A7",
"[!	c #FCFCFC",
"}!	c #EDECED",
"|!	c #848083",
"1!	c #5B3131",
"2!	c #CE6566",
"3!	c #232323",
"4!	c #B5B4B5",
"5!	c #5D5C5D",
"6!	c #B2B1B2",
"7!	c #616062",
"8!	c #F9F7F9",
"9!	c #BFBEBF",
"0!	c #363637",
"a!	c #5E387E",
"b!	c #7949A2",
"c!	c #7A4AA4",
"d!	c #7949A3",
"e!	c #7B4BA4",
"f!	c #794AA3",
"g!	c #7849A3",
"h!	c #674187",
"i!	c #22172B",
"j!	c #582B2B",
"k!	c #DF6C6C",
"l!	c #944747",
"m!	c #DF6B6B",
"n!	c #C55F5F",
"o!	c #683131",
"p!	c #130F10",
"q!	c #F5F3F6",
"r!	c #DDDCDE",
"s!	c #B4B3B6",
"t!	c #C5C4C6",
"u!	c #EFECF0",
"v!	c #E1E0E0",
"w!	c #8C8A8D",
"x!	c #473234",
"y!	c #A85050",
"z!	c #FA797A",
"A!	c #FD7879",
"B!	c #ED7676",
"C!	c #4C383D",
"D!	c #C7C6C9",
"E!	c #818082",
"F!	c #828282",
"G!	c #B1B0B3",
"H!	c #98979B",
"I!	c #131214",
"J!	c #533370",
"K!	c #76479F",
"L!	c #7A4AA3",
"M!	c #7C4CA5",
"N!	c #7F4FA7",
"O!	c #7E4EA6",
"P!	c #8050A8",
"Q!	c #7C4EA6",
"R!	c #7C4DA6",
"S!	c #674089",
"T!	c #21152C",
"U!	c #E26E6E",
"V!	c #E36D6E",
"W!	c #231517",
"X!	c #201D1F",
"Y!	c #98959A",
"Z!	c #E2E2E2",
"`!	c #C1C1C1",
" ~	c #6C6767",
".~	c #4E3032",
"+~	c #9C4D4D",
"@~	c #F97677",
"#~	c #A75A60",
"$~	c #30292B",
"%~	c #848484",
"&~	c #F3F3F3",
"*~	c #E3E2E4",
"=~	c #696366",
"-~	c #7D5C62",
";~	c #4C3943",
">~	c #2E1D3A",
",~	c #6E4294",
"'~	c #7B4BA5",
")~	c #7D4DA6",
"!~	c #7A4BA4",
"~~	c #7A4EA6",
"{~	c #8153A8",
"]~	c #8051A8",
"^~	c #8152A8",
"/~	c #623E7F",
"(~	c #1C1324",
"_~	c #F27373",
":~	c #3F2020",
"<~	c #5D2C2C",
"[~	c #77393A",
"}~	c #EA7070",
"|~	c #7E3D3D",
"1~	c #753838",
"2~	c #E36E6E",
"3~	c #602F2F",
"4~	c #8F4749",
"5~	c #562A2B",
"6~	c #282021",
"7~	c #5A5A5B",
"8~	c #817F80",
"9~	c #8E8E8E",
"0~	c #9E9D9E",
"a~	c #B6B5B6",
"b~	c #9B9A9C",
"c~	c #868486",
"d~	c #747375",
"e~	c #666566",
"f~	c #4C4344",
"g~	c #713939",
"h~	c #C15D5D",
"i~	c #EA7878",
"j~	c #8A5254",
"k~	c #353030",
"l~	c #B1B0B2",
"m~	c #FCFCFD",
"n~	c #F7F7F7",
"o~	c #A6A5A6",
"p~	c #563C3D",
"q~	c #BC6363",
"r~	c #A06572",
"s~	c #21171D",
"t~	c #402953",
"u~	c #7A4DA3",
"v~	c #7E50A6",
"w~	c #8153A9",
"x~	c #7E50A7",
"y~	c #7E52A8",
"z~	c #8559AC",
"A~	c #8154A9",
"B~	c #8255AA",
"C~	c #8458AB",
"D~	c #8457AA",
"E~	c #8356AA",
"F~	c #8456AB",
"G~	c #8255A9",
"H~	c #8256A9",
"I~	c #5C3D76",
"J~	c #18111D",
"K~	c #A44F4F",
"L~	c #5B2F30",
"M~	c #7E4145",
"N~	c #6A3334",
"O~	c #E46C6C",
"P~	c #CC6162",
"Q~	c #6A3333",
"R~	c #D56565",
"S~	c #51292B",
"T~	c #110D0D",
"U~	c #362324",
"V~	c #3E2C2D",
"W~	c #4B3B3C",
"X~	c #4B393A",
"Y~	c #523536",
"Z~	c #5B3233",
"`~	c #6A3434",
" {	c #753939",
".{	c #A34E4F",
"+{	c #FA7B7B",
"@{	c #DB7272",
"#{	c #5D3031",
"${	c #423F42",
"%{	c #ABAAAB",
"&{	c #EEEEEE",
"*{	c #EAE9EB",
"={	c #9B9A9B",
"-{	c #5B494A",
";{	c #984C4C",
">{	c #EA7B7F",
",{	c #6A3A3E",
"'{	c #160F14",
"){	c #412D56",
"!{	c #8357AA",
"~{	c #8558AB",
"{{	c #8355AA",
"]{	c #8152A9",
"^{	c #885CAE",
"/{	c #865AAC",
"({	c #8458AA",
"_{	c #875BAE",
":{	c #8559AB",
"<{	c #865AAD",
"[{	c #60407B",
"}{	c #1A1221",
"|{	c #9A4A4B",
"1{	c #F47677",
"2{	c #D86969",
"3{	c #DF6D6F",
"4{	c #C86061",
"5{	c #BF5C5C",
"6{	c #F37474",
"7{	c #3A1C1C",
"8{	c #9B4B4B",
"9{	c #532929",
"0{	c #B7595A",
"a{	c #2C1617",
"b{	c #C05C5C",
"c{	c #EA7171",
"d{	c #5D3435",
"e{	c #2E2D2E",
"f{	c #6F6E70",
"g{	c #CDCCCD",
"h{	c #F6F4F8",
"i{	c #BDBDBE",
"j{	c #767576",
"k{	c #555052",
"l{	c #573939",
"m{	c #A35051",
"n{	c #D96A6B",
"o{	c #43293D",
"p{	c #0E0B11",
"q{	c #331F3E",
"r{	c #6B4887",
"s{	c #875BAD",
"t{	c #8659AC",
"u{	c #8659AD",
"v{	c #6C4A88",
"w{	c #211728",
"x{	c #190E10",
"y{	c #532B2C",
"z{	c #9C4B4C",
"A{	c #3D1E1E",
"B{	c #C65E5E",
"C{	c #BB5959",
"D{	c #DD6A6A",
"E{	c #34191A",
"F{	c #E37676",
"G{	c #8F5D67",
"H{	c #352F38",
"I{	c #323131",
"J{	c #4F4E4F",
"K{	c #6E6D6F",
"L{	c #3D3D3E",
"M{	c #5F3E3F",
"N{	c #924C4D",
"O{	c #D16E77",
"P{	c #482324",
"Q{	c #070506",
"R{	c #23172A",
"S{	c #61427C",
"T{	c #8A61AE",
"U{	c #8960AE",
"V{	c #895EAE",
"W{	c #725091",
"X{	c #241A2E",
"Y{	c #623030",
"Z{	c #DF6F6F",
"`{	c #D66767",
" ]	c #201012",
".]	c #0B0508",
"+]	c #9A4C4C",
"@]	c #A15050",
"#]	c #321A1A",
"$]	c #F57B7B",
"%]	c #F97C7C",
"&]	c #F5797A",
"*]	c #DB6B6D",
"=]	c #B25757",
"-]	c #7E4040",
";]	c #89505A",
">]	c #BB787C",
",]	c #E27171",
"']	c #E77777",
")]	c #714A4F",
"!]	c #0C0C0D",
"~]	c #1B1323",
"{]	c #5F427B",
"]]	c #895FAE",
"^]	c #8E68B2",
"/]	c #8A62AE",
"(]	c #8B64AF",
"_]	c #8F69B3",
":]	c #8D66B1",
"<]	c #8C65B0",
"[]	c #8B63AF",
"}]	c #8E67B2",
"|]	c #8C64B0",
"1]	c #8B62B0",
"2]	c #342442",
"3]	c #321919",
"4]	c #D66565",
"5]	c #F77171",
"6]	c #C74C4C",
"7]	c #571E1E",
"8]	c #241010",
"9]	c #601F1F",
"0]	c #A33333",
"a]	c #CF4040",
"b]	c #EE4B4B",
"c]	c #DC4343",
"d]	c #B53838",
"e]	c #5D1E1E",
"f]	c #16090B",
"g]	c #1E1012",
"h]	c #1E1516",
"i]	c #1E1111",
"j]	c #F47778",
"k]	c #9F575D",
"l]	c #170D15",
"m]	c #23182A",
"n]	c #6F508A",
"o]	c #8F68B3",
"p]	c #483857",
"q]	c #110D10",
"r]	c #BC5D60",
"s]	c #8C3F3F",
"t]	c #491818",
"u]	c #862A2A",
"v]	c #D44141",
"w]	c #F24C4C",
"x]	c #F64E4E",
"y]	c #E44848",
"z]	c #AA3535",
"A]	c #5B1E1F",
"B]	c #1A0A0B",
"C]	c #060303",
"D]	c #5C2C2C",
"E]	c #C96061",
"F]	c #914646",
"G]	c #F37777",
"H]	c #AE5353",
"I]	c #30223C",
"J]	c #7C599C",
"K]	c #916BB4",
"L]	c #6D5286",
"M]	c #1B1520",
"N]	c #6F4C54",
"O]	c #EA797A",
"P]	c #592B2C",
"Q]	c #431618",
"R]	c #C53E3E",
"S]	c #F34C4C",
"T]	c #F04B4B",
"U]	c #9A2F2F",
"V]	c #210B0B",
"W]	c #100606",
"X]	c #1B0D0D",
"Y]	c #A04C4D",
"Z]	c #904546",
"`]	c #2B1616",
" ^	c #DD6C6C",
".^	c #D06363",
"+^	c #884142",
"@^	c #884141",
"#^	c #C05C5D",
"$^	c #E26B6B",
"%^	c #251317",
"&^	c #4E3861",
"*^	c #8C66AE",
"=^	c #9670B7",
"-^	c #9771B8",
";^	c #8763A8",
">^	c #291D33",
",^	c #2B292B",
"'^	c #D97979",
")^	c #D36363",
"!^	c #602021",
"~^	c #E04646",
"{^	c #F14B4B",
"]^	c #F44D4D",
"^^	c #ED4949",
"/^	c #F54E4E",
"(^	c #EC4949",
"_^	c #C23D3D",
":^	c #341111",
"<^	c #682121",
"[^	c #3F1414",
"}^	c #0E0709",
"|^	c #693333",
"1^	c #201112",
"2^	c #AD5757",
"3^	c #783838",
"4^	c #602929",
"5^	c #522020",
"6^	c #481919",
"7^	c #4B1818",
"8^	c #4D191A",
"9^	c #581E1E",
"0^	c #461717",
"a^	c #331313",
"b^	c #E87070",
"c^	c #773F43",
"d^	c #33263C",
"e^	c #785992",
"f^	c #9873B9",
"g^	c #9A76BB",
"h^	c #9A75BA",
"i^	c #483458",
"j^	c #0D080E",
"k^	c #9F696B",
"l^	c #E96E6E",
"m^	c #843F3F",
"n^	c #411A1F",
"o^	c #752329",
"p^	c #A93333",
"q^	c #C33D3D",
"r^	c #E24747",
"s^	c #EF4B4B",
"t^	c #EE4A4A",
"u^	c #B63A3A",
"v^	c #BA4040",
"w^	c #180A0C",
"x^	c #5E2D2F",
"y^	c #A64E4E",
"z^	c #642C2C",
"A^	c #682323",
"B^	c #7F2A2A",
"C^	c #B53939",
"D^	c #D34242",
"E^	c #E24848",
"F^	c #9F3232",
"G^	c #371313",
"H^	c #30191B",
"I^	c #C16E76",
"J^	c #44343C",
"K^	c #604876",
"L^	c #9671B7",
"M^	c #9C78BC",
"N^	c #9A79B7",
"O^	c #755690",
"P^	c #16101C",
"Q^	c #493B3B",
"R^	c #F87E7E",
"S^	c #E76D6D",
"T^	c #9F4B50",
"U^	c #642D34",
"V^	c #582020",
"W^	c #521A1B",
"X^	c #692123",
"Y^	c #7F2535",
"Z^	c #AB3537",
"`^	c #BB3B3B",
" /	c #D04141",
"./	c #E24646",
"+/	c #EB4949",
"@/	c #BA3A3A",
"#/	c #311010",
"$/	c #622222",
"%/	c #732E2F",
"&/	c #371A1A",
"*/	c #E16C6C",
"=/	c #301818",
"-/	c #6D2323",
";/	c #E84949",
">/	c #F44E4E",
",/	c #B43939",
"'/	c #461617",
")/	c #210D0D",
"!/	c #CC6B6D",
"~/	c #6C3F43",
"{/	c #433251",
"]/	c #8B6AA7",
"^/	c #9D7BBD",
"//	c #9D7ABD",
"(/	c #9B7BB8",
"_/	c #9775B7",
":/	c #35273F",
"</	c #0F0E0F",
"[/	c #BB676D",
"}/	c #DA6767",
"|/	c #BB5656",
"1/	c #964647",
"2/	c #6B3435",
"3/	c #4E2230",
"4/	c #4A1819",
"5/	c #421227",
"6/	c #4B1819",
"7/	c #5D1D1F",
"8/	c #682123",
"9/	c #6D2325",
"0/	c #682122",
"a/	c #4F191A",
"b/	c #230E0E",
"c/	c #3A1B1B",
"d/	c #683334",
"e/	c #531927",
"f/	c #F14C4C",
"g/	c #F24D4D",
"h/	c #BC3B3B",
"i/	c #4E191A",
"j/	c #4A2426",
"k/	c #D56667",
"l/	c #A0535D",
"m/	c #352432",
"n/	c #7A5F92",
"o/	c #9E7EBE",
"p/	c #A080BF",
"q/	c #A07FBE",
"r/	c #9E7DBE",
"s/	c #705A73",
"t/	c #121011",
"u/	c #3F242A",
"v/	c #DB7D7F",
"w/	c #CE6161",
"x/	c #BB5757",
"y/	c #A64D5A",
"z/	c #8F4445",
"A/	c #813D3E",
"B/	c #954748",
"C/	c #AB5253",
"D/	c #C25B5B",
"E/	c #E36C6D",
"F/	c #DE6A6B",
"G/	c #BE5B5C",
"H/	c #DF6B6C",
"I/	c #DC6A6B",
"J/	c #E16B6C",
"K/	c #4E232B",
"L/	c #591C1E",
"M/	c #A93535",
"N/	c #F54D4D",
"O/	c #DE4545",
"P/	c #D94343",
"Q/	c #B93A3A",
"R/	c #822929",
"S/	c #40191B",
"T/	c #924747",
"U/	c #D5696D",
"V/	c #47252A",
"W/	c #6A567B",
"X/	c #9B7DBA",
"Y/	c #A282BF",
"Z/	c #9F7FBE",
"`/	c #A181BF",
" (	c #A080BE",
".(	c #A383BF",
"+(	c #A484C0",
"@(	c #9D7FB1",
"#(	c #4D3C5C",
"$(	c #0A0709",
"%(	c #664A4D",
"&(	c #F49296",
"*(	c #E86E6E",
"=(	c #AA5252",
"-(	c #3B1D1E",
";(	c #4C2F30",
">(	c #533B3D",
",(	c #341E20",
"'(	c #342021",
")(	c #331E1E",
"!(	c #3C1D1F",
"~(	c #3C1D20",
"{(	c #3A1C1E",
"](	c #763838",
"^(	c #853E3E",
"/(	c #D06262",
"((	c #7A3839",
"_(	c #51191A",
":(	c #43151D",
"<(	c #4B162A",
"[(	c #551923",
"}(	c #642020",
"|(	c #541927",
"1(	c #421226",
"2(	c #401125",
"3(	c #3A1123",
"4(	c #682D2D",
"5(	c #A95151",
"6(	c #E86D6D",
"7(	c #664D7C",
"8(	c #9F7EBC",
"9(	c #A585C0",
"0(	c #A383C0",
"a(	c #A787C3",
"b(	c #A989C5",
"c(	c #A686C1",
"d(	c #997BB3",
"e(	c #1F1925",
"f(	c #1B1619",
"g(	c #947C80",
"h(	c #89484A",
"i(	c #6B696A",
"j(	c #CAC8C9",
"k(	c #DBDBDC",
"l(	c #504F50",
"m(	c #7A787C",
"n(	c #CCCCCC",
"o(	c #353436",
"p(	c #7B797D",
"q(	c #C9C5CC",
"r(	c #B6B3B9",
"s(	c #545455",
"t(	c #35282E",
"u(	c #94888C",
"v(	c #A9A3A4",
"w(	c #908788",
"x(	c #665C5F",
"y(	c #7C4F53",
"z(	c #572A2A",
"A(	c #EB6E6E",
"B(	c #D36262",
"C(	c #B25051",
"D(	c #A63B40",
"E(	c #8D2B2D",
"F(	c #9D3131",
"G(	c #AD3538",
"H(	c #C63E43",
"I(	c #CF4146",
"J(	c #CA4B50",
"K(	c #D35A5E",
"L(	c #E46B6B",
"M(	c #E06C6D",
"N(	c #645173",
"O(	c #A081BA",
"P(	c #AD8DC5",
"Q(	c #AC8CC5",
"R(	c #AB8BC5",
"S(	c #AA8AC5",
"T(	c #AA8AC6",
"U(	c #846D9A",
"V(	c #110B14",
"W(	c #242223",
"X(	c #A38D8F",
"Y(	c #FCA4A4",
"Z(	c #975D5F",
"`(	c #AEADAF",
" _	c #FDFCFC",
"._	c #A099A7",
"+_	c #4B474D",
"@_	c #CECECF",
"#_	c #828283",
"$_	c #615F63",
"%_	c #F2EFF7",
"&_	c #A4A4A4",
"*_	c #5A575A",
"=_	c #C6C5C6",
"-_	c #A9A3A6",
";_	c #2E1618",
">_	c #F67272",
",_	c #F37070",
"'_	c #F57171",
")_	c #FC7575",
"!_	c #FD7676",
"~_	c #FA7474",
"{_	c #FB7575",
"]_	c #4B2525",
"^_	c #635371",
"/_	c #A385BD",
"(_	c #AE8EC5",
"__	c #AE92C9",
":_	c #AD91C7",
"<_	c #846C99",
"[_	c #110C11",
"}_	c #222122",
"|_	c #9D8689",
"1_	c #F69FA1",
"2_	c #FE8080",
"3_	c #F07171",
"4_	c #945152",
"5_	c #959395",
"6_	c #F1F1F2",
"7_	c #F6F6F6",
"8_	c #F3F1F3",
"9_	c #8B898C",
"0_	c #9B93A2",
"a_	c #F0EFF1",
"b_	c #8A8390",
"c_	c #E8E6E8",
"d_	c #180E0E",
"e_	c #9F4C4C",
"f_	c #CD6B70",
"g_	c #45282E",
"h_	c #806890",
"i_	c #AF93C9",
"j_	c #AB8FC4",
"k_	c #756184",
"l_	c #130D11",
"m_	c #2B2A2B",
"n_	c #A99FA1",
"o_	c #F5BFC0",
"p_	c #F78F90",
"q_	c #3C3234",
"r_	c #666064",
"s_	c #878386",
"t_	c #AAAAAA",
"u_	c #C3C0C8",
"v_	c #D0CED2",
"w_	c #DEDEDE",
"x_	c #E1E1E2",
"y_	c #E6E6E6",
"z_	c #3F3A3C",
"A_	c #50323A",
"B_	c #8B749F",
"C_	c #B094C9",
"D_	c #B397C9",
"E_	c #B296C9",
"F_	c #B195C9",
"G_	c #B498C9",
"H_	c #A489B7",
"I_	c #5F4D5D",
"J_	c #111011",
"K_	c #3C3A3D",
"L_	c #AFABB1",
"M_	c #F0BEC1",
"N_	c #FC8888",
"O_	c #654648",
"P_	c #7A4547",
"Q_	c #501C1E",
"R_	c #381213",
"S_	c #341213",
"T_	c #453737",
"U_	c #4B4245",
"V_	c #5D585A",
"W_	c #6D686B",
"X_	c #817F82",
"Y_	c #969696",
"Z_	c #AFAEB0",
"`_	c #C5C4C5",
" :	c #908A8E",
".:	c #984748",
"+:	c #533D4C",
"@:	c #977FAD",
"#:	c #B59ACB",
"$:	c #B499CA",
"%:	c #B499C9",
"&:	c #B59ACA",
"*:	c #A28BB3",
"=:	c #59515F",
"-:	c #171518",
";:	c #2C282F",
">:	c #9D9196",
",:	c #F0A8A9",
"':	c #F78A8B",
"):	c #AC5353",
"!:	c #974E4E",
"~:	c #F26060",
"{:	c #EF4A4A",
"]:	c #C93F3F",
"^:	c #A63434",
"/:	c #882B2B",
"(:	c #722424",
"_:	c #682424",
"::	c #4D1919",
"<:	c #501A1B",
"[:	c #633031",
"}:	c #6F3B3D",
"|:	c #CD9B9C",
"1:	c #938285",
"2:	c #502B2B",
"3:	c #F88080",
"4:	c #6D3537",
"5:	c #645370",
"6:	c #AC91C1",
"7:	c #B8A0CF",
"8:	c #B69ECE",
"9:	c #B79FCF",
"0:	c #B69DCD",
"a:	c #B79ECD",
"b:	c #B79CCC",
"c:	c #B79FCE",
"d:	c #B79DCD",
"e:	c #B79DCC",
"f:	c #B89FCE",
"g:	c #A690B9",
"h:	c #685B74",
"i:	c #1F1922",
"j:	c #282628",
"k:	c #8B7B80",
"l:	c #D8A6A8",
"m:	c #FA8D8D",
"n:	c #802E2E",
"o:	c #E14747",
"p:	c #F34D4D",
"q:	c #E74848",
"r:	c #E94949",
"s:	c #E64A4A",
"t:	c #EF5656",
"u:	c #9F5758",
"v:	c #3F2728",
"w:	c #ED8080",
"x:	c #CF6465",
"y:	c #502C2E",
"z:	c #7A6987",
"A:	c #B69DCC",
"B:	c #BAA2D0",
"C:	c #BBA3D0",
"D:	c #B9A1CF",
"E:	c #BCA4D1",
"F:	c #B9A1D0",
"G:	c #BBA3D1",
"H:	c #B098C4",
"I:	c #74667E",
"J:	c #27232B",
"K:	c #18141A",
"L:	c #575657",
"M:	c #B89191",
"N:	c #FA7B7C",
"O:	c #763233",
"P:	c #D24849",
"Q:	c #B53738",
"R:	c #381D1F",
"S:	c #CF6A6B",
"T:	c #B25557",
"U:	c #4C343C",
"V:	c #8C7B9C",
"W:	c #BFA7D3",
"X:	c #BDA5D1",
"Y:	c #BEA6D3",
"Z:	c #BEA6D2",
"`:	c #BDA5D2",
" <	c #BFA7D4",
".<	c #B49FC5",
"+<	c #8F7D9E",
"@<	c #4E4852",
"#<	c #131012",
"$<	c #887071",
"%<	c #EDAAB3",
"&<	c #FD7F80",
"*<	c #FB7778",
"=<	c #764348",
"-<	c #C44E52",
";<	c #D64343",
"><	c #461E20",
",<	c #915055",
"'<	c #9B4A4D",
")<	c #4E3F4D",
"!<	c #9F8CB0",
"~<	c #C2AAD6",
"{<	c #C1A9D5",
"]<	c #AB99BB",
"^<	c #7A6B7A",
"/<	c #232023",
"(<	c #171617",
"_<	c #73676F",
":<	c #D99BA1",
"<<	c #FD8585",
"[<	c #DB6A6A",
"}<	c #6F4042",
"|<	c #A85153",
"1<	c #F65657",
"2<	c #E54848",
"3<	c #642223",
"4<	c #4F2E33",
"5<	c #E07476",
"6<	c #723739",
"7<	c #61546A",
"8<	c #B7A0CA",
"9<	c #C0A8D4",
"0<	c #C2ADD5",
"a<	c #BCA8CB",
"b<	c #A191B0",
"c<	c #423849",
"d<	c #121112",
"e<	c #5A5154",
"f<	c #D8A9AA",
"g<	c #FD9191",
"h<	c #7C3D3E",
"i<	c #88494B",
"j<	c #EB595A",
"k<	c #EB4848",
"l<	c #ED4A4A",
"m<	c #A83434",
"n<	c #241516",
"o<	c #86484A",
"p<	c #B75858",
"q<	c #473032",
"r<	c #867991",
"s<	c #C1ACD5",
"t<	c #C2ADD6",
"u<	c #C3AFD7",
"v<	c #C3AED7",
"w<	c #C5B1D9",
"x<	c #C3AFD6",
"y<	c #C4B0D8",
"z<	c #C4B0D7",
"A<	c #C5B1D8",
"B<	c #C2AED5",
"C<	c #B09EC2",
"D<	c #59515E",
"E<	c #120E10",
"F<	c #5B4849",
"G<	c #DB8384",
"H<	c #652727",
"I<	c #D34545",
"J<	c #E94848",
"K<	c #7D2828",
"L<	c #34191B",
"M<	c #4D2A2E",
"N<	c #685A71",
"O<	c #B9A5CB",
"P<	c #CAB6DA",
"Q<	c #C7B3DA",
"R<	c #C9B5DA",
"S<	c #B8A6C6",
"T<	c #58515E",
"U<	c #1C0F10",
"V<	c #974A4A",
"W<	c #752C2C",
"X<	c #C53C3C",
"Y<	c #EA4848",
"Z<	c #E94747",
"`<	c #C63E3E",
" [	c #411516",
".[	c #ED7273",
"+[	c #B35555",
"@[	c #311F20",
"#[	c #615B61",
"$[	c #BBADC4",
"%[	c #CCBCDB",
"&[	c #CAB7DA",
"*[	c #CBBADB",
"=[	c #CCBBDB",
"-[	c #CBB8DA",
";[	c #CBB9DA",
">[	c #CBB9DB",
",[	c #C9B5D9",
"'[	c #9C8CAC",
")[	c #1D1822",
"![	c #562A2A",
"~[	c #CA6061",
"{[	c #833334",
"][	c #CD4141",
"^[	c #973030",
"/[	c #2C1415",
"([	c #F47A7A",
"_[	c #D66768",
":[	c #5D3338",
"<[	c #292129",
"[[	c #776983",
"}[	c #C6B2D8",
"|[	c #CDBDDC",
"1[	c #CDBCDC",
"2[	c #CCBDDA",
"3[	c #B4A6C1",
"4[	c #4A4250",
"5[	c #3E1E1E",
"6[	c #D06364",
"7[	c #5D2929",
"8[	c #B33939",
"9[	c #C73F3F",
"0[	c #481819",
"a[	c #733A3B",
"b[	c #D26464",
"c[	c #2E1B1C",
"d[	c #3F313D",
"e[	c #A497AF",
"f[	c #D2C0E0",
"g[	c #CFBFDD",
"h[	c #D1C0DF",
"i[	c #D0BFDE",
"j[	c #D1C0DE",
"k[	c #D2C0DF",
"l[	c #D1BFDF",
"m[	c #CEBEDC",
"n[	c #CFBFDC",
"o[	c #D2C1E0",
"p[	c #CEC1D7",
"q[	c #B1A6BA",
"r[	c #403A44",
"s[	c #4E2627",
"t[	c #602C2E",
"u[	c #8E2C2D",
"v[	c #EB4A4A",
"w[	c #E84747",
"x[	c #EA4949",
"y[	c #7A2C2D",
"z[	c #271718",
"A[	c #59292A",
"B[	c #3F3B3E",
"C[	c #D0BFDD",
"D[	c #D3C3E0",
"E[	c #D7C7E2",
"F[	c #D4C4E0",
"G[	c #D6C6E1",
"H[	c #D4C3E0",
"I[	c #D5C5E0",
"J[	c #D5C6E0",
"K[	c #D5C3E1",
"L[	c #D3C2E0",
"M[	c #D4C3E1",
"N[	c #D5C3E2",
"O[	c #D2C1DE",
"P[	c #988E9F",
"Q[	c #2A2022",
"R[	c #844041",
"S[	c #8B3E3E",
"T[	c #672121",
"U[	c #D54242",
"V[	c #F75D5D",
"W[	c #BA7575",
"X[	c #383838",
"Y[	c #361C1C",
"Z[	c #B25658",
"`[	c #733939",
" }	c #3F323A",
".}	c #ADA6B3",
"+}	c #D4C5E0",
"@}	c #D4C4E1",
"#}	c #D6C5E1",
"$}	c #D8C8E2",
"%}	c #D8C8E3",
"&}	c #D9C8E3",
"*}	c #DACAE4",
"=}	c #D8C9E3",
"-}	c #DACAE5",
";}	c #D8CAE3",
">}	c #CDBFD7",
",}	c #716C75",
"'}	c #381B1C",
")}	c #401B1C",
"!}	c #7C2627",
"~}	c #A83535",
"{}	c #B93939",
"]}	c #DA4444",
"^}	c #D64242",
"/}	c #DF4545",
"(}	c #F25050",
"_}	c #F75959",
":}	c #F35E5E",
"<}	c #F35555",
"[}	c #F65A5A",
"}}	c #DF5353",
"|}	c #D94747",
"1}	c #C94242",
"2}	c #C66D6E",
"3}	c #CEB8BA",
"4}	c #8F8C8D",
"5}	c #272526",
"6}	c #3C1F21",
"7}	c #6F3838",
"8}	c #584758",
"9}	c #A497AE",
"0}	c #D6C6E0",
"a}	c #D8C9E2",
"b}	c #D7CAE3",
"c}	c #D6C7E1",
"d}	c #D7C8E2",
"e}	c #D9C9E3",
"f}	c #DAC9E4",
"g}	c #D6C8E1",
"h}	c #D7C7E1",
"i}	c #DACCE5",
"j}	c #D8CBE4",
"k}	c #D9CBE4",
"l}	c #DBCBE5",
"m}	c #D9CAE4",
"n}	c #DACBE5",
"o}	c #DBCAE5",
"p}	c #DBCCE5",
"q}	c #DACCE6",
"r}	c #D9CBE5",
"s}	c #DCCFE5",
"t}	c #C7B9D1",
"u}	c #58545C",
"v}	c #E77272",
"w}	c #583237",
"x}	c #1D0D10",
"y}	c #3B1313",
"z}	c #6A2121",
"A}	c #591D1D",
"B}	c #71292A",
"C}	c #68282D",
"D}	c #622223",
"E}	c #5F1E1E",
"F}	c #6B2122",
"G}	c #6E2728",
"H}	c #723030",
"I}	c #6F3434",
"J}	c #6F2C2C",
"K}	c #753334",
"L}	c #733B42",
"M}	c #662F30",
"N}	c #542628",
"O}	c #4A383A",
"P}	c #737275",
"Q}	c #AEACAE",
"R}	c #939192",
"S}	c #262626",
"T}	c #572B2B",
"U}	c #595152",
"V}	c #B3A3C0",
"W}	c #DACEE6",
"X}	c #D9CCE4",
"Y}	c #D8CAE4",
"Z}	c #DACDE6",
"`}	c #DDD1E5",
" |	c #DCD0E5",
".|	c #DBCFE6",
"+|	c #DCD0E6",
"@|	c #DBCEE6",
"#|	c #DDD0E5",
"$|	c #DBD0E5",
"%|	c #DACFE6",
"&|	c #DBCDE6",
"*|	c #DDCFE5",
"=|	c #DBCEE3",
"-|	c #DBCFE5",
";|	c #2E2829",
">|	c #B85D60",
",|	c #2E1819",
"'|	c #2B0E0E",
")|	c #B34444",
"!|	c #B49696",
"~|	c #B3AAAB",
"{|	c #ADA9AD",
"]|	c #908D8D",
"^|	c #403E40",
"/|	c #858189",
"(|	c #7B787C",
"_|	c #6E6D6E",
":|	c #1D1C1D",
"<|	c #6F6D70",
"[|	c #ACAAAF",
"}|	c #ADADAD",
"||	c #8A898B",
"1|	c #565457",
"2|	c #9E9D9F",
"3|	c #ECEBEC",
"4|	c #221A1C",
"5|	c #D86A6A",
"6|	c #763B3B",
"7|	c #4B3637",
"8|	c #786E79",
"9|	c #B8AFBF",
"0|	c #D8CCE0",
"a|	c #DED2E5",
"b|	c #DDD4E7",
"c|	c #DDD2E6",
"d|	c #DED3E6",
"e|	c #DCD4E8",
"f|	c #DDD5E7",
"g|	c #DCD4E7",
"h|	c #DDD3E6",
"i|	c #DED4E6",
"j|	c #D8D0E2",
"k|	c #898091",
"l|	c #2B1717",
"m|	c #F47373",
"n|	c #9A4949",
"o|	c #1F0E0E",
"p|	c #6B4244",
"q|	c #EBE3E3",
"r|	c #666666",
"s|	c #F1EFF3",
"t|	c #E7E7E7",
"u|	c #5B595D",
"v|	c #B6B6B7",
"w|	c #9A989A",
"x|	c #B9B8BA",
"y|	c #807F80",
"z|	c #282121",
"A|	c #7F4242",
"B|	c #52494A",
"C|	c #9D98A0",
"D|	c #CEC5D7",
"E|	c #DCD3E7",
"F|	c #E2D8EA",
"G|	c #DED6E8",
"H|	c #E3D9EB",
"I|	c #E1D8EA",
"J|	c #DDD6E8",
"K|	c #E0D7E9",
"L|	c #DFD7E9",
"M|	c #E2D9EB",
"N|	c #E3D8EB",
"O|	c #D0C9DA",
"P|	c #393539",
"Q|	c #131011",
"R|	c #4D4C4E",
"S|	c #CAC9CA",
"T|	c #FAF9FA",
"U|	c #A19FA2",
"V|	c #A7A5A8",
"W|	c #C3C1C2",
"X|	c #C4C4C4",
"Y|	c #FBFAFB",
"Z|	c #DEDCDD",
"`|	c #D0CECE",
" 1	c #5F5D60",
".1	c #130B0B",
"+1	c #452D2E",
"@1	c #483132",
"#1	c #4C4042",
"$1	c #B5B1B8",
"%1	c #DED5E5",
"&1	c #DED7E9",
"*1	c #E6DDEE",
"=1	c #E3DAEC",
"-1	c #E4DAEC",
";1	c #E5DCED",
">1	c #E4DBEC",
",1	c #E5DDED",
"'1	c #E4DCED",
")1	c #BDB4C5",
"!1	c #191318",
"~1	c #8A5760",
"{1	c #925356",
"]1	c #141313",
"^1	c #1F1F1F",
"/1	c #5B5B5B",
"(1	c #A4A4A5",
"_1	c #BBBBBC",
":1	c #FAF9F9",
"<1	c #F5F2F7",
"[1	c #D6D3D7",
"}1	c #A09EA1",
"|1	c #686769",
"11	c #4D4850",
"21	c #7D5666",
"31	c #B1686E",
"41	c #754C51",
"51	c #181617",
"61	c #484449",
"71	c #B7AFBB",
"81	c #E1D8E9",
"91	c #E6DEEE",
"01	c #E7DFEF",
"a1	c #EAE2F2",
"b1	c #E8E0F0",
"c1	c #E9E1F1",
"d1	c #6E6C70",
"e1	c #252121",
"f1	c #CD9B9B",
"g1	c #D67378",
"h1	c #453840",
"i1	c #150C0F",
"j1	c #0F0B0B",
"k1	c #110C0C",
"l1	c #160E10",
"m1	c #2A2225",
"n1	c #383234",
"o1	c #383334",
"p1	c #403B3D",
"q1	c #5E595D",
"r1	c #3B3435",
"s1	c #383031",
"t1	c #2D2122",
"u1	c #4D2929",
"v1	c #854F52",
"w1	c #C3696B",
"x1	c #F17576",
"y1	c #5D373C",
"z1	c #2C2A2C",
"A1	c #969498",
"B1	c #DCD5E6",
"C1	c #EAE1F2",
"D1	c #EBE3F2",
"E1	c #D0C9D9",
"F1	c #161515",
"G1	c #706667",
"H1	c #FBB5B5",
"I1	c #F37B7C",
"J1	c #D97377",
"K1	c #A85455",
"L1	c #B85A5A",
"M1	c #D06666",
"N1	c #BA5A5A",
"O1	c #AD5354",
"P1	c #994A4A",
"Q1	c #D9696A",
"R1	c #EA7273",
"S1	c #F37B7B",
"T1	c #372C2D",
"U1	c #D1D0D3",
"V1	c #EEE7F2",
"W1	c #EEE6F2",
"X1	c #EAE1F1",
"Y1	c #656367",
"Z1	c #1F1D1E",
"`1	c #D6B4B6",
" 2	c #FC8484",
".2	c #B05859",
"+2	c #463D40",
"@2	c #EFEBF4",
"#2	c #EFE9F3",
"$2	c #EEEBF4",
"%2	c #EEE9F3",
"&2	c #EEE9F4",
"*2	c #EDEAF4",
"=2	c #EEEAF4",
"-2	c #EFEAF3",
";2	c #CDC7D3",
">2	c #1A1A1B",
",2	c #6D6368",
"'2	c #FBA7A7",
")2	c #974949",
"!2	c #544D50",
"~2	c #EFEAF4",
"{2	c #F3F0F5",
"]2	c #F3EFF5",
"^2	c #F2EEF5",
"/2	c #F2EFF5",
"(2	c #F1EEF5",
"_2	c #EFECF4",
":2	c #F5EEF3",
"<2	c #F4EFF5",
"[2	c #F0EDF4",
"}2	c #F0ECF5",
"|2	c #F3EDF3",
"12	c #F4EEF4",
"22	c #EEE8F2",
"32	c #717072",
"42	c #D6ABB1",
"52	c #F1EDF4",
"62	c #F4EDF3",
"72	c #F1ECF4",
"82	c #F6EFF3",
"92	c #F1EDF5",
"02	c #F5F2F5",
"a2	c #F9F1F3",
"b2	c #F6F2F5",
"c2	c #F5F2F6",
"d2	c #F8F2F6",
"e2	c #F7F2F6",
"f2	c #B0ABB3",
"g2	c #2A282A",
"h2	c #7B7380",
"i2	c #FE9898",
"j2	c #3C3437",
"k2	c #F2EDF4",
"l2	c #F6F2F4",
"m2	c #F8F1F3",
"n2	c #F6F2F6",
"o2	c #F7F4F8",
"p2	c #F7F5F8",
"q2	c #FAF7FA",
"r2	c #F9F6FA",
"s2	c #F9F6F9",
"t2	c #FAF7FB",
"u2	c #F8F5F8",
"v2	c #F8F6F9",
"w2	c #F7F5F9",
"x2	c #D2D1D3",
"y2	c #646364",
"z2	c #E2B0BA",
"A2	c #DD6D6D",
"B2	c #D8696A",
"C2	c #281819",
"D2	c #BFBCC1",
"E2	c #FBF8FB",
"F2	c #FBF8FC",
"G2	c #FBF9FC",
"H2	c #FCF9FC",
"I2	c #FDFAFD",
"J2	c #FCFAFC",
"K2	c #FCF9FD",
"L2	c #E6E2E7",
"M2	c #716F71",
"N2	c #CDC1C2",
"O2	c #FC9191",
"P2	c #73393B",
"Q2	c #5F5E5F",
"R2	c #A5A4A5",
"S2	c #353435",
"T2	c #A8A6A9",
"U2	c #F8C4C4",
"V2	c #2E1717",
"W2	c #D46667",
"X2	c #231F21",
"Y2	c #D3D3D4",
"Z2	c #DDDDDD",
"`2	c #575757",
" 3	c #585858",
".3	c #DDDCDD",
"+3	c #FCB3B3",
"@3	c #1D0E0E",
"#3	c #FC7778",
"$3	c #522A2B",
"%3	c #727172",
"&3	c #A2A0A3",
"*3	c #282729",
"=3	c #A4A3A6",
"-3	c #FAFAFB",
";3	c #FEC5C5",
">3	c #964849",
",3	c #150A0C",
"'3	c #763839",
")3	c #C46162",
"!3	c #2C272A",
"~3	c #BDBCBF",
"{3	c #5A595A",
"]3	c #626164",
"^3	c #E0DFE1",
"/3	c #FEFAFA",
"(3	c #FCADAD",
"_3	c #1B0E0E",
":3	c #603031",
"<3	c #5F5D5F",
"[3	c #FAF8FA",
"}3	c #3B393C",
"|3	c #AFADB0",
"13	c #FCD0D0",
"23	c #FD8686",
"33	c #231212",
"43	c #743738",
"53	c #D36465",
"63	c #F07677",
"73	c #BA595A",
"83	c #3F3739",
"93	c #E4E4E4",
"03	c #6A6A6B",
"a3	c #5A5A5A",
"b3	c #DCDCDC",
"c3	c #FCB4B4",
"d3	c #783A3A",
"e3	c #4A2528",
"f3	c #A44F51",
"g3	c #DE6F6F",
"h3	c #613C3E",
"i3	c #888789",
"j3	c #BDBCBE",
"k3	c #3E3D3F",
"l3	c #9E9E9E",
"m3	c #FEEFF1",
"n3	c #F99797",
"o3	c #F17374",
"p3	c #B45656",
"q3	c #5C2D2D",
"r3	c #351A1A",
"s3	c #9C5559",
"t3	c #5B5151",
"u3	c #F1F0F1",
"v3	c #8A888B",
"w3	c #4D4D4D",
"x3	c #FDCECE",
"y3	c #381D1E",
"z3	c #5E2E2E",
"A3	c #A54E4E",
"B3	c #DC6A6A",
"C3	c #784748",
"D3	c #99989A",
"E3	c #464547",
"F3	c #FDB1B1",
"G3	c #A54F4F",
"H3	c #291313",
"I3	c #7B6B6C",
"J3	c #E8E7E9",
"K3	c #7E7D7F",
"L3	c #424243",
"M3	c #CECDCE",
"N3	c #FE9696",
"O3	c #462222",
"P3	c #CC6262",
"Q3	c #8B6061",
"R3	c #D2D1D2",
"S3	c #313031",
"T3	c #FEC6C6",
"U3	c #FE8686",
"V3	c #7C3B3B",
"W3	c #824A4A",
"X3	c #9D9C9D",
"Y3	c #F9F9FA",
"Z3	c #979599",
"`3	c #2D2D2D",
" 4	c #CFCECE",
".4	c #FEEFEF",
"+4	c #FDA6A6",
"@4	c #512728",
"#4	c #E56F6F",
"$4	c #3E3D3E",
"%4	c #BEBCC1",
"&4	c #FAF9FC",
"*4	c #F2F0F2",
"=4	c #393839",
"-4	c #FED7D7",
";4	c #DA7F7F",
">4	c #CD6364",
",4	c #3C1D1D",
"'4	c #341919",
")4	c #1E1B1E",
"!4	c #676568",
"~4	c #D7D4DC",
"{4	c #BCB6BC",
"]4	c #171717",
"^4	c #FDC6C6",
"/4	c #CB6B6B",
"(4	c #98494A",
"_4	c #592B2B",
":4	c #5A2B2B",
"<4	c #B05555",
"[4	c #371D1F",
"}4	c #252123",
"|4	c #8F8D91",
"14	c #4A484C",
"24	c #403F3F",
"34	c #F8F6F8",
"44	c #FEECEC",
"54	c #70383B",
"64	c #F27475",
"74	c #884242",
"84	c #B25858",
"94	c #723636",
"04	c #813E3E",
"a4	c #241314",
"b4	c #211A1C",
"c4	c #E8E7E8",
"d4	c #EEEEEF",
"e4	c #B2B2B2",
"f4	c #FEFDFD",
"g4	c #FEDCDC",
"h4	c #FD9393",
"i4	c #D36565",
"j4	c #532727",
"k4	c #F97879",
"l4	c #9A4D4E",
"m4	c #3B1C1C",
"n4	c #B55B5D",
"o4	c #673638",
"p4	c #C96060",
"q4	c #D97375",
"r4	c #864243",
"s4	c #322425",
"t4	c #33292A",
"u4	c #453F41",
"v4	c #666469",
"w4	c #919092",
"x4	c #B8B7B7",
"y4	c #CACACA",
"z4	c #D4D3D4",
"A4	c #D3D2D3",
"B4	c #D1D0D1",
"C4	c #D0D0D0",
"D4	c #D2D2D2",
"E4	c #D6D6D6",
"F4	c #D2D2D3",
"G4	c #D0D0D1",
"H4	c #D6D4D6",
"I4	c #464546",
"J4	c #4A474B",
"K4	c #F8F7F8",
"L4	c #FEF2F2",
"M4	c #FEB3B3",
"N4	c #924545",
"O4	c #3F1F21",
"P4	c #B65A5A",
"Q4	c #DC6E6E",
"R4	c #F47475",
"S4	c #D26868",
"T4	c #582A2A",
"U4	c #54282A",
"V4	c #DF8588",
"W4	c #C37C7D",
"X4	c #986263",
"Y4	c #69484A",
"Z4	c #543F40",
"`4	c #4A3535",
" 5	c #462E31",
".5	c #442E31",
"+5	c #533E40",
"@5	c #463032",
"#5	c #473237",
"$5	c #3C2728",
"%5	c #3D282A",
"&5	c #442B2D",
"*5	c #402A2B",
"=5	c #4E3839",
"-5	c #322526",
";5	c #1C191A",
">5	c #5F5F5F",
",5	c #D6D5D7",
"'5	c #1B1A1B",
")5	c #908F92",
"!5	c #FEFBFB",
"~5	c #FCD5D5",
"{5	c #783B3B",
"]5	c #522E2F",
"^5	c #914647",
"/5	c #B05454",
"(5	c #C85E5E",
"_5	c #F47474",
":5	c #E97373",
"<5	c #B15555",
"[5	c #6B3232",
"}5	c #7C3B3C",
"|5	c #934646",
"15	c #FEA0A0",
"25	c #FCA0A0",
"35	c #ED8E8F",
"45	c #D07277",
"55	c #BB5D60",
"65	c #BC6269",
"75	c #B9595A",
"85	c #BD6163",
"95	c #D77B7D",
"05	c #CC6869",
"a5	c #A65050",
"b5	c #433E3F",
"c5	c #D0CFD0",
"d5	c #A09FA2",
"e5	c #111112",
"f5	c #CD686A",
"g5	c #914546",
"h5	c #703638",
"i5	c #823E40",
"j5	c #8F4546",
"k5	c #74383A",
"l5	c #9F4B4B",
"m5	c #894142",
"n5	c #E57374",
"o5	c #974C4E",
"p5	c #4D3A3B",
"q5	c #ACABAC",
"r5	c #1E1D1E",
"s5	c #FEFCFC",
"t5	c #FED9D9",
"u5	c #E46E6F",
"v5	c #C55F60",
"w5	c #B25454",
"x5	c #8B4344",
"y5	c #76393B",
"z5	c #743839",
"A5	c #8A4546",
"B5	c #A55052",
"C5	c #9D4B4B",
"D5	c #693738",
"E5	c #544446",
"F5	c #A09FA0",
"G5	c #5B595B",
"H5	c #FEF5F5",
"I5	c #EC7172",
"J5	c #EC7071",
"K5	c #6E3637",
"L5	c #B65657",
"M5	c #703535",
"N5	c #462525",
"O5	c #4C3C3C",
"P5	c #777474",
"Q5	c #A9A8AA",
"R5	c #212121",
"S5	c #FDE4E4",
"T5	c #F88585",
"U5	c #BD5B5B",
"V5	c #A05155",
"W5	c #4B2527",
"X5	c #726B6E",
"Y5	c #A5A5A5",
"Z5	c #E8E8E8",
"`5	c #424144",
" 6	c #E2E2E3",
".6	c #FBBCBF",
"+6	c #DF6E6E",
"@6	c #403337",
"#6	c #848185",
"$6	c #CDCBCD",
"%6	c #C2C2C2",
"&6	c #303030",
"*6	c #8C8C8D",
"=6	c #FDF4F7",
"-6	c #FD8787",
";6	c #F07878",
">6	c #211919",
",6	c #4C4648",
"'6	c #8A8789",
")6	c #B5B3B3",
"!6	c #7A797A",
"~6	c #232223",
"{6	c #CFCDCF",
"]6	c #FEE0E1",
"^6	c #F27777",
"/6	c #A25254",
"(6	c #C86465",
"_6	c #9D4D4E",
":6	c #984A4C",
"<6	c #381F20",
"[6	c #211E1F",
"}6	c #E2E1E1",
"|6	c #4E4C4E",
"16	c #4B494D",
"26	c #E0DFE0",
"36	c #823A3A",
"46	c #A897A2",
"56	c #A19DA4",
"66	c #535153",
"76	c #515051",
"86	c #DEDDDE",
"96	c #BABABA",
"06	c #878688",
"a6	c #FAF4F7",
"b6	c #F8797A",
"c6	c #823E3E",
"d6	c #ADA5A5",
"e6	c #8F8E8F",
"f6	c #B4B2B8",
"g6	c #FDDFE0",
"h6	c #FD7C7C",
"i6	c #A59C9C",
"j6	c #676567",
"k6	c #383739",
"l6	c #FCBDBF",
"m6	c #948788",
"n6	c #C1C0C1",
"o6	c #3A3A3A",
"p6	c #747374",
"q6	c #A55050",
"r6	c #938183",
"s6	c #EAE9EA",
"t6	c #8B8B8B",
"u6	c #282829",
"v6	c #FCBCBE",
"w6	c #AF6161",
"x6	c #817275",
"y6	c #D9D9DA",
"z6	c #565557",
"A6	c #FAAFB2",
"B6	c #C17C7C",
"C6	c #82787B",
"D6	c #DFDFE0",
"E6	c #BDBDBD",
"F6	c #858385",
"G6	c #F2D9DA",
"H6	c #FDCFCF",
"I6	c #FDBCBD",
"J6	c #FB8686",
"K6	c #C47072",
"L6	c #826E71",
"M6	c #959495",
"N6	c #272021",
"O6	c #A86E70",
"P6	c #FC8F90",
"Q6	c #FE8282",
"R6	c #80686B",
"S6	c #3E1F1F",
"T6	c #8C7A7D",
". . . . . . . . . . . . . . . . . . . . . . . . . . . . . . . . . . . . . . . . . . . . . . . . . . . . . . . . . . . . . . . . . . . . . . . . . . . . . . . . . . . . . . . . . . . . . . . . . . . . . . . . . . . . . . . . . . . . . . . . . . . . . . . . ",
"+ + + + + + + + + + + + + + + + @ # $ % & + + + + + + + + + + + + + + + + + + + + + + + + + + + + + + + + + * * = - = ; > - - - , - - ' & + + + + + + + + + + + + + + + + + + + + + + + + + + + + + + + + + + + + + + + + + + + + + + + + + + + + + + + + + + + ",
". . . . . . . . . . . . . . ) ! ~ { ] ^ / . . . . . . . . . . . . . . . . . . . . . . . . . . . ( _ : < [ } | | 1 2 3 4 5 6 6 6 7 6 8 9 0 a b c d e . f . . . . . . . . . . . . . . . . . . . . . . . . . . . . . . . . . . . . . . . . . . . . . . . . . . . g ",
". . . . . . . . . . . . . ) h i j k l m n . . . . . . . . . . . . . . . . . . . . . . . . . e o p q r s t u v w x y y z A B C D E F G H I J K L 5 M 4 N [ _ . . . . . . . . . . . . . . . . . . . . . . . . . . . . . . . . . . . . . . . . . . . . . . . . . O ",
"O O O O O O O O O O O O P Q i R S T U : . O O O O O O O O O O O O O O O O O O O O O O O g d V W X Y Z `  ...+.@.#.$.$.%.&.*.=.-.;.>.,.'.).!.~.{.].^./.(._.:.3 <.o ( O O O O O O O O O O O O O O O O O O O O O O O O O O O O O O O O O O O O O O O O O O O O . O ",
"O O O O O O O O O O O g [.}.|.1.2.3.4.5.. O O O O O O O O O O O O O O O O O O O O O O g 6.7.U 8.9.0.a.b.c.d.d.d.d.d.d.d.d.d.e.f.g.h.i.i.i.i.i.i.j.k.l.m.n.o.p.q.r.s.# ; O O O O O O O O O O O O O O O O O O O O O O O O P t.O O O O O O O O O O O O O O O O . O ",
". . . . . . . . . . . u.v.w.x.y.z.A.B.@ . . . . . . . . . . . . . . . . . . . . . . C.D.E.F.G.H.I.c.J.K.L.M.N.M.M.M.O.O.M.M.P.Q.R.S.T.U.V.k.W.i.i.i.i.i.X.Y.Z.`. +.+++< @+. . . . . . . . . . . . . . . . . . . . . . ) [.#+$+: . . . . . . . . . . . . . O . O ",
". . . . . . . . . . %+&+*+=+-+;+>+,+'+)+. . . . . . . . . . . . . . . . . . . . !+~+E.{+]+^+/+(+_+:+<+[+}+[+|+[+[+1+2+;+3+4+[+[+|+5+6+7+8+9+0+a+b+c+d+e+f+i.i.W.g+h+i+j+k+% . . . . . . . . . . . . . . . . . . . . . O h l+m+n+o+. . . . . . . . . . . . g . g ",
"+ + + + + + + + + p+++q+r+s+[+t+u+v+w+= + + + + + + + + + + + + + + + + + + x+y+E.z+A+B+C+D+E+F+G+H+;+I+2+[+1+J+K+[+1+[+L+1+[+[+1+1+1+1+M+M+N+O+O+P+Q+R+S+T+U+V+W+X+Y+Z+`+ @.@+@@ + + + + + + + + + + + + + + + + + + g _ @@#@$@2 - + + + + + + + + + + g O g + ",
"g g g g g g g g g %@&@*@=@L+[+[+-@;@>@f g g g g g g g g g g g g g g g g ,@'@)@!@~@{@]@^@/@(@_@;+:@:@[+[+<@[@<@}@L+[+J+|@M+1+1@:@[+<@M+[+<@I+t+I+1+M+[+[+[+2@3@P+Q+4@5@6@7@8@9@0@a@b@_ g g g g g g g g g g g g g g g g . f c@d@e@f@g@)+g g g g g g g g g . . . g ",
". . . . . . . . h@z+i@j@[+[+[+t+k@l@m@n@. . . . . . . . . . . . . . t.o@p@q@r@s@t@u@v@w@<+[+[+t+t+I+x@4+M+}@[+4+y@[+[+[+[+M+}@}@|+[+[+[+[+[+I+1+[+[+[+z@[+[+[+[+[+[+[+A@B@C@D@E@F@G@H@I@c ) . . . . . . . . . . . . . . ; J@K@L@M@N@h@. . . . . . . . O g + g + ",
". . . . . . . . O@P@Q@R@}@M+:@[+S@T@U@o . . . . . . . . . . . . . f V@W@X@Y@Z@`@ #.#2@[+[+[+:@:@[+I+;+[+[+M+[+1+}@I+[+3++#[+[+:@M+4+@#I+####[+y@4+M+[+M+4+x@J+$#I+I+1+[+[+[+[+%#&#*#=#-#;#>#n . . . . . . . . . . . . . + ,#'#)#!#~#{#t.. . . . . . . . . . . . ",
"+ + + + + + g ]#^#/#(#M+[+;+_#:@t+:#<#[#; + + + + + + + + + + + - }#|#1#2#3#4#5#J+[+[+M+M+|+6#3+:@:@7#;+4+1+[+I++#3+t+M+;+1+1+1@1+<@I+1+M+I+:@I+M+4+[+1+<@M+I+####:@1+[+}@1+1+[+:@1+8#9#0#a#b#p++ + + + + + + + + + + . . [ c#d#J+e#f#g#& + + + + + O O g O g + ",
". . . . . g . h#i#j#k#1+4+[+l###[+m#n#o#p#. . . . . . . . . . ]#M q#r#s#t#u#v#2@1++#[++#[+1+M+I+w#+#1+1+x#H+[+[+1+;+[+<@y#J+M+[+H+[+4+[+[+J+w#:@[+x@:@I+4+[+[+t+1+3+J+<@M+M+I+[+;+6#I+z#A#B#C#D#E#. . . . . . . . . g . . F#G#d#[+H#I#J#p#. . . . . g g . g . g ",
". . . . . g g K#L#M#N#+#y#1+M+I+1+O#P#Q#6.. . . . . . . . . / R#S#T#U#i.V#W#X#[+M+y@;+}++#[+[+1+M+1+t+M+M+y@1++#|+J+[+1+M+<@1+[+x#;+3+:@Y#t+##Y#[+|+[+;+K+[+1+L+;+t+1++#[++#1++#[+[+Z#L+1+`# $<#^ / . . . . . . . . .$g g +$@$;+[+1+#$$$%$) . . . g g g g O . O ",
"O O O O g g g c )@&$*$=$t+[+1+t+I+t+-$;$>$@+O O O O O O O . ,$'$)$!$i.V#~$N.Y#<@t+t+I+I+y#Z#[+4+4++#:@[+t+t+I+##<@L+;+[++#:@t+t+I+I+t+Y#+#1+t+I+[+w#[+I+I+Z#[+;+;+[+1+y#:@y#I+y#;++#1+I+I+I+{$]$^$/$d O O O O O O . O O e ($_$:$;+1+<$[$}$( O O g g g g g g . O ",
"O O O O g O O ]#|$1$2$[+:@##1+Y#4+1+3$4$5$6$7$O O O O O O 8$9$0$a$b$c.b+c$Y#Y###:@t+[+t+I+2+1+J+J+Y#:@[+t+t+t+[+<@L+L+I+H+4+[+t+[+[+I+M+[+[+1+##I+_#:@3+I+J+Y#+#1+1+1+}@[+t+[+I+|++#1+1+[+[+t+=@d$e$f$)+O O O O O . . . g$h$i$;+;+Z#;+j$k$( O O g g g g g g . O ",
". . . g g g g . }.l$m$[+L+J+[+Y#Y#[+1+n$o$p$q$. . . . . r$s$t$u$v$w$x$R@I+1+t+J+:@K+[+[+[+t+I+1+1+I+6#1+}+[+;+3+[+1+I+1+1+3+:@}+:@K+[+t+l#+#[+l#I+1+[++#<@I+;+Y#H++#[+1+[+[+[+[+Y###+#+#[+[+1+I+y$z$s$Q . . . . O . . . A$B$@#Y#Y#;+C$D$E$F$. g O g g g g O . O ",
". . . . g g g O 8 G$H$[+t+}@t+<@J+Y#I+d#1.I$J$K$. . . ,@L$M$N$O$P$O+1+[+<@[+1+M+M++#[+}+[+[+1+[+[+1+;+M+6#[+I+4+4+3+##+#t+2+|+6#M+4+4+y#L+;+1+1+[+7#M+[+[+t+t+<@4+:@K+:@d#:@y@M+|+2+2+|+M+1+[+}@;+Q$R$S$T$g . . + + + U$V$W$X$I+I+t+1+c.Y$F$. . g . g g . g . g ",
"+ + O g O . . g Z$`$ %1@[+1+<@1+I+I+1+M+{$.%+%@%#%+ + }#$%%%&%*%+#[+4+K+Z#J+[+<@1+M+M+2+4+}+1+w###[+I+1+1+M+1+I+:@:@;+|+t+1+1+1+1+M+1+L+t+t+3++#[+;+1+:@}+[+<@1+M+M+2+|+;+|+2+1+1+1+1+1+y@4+[+1+M+=%-%;%>%O + g g g P ,%'%)%I+[+[+<@=$!%~%; + g O g O O g O g + ",
". . . g O O g . {%0@]%^%4+}++#3+[+[+[+[+[+/%(%_%:%$+h@4.<%[%}%|%}@}@}@I+[+:@K++#[+[+<@}@}@L+1+I+:@}++#[+[@:@1+1%}@I+[+[+[+[+[+[@[+M+[+[+[+I+|+}@1+[+z@}@|++#}+[+[+[+[+[+[+[+[+[+[+[+####I+1+[+[+1+2%3%4%5%6%.$g . . ( 7%8%[+##3+3++#I+9%0%) . . . . . . . . . . ",
". g + . . . O g a%m+b%c%:@}@I+[+[+[+[+M+}@1+d%1.e%f%g%h%i%j%k%l%:@[+[+m%n%o%p%q%m%r%4+[+4+1@[+I+t+I+@#4+[+[+:@[+[+[+[+I+x#+#[+|+:@[+[+[+[+[+[+}+4+[+[+[+:@1+M+####[+[+1@:@:@<@2+y@[+t+}@1+M+2$:@|+[+s%t%u%v%O . . ) w%x%|+[+1+}@}@1+X$y%z%) + g + g O O g + g + ",
"g . . g O . O g . A%B%C%D%1+I+<@:$L+[+:@[+[+[+6#E%F%G%H%I%J%K%[+2$:@:@L%M%N%O%P%Q%R%S%T%-+;++#y#t+I+|+|+|+1+1@[++#y#t+t+|+|+<@<@2$;+d#L+_#:@[+<@M+4+[+:@U%1+|+I+<@y@J+1+<@z@[+|+|+I+[+:@[+M+1+[+2$M+V%W%X%Y%O + .$# Z%[+1+I+:@[+t+1+`% &.&) . . . . . . . . . g ",
"+ g + . g . g . . +&@&#&_+N+;+M+1+t+t+x@:@1+[+M+M+$&%&&&P%S%;+[+M+2+}+[+1+M+*&=&-&;&>&,&'&)&!&~&;+[+4+[+[+}@1+1+1+I+:@:@:@[+4+M+M+M+1+I+l###t+M+1+x@1+[+[+4+[+1+M+M+1+I+M+[+4+[+:@4+1+3++#4+M+[+M+[+H+{&]&^&O ( /&(&_&[+M++#3+:@:@:&<&[&}&. + g O g O O g O g + ",
"g . O g O g O g . |&&@1&2&3&3+:@:@1+I+M+1+M+[+[+[+1+1+4&5&6&7#:@[+I+4+:@4+[+1+[+[+7&8&9&0&a&b&c&d&e&f&g&[+M+M+I+[++#l#w#+#1+y@:@[++#[+1+|+Y#4+:@I+M+H+[+;+y@:@4+[+;+:@+#[+1+x@[+4+y#M+M+1+K+;+Z#=@h&i&j&k&l&m&n&o&p&q&+#<@I+1+l#H+r&s&t&u&. g . g g g g . g . g ",
"O . g . O O g g . . v&w&x&y&I+Y#3+Y#1++#I+[+##1+[+<@1+T%z&A&[+##t+;+y#Y#w#1+I+I+t+[+[+B&C&D&5&E&F&G&H&I&J&K&7&:@Y#1+I+M+1+M+1+d#d#3+1+[++#l#w#4+[+[+K+[+M+M+Y#+#[+J+L+3+:@I+L&~&=@Y#4+1+t+<$M&N&O&P&Q&R&S&T&U&V&W&X&t+y#[+1+I+I+=$Y&Z&`&]#. O g O g g g g O . O ",
"O . O . g g g O O .  *.*+*@*3@I+J+y@:@##:@I+_#I+Z#1+1+)%#*$*t+y#I+I+I+I+J+Y#1+I+I+[+[+I+I+<$n%%*&***=*-*;*>*,*'*)*!*[+l#;+t+t+~*{*t+t+<@t+I+J+4+[+t+H+[+[+I+I+L+;+1+I+t+##[+]*^*/*J+Y#1+(*_*M%:*<*[*}*|*1*2*3*4*5*:@t+t+:@+#[+[+S+6*7*8*P . O . g g g g g g . O ",
".$O O O O O g g + g f 9*0*a*Q.1+M+6#L+I+[+t+1+1+2+4++#1+b*c*2+t+[+[+[+[+4+4++#4+J+I+[+[+1+6#<@1+I+d*e*f*g*h*i*j*k*l*-@m*w#[+M+&*n*y#t+<@]*{$l#L+<@1+J+:@3+[+<@L+;+1+[+M+##:@o*p*n%M+q*r*s*t*u*v*w*t+t+x*y*z*A*B*H+:@[+:$I++#;+Z#C*D*E*F*.$. + g + O O O g + g .$",
"G*G*G*G*G*G*H*H*G*H*O I*J*K*L*M*1+1+1+1+[+}+[+[+1+;+Y#t+N*O*P*:@I+K+[+1+2+Z#Y#;+Y#<$K&=&Q*R*S*T*U*V*O&W*X*Y*Z*`* =,&P%.=+=@=J+#=$=H+;+##%=&==%y#4+[+I+M+_#3+[++#+###4+1+I+J+*=M%U%p%==-=;=>=,=1+[+[+I+6#'=)=!=1+1+[+[+Z#t+M+L+~={=]=^=/=G*H*G*H*G*H*H*H*H*G*H*G*",
"(=(=(=(=(=(=(=(=(=_=G*:=<=[=}=|=l%[+K+:@M+2+:@y@I+[+##1=2=3=6#[+}@2+I+[+I+I+I+1+7#4=5=6=7=8=9=0=a=b=c=d=e=f=g=h=q*i='=j=k=l=D&m=n=1+|+L+O*o=p=4+:@}+1+1+|+4+1+|+|+;+:@}+2+U%q=<*r=s=t=u=v=1+[+1@M+[+t+t+w=x=y=4+I+$#[+[+[+1+t+z=A=B=C=(=(=(=(=(=(=(=(=(=(=(=D=_=",
"E=E=E=E=E=E=E=E=E=E=E=F=G=H=I=J=K=[+L+|+1+<@:@H+y@1+L=M=N=`#1+[+)%;+x@[+[+[+[+7#O=P=Q=R=S=T=T=T=T=U=V=W=X=Y=Z=`= -7#)%.-+-@-P=#-$-[+1+t+%-&-*-L=;+:@[+[+1+M+I+1+1+I+1+:@1+=-4$--;->-T%J+[+I+M+2+1+1@[+[+w*,-'-)-1+;+[@:@1@[+!-~-{-]-E=E=E=E=E=E=E=E=E=E=E=E=E=E=",
"^-/-(-_-:-:-_-(-/-^-^-^-<-[-8.}-|-+#[+[+[+z@[+[+:@t+1-2-3-m%[@4-S*[++#}+####K+5-6-7-8-9-i.i.i.i.i.i.i.i.i.0-T=a-b-O*t+t+Y#c-d-e-f-[+[+1+E%l*g-|+}@<@|+[+[+[+##3+[+M+}@1+[+h-l@i-j-d#3+##}++#[+[+}@|+4+}+L+k-l-w*[+M+L&|+1+M+m-n-o-_-(-/-^-p-^-/-(-_-:-:-_-p-p-^-",
"q-r-s-t-u-u-t-s-q-q-q-q-v-w-x-y-z-A-B-4+[+[+<@}@M+C-D-E-p=[+M+F-G-}@}@M+t+<$H-I-J-K-L-i.i.i.i.i.i.M-N-O-P-Q-R-S-T-U-V-W-I+1+M+X-Y-1+6#y@K&Z-`-[+[+M+ ;:@1@:@1+_###:@[+:@[+=-.;+;@;1+}@}@1+[+:@[+[+:@1+M+[+u*#;p%[+[+[+[+2+$;%;&;u-t-s-r-q-*;q-r-s-t-u-u-t-*;q-q-",
"=;=;=;=;=;=;=;=;=;=;=;=;-;;;>;,;';);!;l#[+;+:@J+B&~;{;l*];;+[+S@+;1+1+I+[+{$^;/;(;i.i.i.i.i.i.i.9-_;:;<;[;};|;1;2;3;4;5;L+[+<@1+z@<@I+1+X&6;7;:@[+<@M+M+;+7#1+I+[+y@J+@#:@;+`#+-8;[+:@|+6#C-7&J+1+U%1+I+[+9;0;n$1+4+[+[+6#a;b;c;=;=;=;=;=;=;=;=;=;=;=;=;=;=;=;=;",
"d;d;d;d;d;d;d;d;d;d;d;d;e;f;g;h;i;j;k;l;:@$#=@m;n;9&o;p;q;y@:@r;s;z@:@4+[+O*t;u;W.i.i.i.i.i.i.i.v;w;x;y;X.i.X.z;A;B;C;D;E;Y#I+M+[+4+1+[+1+}@_#+#4+M+[+[+M+1+[+t+t+t+1+M+[+}@1+;+@#F;/*G;`-H;I;J;K;T%L;;+[+Y*M;N;}@x#:@+#O;P;Q;d;d;d;d;d;d;d;d;d;d;d;d;d;d;d;d;d;",
"R;R;R;R;R;R;R;R;R;R;R;R;S;R;R;T;U;H@V;W;X;p==&j***Y;%&==Z;t+1+y@;*z@4+x#L+`; >.>i.i.i.i.i.i.i.i.i.+>@>#>$>i.i.k.u;%>&>*>=>m%+#[+;+x#I+4+[+1+M+t+3+;++#[+<@I+4+1+Y#:@[+I+[+M+M+,=o*->;>>>,>'>)>!>~>-&{>]><$!&^>G;I+M+1+/>(>_>S;R;R;R;R;R;R;R;R;R;R;R;R;R;R;R;S;S;",
":>:>:>:>:>:>:>:>:>:>:><>[>:>:>:>}>|>1>2>3>4>5>6>7>B&8>9>0>t+}@J+a>z@;+b>W$c>d>e>i.i.i.i.i.i.i.i.i.f>g>h>i>T=i.i.j>Q=k>l>m>n>3+[+I+I+;+##1+[+[+M+1+|+3+[+##Y###1+l#+#+#:@##[+[+o>p>q>r>s>t>u>v>w>x>y>z>F% -S%A>d&;+[+M+B>C>D>E>:>:>:>:>:>:>:>:>:>:>:>:>:>:><>:>[>",
"F>F>F>F>F>F>F>F>F>F>F>G>H>I>F>F>F>J>K>L>(%**M>N>1+Y#O>y*f&:@t+P>Q>z@d#R>S>T>U>>.i.i.i.i.i.i.i.i.i.W.V>W>X>Y>Z>`> ,.,+,@,#,$,H+[+[+I+t+I+t+Y#4+1+[+t+I+I+H+t+1+1+t+I+H+L+_#[+%,&,*,=,i.i.i.i.-,;,>,,,',),!,~,{,],y@:@^,/,(,J>F>F>F>F>F>F>F>F>F>F>F>F>F>F>F>J>G>_,",
":,:,:,:,:,:,:,:,:,:,<,:,[,},:,|,|,:,1,2,b>7&3,u*|+H+r+4,5,:@t+6,7,z@-+4=8,9,0,>.i.i.i.i.i.i.i.i.i.i.a,b,c,d,W>e,f,g,=,h,i,j,Z#[+y@1+[+Y#w#J+4+##:@[+t+t+1+1+M+[++#Y#t+t+}@[+k,l,m,i.i.i.i.n,o,p,i.q,r,s,t,u,{;J&+#v,w,x,},:,:,:,:,:,:,:,:,:,:,:,:,:,:,:,y,z,:,A,",
"B,B,B,B,B,B,B,B,B,B,C,B,C,B,B,D,D,E,F,G,=@)%H,I,1+:$J,K,L,M+t+M,N,O,P,3,Q,R,0,>.i.i.i.i.i.i.i.i.i.i.i.W.8-S,T,U,s>$>i.V,W,q%I+M+H+}+[+:@4+I+1+J+|+y@[+:@:$4+3+[+4+:@[+[+1+X,Y,Z,i.i.i.i.i.`, '.'+'k.i.X.@'#'$'%'w=&'*'C,B,B,B,B,B,B,B,B,B,B,B,B,B,B,B,B,D,='B,-'",
"C,C,C,C,C,C,C,C,C,C,C,C,C,C,C,C,;'>','y*c-'')'!'[+J+~'&-{'1+M+]'^'O,q*!'9&b*/'('i.i.i.i.i.i.i.i.i.i.i.i.i.i.i.i.i.i.i._':'<'1+1+}@4+M+I+[+I+t+<@M+4+[+[+;+1+2+M+1+[+}+4+[+z@['}'i.i.i.i.i.X.|'x;1'2'3'4'5'6'7'8'9'0'a'C,C,C,C,C,C,C,C,C,C,C,C,C,C,C,C,C,C,C,C,b'",
"c'c'c'c'c'c'c'd'e'e'e'e'f'g'e'h'h'i'j'k'h-l'(%m'1+}@&=n'o'4+[+j,p'z@O#3,q'`;r's'i.i.i.i.i.i.>.t'u'v'w'0-i.i.i.i.i.i.$>x'y'z':@[+1+M+<@+#3+[+3++#[+M+M+[+|+M+<@<@I+|+2+|+[+A'B'9-i.i.i.i.i.i.9-C'D'E'F'G'H'I']+J'K'L'e'f'c'c'c'c'c'c'c'c'c'c'c'c'c'c'h'e'e'e'M'N'",
"O'O'O'O'O'O'O'O'O'O'O'O'O'O'O'O'O'P'Q'R'S'T'U'V'[+t+W'j=X'1+[+Y'Z'`'q*!'q' ).)+)@)i.i.i.i.i.#)$)%)&)*)=)-)i.i.i.i.i.;)>),);+[+[+[+4+2$I+[+t+A@[+[+[+[+[@[++#}+####[+[+M+[+')))i.i.i.i.i.i.i.i.i.!)~)t>{)])^)/)()_)O'O'O'O'O'O'O'O'O'O'O'O'O'O'O'O'O'O'O'O'O':)<)",
"[)}):)|)1)2)[)[)[)[)[)[)[)[)[)[)[)3),;4)5)T'6)7)[+[+7>8)9)[+M+[+Z'S%O#3,N><$l*0)a)i.i.i.i.i.b)c)@,a,d)e)f)g)i.i.i.9-h)i)j)U%L&2$[+<@M+Z#:$[+7#L+1@4+[+[+[+1+M+[+[+:@[+:@[+k)l)i.i.i.i.i.i.i.i.V=v>8-q,i.i.m)1;n)o)[)[)p):)})q)2)2)q)}):)p)[)p):)r)[)[)[)[)})s)[)",
"t)t)u)v)t)u)u)t)t)[)u)[)t)u)v)u)u)w)C#i$[+<$!'l*1+[+x)&-9)1+<@[+Z'y)z)A)N=I+-$B)C)D)i.i.i.i.E)F)G)H)I)J)K)L)i.i.W.M)N)O)-+[+M+1+M+[+<@1+t+[+t+M+1+$#|+1+J+1+M+I+1+y@Y#x@+#P)Q)=,i.i.i.i.i.i.R).,S)T)U)k.i.V)W)X)Y)t)t)t)u)[)t)t)u)u)t)t)[)t)t)u)v)t)u)u)t)t)[)u)",
"Z)Z)`) !Z).!+!Z)Z)@!Z)@!Z)#! !.!$!%!&!*![+=!-!l*6#1+7>;!>!4+I+[+,!'!3$(%)!W-!!~!{!]!W.i.i.i.W.^!/!(!_!:!<![!i.i.}!|!1!L%;+:@[+M++#[+I+4+<@:@:@[+I+[+[+L+}+:@4+;+|+M+}@1+}+2!3!4!W.i.i.i.i.i.i.5!6!#>7!8!i.9!0!I$a!Z)Z)Z)`) !Z)Z).!+!Z)Z)@!Z)Z)`) !Z).!+!Z)Z)@!Z)",
"Z)b!c!Z)d!d!Z)Z)c!Z)e!Z)Z)f!g!g!h!i!j!k!:@d#!'$=t+1+l!==m!:@1+1+Z'n!z)l-R,=@I+o!p!,,q!i.i.i.i.W.r!s!t!u!X.i.[!v!w!x!y!J+J+z!:@[+x#[+4+y#1+##3+:@+#:@[+A!Y#4+w#+#+#[+t+t+[+B!C!)>M-i.i.i.i.i.i.D!E!F!G!u>h.H!u'I!J!K!Z)Z)e!f!Z)d!d!Z)Z)c!Z)Z)Z)c!Z)d!L!Z)Z)f!Z)f!",
"M!M!N!M!O!O!M!M!N!M!P!M!M!Q!R!R!S!T!)'U!:@5)T*l*[+:$1.)!V!3+I+I+Z'w=P,~'y*6#T'E-W!X!Y!Z!W.i.i.i.i.i.i.W.u>t>`! ~.~+~O#1+1+##;+[+}@t+<@L+Y#I+l#Y#y#:@##I+@~<@I+1+[++#:@t+[+6##~$~%~&~i.i.i.i.i.i.X.&~i.i.*~=~-~;~>~,~'~M!R!Q!M!O!O!M!M!N!M!M!M!N!M!)~O!M!M!Q!!~~~",
"{~P!]~^~P!^~]~P!P!P!P!{~]~^~P!P!/~(~`;L,I+_~:~<~1+:$O=[~{$##:@[+P%w=}~|~1~J+2~3~4~5~6~7~8~9~0~a~a~r>b~c~d~e~f~g~h~)%L+1+1+I+y#:@I+y#[+;+Y#1+I+t+t+I+##[+1+<@I+t+I+H+4+[+[+:@i~j~k~l~m~i.i.i.i.i.i.i.i.n~o~p~q~r~s~t~u~P!v~w~^~P!^~w~]~{~w~w~P!{~P!P!^~w~]~^~x~y~",
"z~A~B~C~A~D~E~F~G~A~A~H~G~C~A~A~I~J~K~P*;+''L~M~1+d#K,N~O~1+I+[+;*m#{$N>N*]*P~Q~M&R~-@S~T~U~V~W~W~X~Y~Z~`~ {.{T%[+1+H+Y#[+1++#[+[+##H+1+1+[+1+[+[+|+[+:@K+[+Y###1+1+I+<@[+[++{@{#{${%{&{i.i.i.i.i.L-*{={-{;{q*>{,{'{){M!H~!{C~A~G~H~A~H~H~H~G~~{B~{{{~H~G~~{]{G~",
"^{/{({_{C~!{z~:{/{<{<{/{!{^{<{C~[{}{|{1{I+L+2{3{H+;+4{5{6{I+1+M+7{8{-+!'9{m!/*q'`#1+d#0{a{b{~*$*$*n!i$H#.-c{H+}+[+[+1+3+4+I+M+[+M+M+;+[+<@[+##4+[+x@[+:@J+[+:@4+[+J+L+M+[+[+[+U%i&d{e{f{g{!)i.h{i{j{k{l{m{{$1+[+n{o{p{q{r{({s{C~C~<{<{!{/{/{H~C~s{s{t{<{!{<{u{<{",
"^{^{s{^{_{s{^{s{^{^{^{^{s{^{^{_{v{w{!'-+1+[+[+1+|+Z#T':$:@<@1@Z;x{y{8%z{A{B{C{q'D{M+1+/*E{$#<@[+[+[+I+M+[+M+|+L+Y#H+t+;+:@<@|+[+1+<@4+y#M+M+2+1+[+2+M+[+}@2+:$[+[+1+y@2+M+[+M+1+X&F{G{H{I{J{K{L{M{N{h=*!_~##+#[+;+O{P{Q{R{S{^{_{_{^{^{s{^{^{s{s{^{^{^{^{s{^{^{^{",
"T{T{T{T{T{T{T{T{T{T{T{T{U{V{T{T{W{X{Y{Z{:@[@[+[+1+I+:@)%`{I,4$ ].]e%O%>&P=+]@]P#p=[+}@y)#]x@+#3+3++#[+[+[+[+[+[+[+:@[+:$Z#[+2$:@[@<@}@L+[+[+[+M+}@1+2$[+[+:@I+}@t+[+:@:@2$[+[+4+$]%]&]*]=]-];]>],]m%2+I+t+|+|+}@1+$]'])]!]~]{]T{V{]]T{T{T{T{T{T{T{T{T{T{T{T{T{T{",
"^]/](]_]:]:]<]/]/]/]^][]}]|]:]<]1]2]3]4]}@[+:@1@:@5]6]7]8]9]0]a]b]c]d]e]f]g]h]i]K; ;Y#3-3])%I+I+}@1+x@2+ ;[+1+$#1+I+[+[+[+[+[+|+:@[+[++#3+[+K++#[+:@[+:@1@[+[+[+:$q&1+[+|+:@z@1+M+:@[+I+L+J+Y#:@:@z@4+y@[+[+[+[+M+}@4-j]k]l]m]n]<]:]|]/]^]o]/]/]/]/]:]<]/]/]^][]",
"_]_]_]_]_]_]_]_]_]_]_]_]_]_]_]_]_]p]q]r]z!}@[+,=m!s]t]u]v]w]x]x]x]x]x]y]z]A]B]C]D]E]m%F]3]O,1+t+:@:@I+1+}@<@[+[++#3+:@I+|+|+|+[+z@[+C$1+M+<@[+:@[+$#}@[+M++#y@:@[+:@[+M+;+[+[+M+1+H+3+:@[+$#;+[+:@[+1+I+[+y#G]=-h-T';+}@d#H];@I]J]_]_]_]_]_]_]_]_]_]_]_]_]_]_]_]",
"K]K]K]K]K]K]K]K]K]K]K]K]K]K]K]K]K]L]M]N]O]M+[+Z;P]Q]R]x]x]x]S]x]S]x]x]x]x]T]U]V]W]X]Y]Z]`] ^:@[+J+Y#[+[+M+2+[+1+t+t+##3+:@4+[+[+1+;+7#1+M+M+t+7#;+[+2+[+1+I+L+H+:@H+;+[+U%[+[+[+1+M+t+3++#I+M+1+1@d#q%H#.^3=>-+^@^l!#^$^L+c-I&%^&^*^K]K]K]K]K]K]K]K]K]K]K]K]K]K]",
"=^=^=^=^=^-^-^=^=^=^=^=^=^=^=^=^-^;^>^,^'^1+<@)^7{!^~^{^]^x]^^/^(^w]x]x]x]x]_^:^<^[^}^|^1^2^w#1+[+;+:@+#[+}+[+M+I+;+1+##Y#y#:@+#M+I+:@4+:@4+t+1+4+1+}+[+I+1+I+l###[+;+:@[++#1+:@4+<@<@t+1+4+:@2%Z*K~3^4^5^6^7^8^9^0^a^6)m;<$b^c^d^e^=^=^=^=^=^=^=^=^=^=^=^=^=^=^",
"f^f^f^f^f^g^h^f^f^f^f^f^f^f^f^f^g^h^i^j^k^J+[+l^m^n^o^p^q^r^s^/^/^t^]^w]x]x]_^:^u^v^w^P%x^y^L+Y#1+J+L+y#I+1++#[+;+B@I+t+I+I+[+K+##[+Y#w#+#y@4+[+y#L+J+[++#[+1+J+Y#1+:$C$1+x#I+Y#w#1+Y#;+<@w#;+%*z^A^B^0]C^D^b]s^]^E^F^G^H^r=i=I^J^K^L^f^f^f^f^f^f^f^f^f^f^f^f^f^",
"M^M^M^M^M^M^M^M^M^M^M^M^M^M^M^M^M^N^O^P^Q^R^[+1+S^T^U^V^W^X^Y^Z^`^ /./+/x]w]@/#/$/%/$'&/*/w*4++#1+1+1+I+I+}@3+1+[+[+[+1+1+|@I+t+3+[+M+M+t+J+Y#<@t+[+,=I+##[+[+4+4+1+##:@t+t+[+M+M+1+Y#J+1+t+d*=/-/;/]^{^x]x]x]x]x]x]>/,/'/)/Q,!/~/{/]/M^M^M^M^M^M^M^M^M^M^M^M^M^",
"^/^/^/^/^/////^/^/^/^/^/^/^/^/^///(/_/:/</[/[+[+t+X&}/|/1/2/3/4/5/6/7/8/9/0/a/b/c/d/A)N=t+<@I+l#+#[+##:@[+t+I+w#4++#+#4+[+Z#I+t+:$[+[+1+1+I+t+<@[+[+t+t+L+J+1+B@Y#[+l#:@[+:$[+4+w#1+1+1+<@[+=@3~e/./]^f/x]x]x]T]]^x]x]g/h/i/j/k/l/m/n/^/^/^/^/^/^/^/^/^/^/^/^/^/",
"o/o/o/o/p/q/r/o/o/o/o/o/o/o/o/p/q/r/o/s/t/u/v/I+[+<@1+I+X&$&w/x/y/z/z/+^[~A/B/C/D/*/~&0>M+[+I+L+4+t+Y#:@}+[+I+H+|+J+J+L+1+[+[+[+Z#:@3+[+l'E/F/4{8&c*G/H/$^I/F/J/F-[+M+1+[+|@y@|+J++#+###J+1+[+}/K/L/M/;/x]{^w]w]N/O/P/Q/R/S/T/<$U/V/W/X/Y/o/o/o/Z/`/o/`/ (`/Z/Y/",
".(.(.(.(+(+(.(.(.(.(.(.(.(.(.(+(+(.(.(@(#($(%(&([+[+1+t+1+1+1+[+Z#m%m%=@*(P,5)L+1+[+M+:@x@[+[+t+M+t+I+M+6#[+M+1+1+1+1+1+3+4+[+[+M+|+6#H+=(-(;(>(,('()(5>!(~({(&!.=R*](:#^(y*4)1+1+;+2+2+I+[+I+1+/(((_(:(<([(}(|(<(1(2(3(4(5(6(t+T%4>7(8(9(0(.(.(+(+(.(+(+(9(+(9(",
"9(9(9(9(9(9(9(9(9(9(9(9(9(9(9(9(a(b(c(9(d(e(f(g(C*[+[+[+[+[+[+[+[+[+[+[+1+[+I+1+M+[+<@[+:@4+K+[+1+3++#1+1+[+<@[+[+[+##H+2+|+<@[@1+1+t+]*h(i(j(k(l(m(n(o(p(q(r(s(t(u(v(w(x(y(z(;+7#[+1+1+I+1+<@[+;+A(B(C(D(E(F(G(H(I(J(K(L(<$1+J+M(4>N(O(9(b(9(9(9(9(9(9(9(9(9(9(",
"P(P(P(Q(R(P(P(P(P(P(P(P(P(Q(S(R(R(T(T(S(S(U(V(W(X(Y([+[+I+1+M+}@[+4+1@[+[+[+[+[+x@:@|+}@}@}@_#3+[+:@[+[+z@:@2$2+}+[+I+I+[+x@4+:@[+[+[+M,Z(`( _i.._+_@_#_$_%_9-&_*_=_q,=,U=-_;_6{:@[+####[+[+[+[+[+[+1+q&>_,_'_5])_!_~_{_2+1@1+I+Z;]_^_/_P(T(S(S(R(Q(S(S(S(S(S(P(",
"(_(_(_(_(_(_(_(_(_(_(_(_(_(_(_(_(_(_(_(___:_<_[_}_|_1_2_;+1+:@|+[+[+[+1+I+[+:$Z#[+:@[+:@[+1+I+t+}@t+x@4+M+|+<@}@}@I+[+[+[+M+}@<@:@2$1+3_4_5_6_7_8_9_0_a_b_U)i.S=Y+W=i.i.i.c_d_e_[+t+}@t+y@2+}@<@[+[+[+1+}@}@}@}@1+[+[+[+M+:@[+[+f_g_h_(_(_(_(_(_(_(_(_(_(_(_(_(_",
"____i_____i_____________i_i_______i___i_____j_k_l_m_n_o_p_%,1@:@M+4+M+J+y#t+[+I+}@2$1+1@[+[+1+I+:@I+M+<@[+[+[+[+:@1+3+##I+;+[+M+|+M+[+:@Y;q_r_s_t_u_v_w_x_y_v>>.=,9-k.i.i.&~z_-&M+t+:@:@I+1+:@}@<@<@I+[+[+[+[+[+<@[+<@[+;+7#:@:@g-A_B_i_i_i_i___i_i_i_i_i___i_i_",
"C_C_D_C_C_E_F_C_C_C_C_C_G_D_C_E_E_E_F_D_C_C_D_H_I_J_K_L_M_N_+#[+:@}+[+1+1+;+:@[+I+1+M+;+1+4+[+####[+1+4+[+;+[+4+y#M+M+1+[+y@##[+[+I+4+3+O*O_P_Q_R_S_l@T_U_V_W_X_Y_Z_^!`_s>8- :2=4+[+|@Z#1+[+}+|+M+[+1+[+[+4+:@1+M+1+M+[+[+1+l#L;.:+:@:D_G_G_D_F_G_G_G_G_G_F_D_G_",
"#:#:#:#:$:$:#:#:#:#:#:G_#:#:#:#:#:#:%:&:#:G_&:G_*:=:-:;:>:,:':4+1+[+1+I+4+##+#4+:@I+[+d#2+3+1+1+Y#:@M+x#:@<$1+<@t+[+4+;+[+M+y@:@+#1+1+M+):!:~:{:O/]:^:/:(:_:!^W^::::<:[:}:|:1:2:3:;+[+4+|+I+[+[++#1+M+1+t+H++#J+1+I+1+[++#M+M+)-4:5:6:&:G_#:&:G_$:G_$:$:$:%:G_#:",
"7:8:7:9:0:a:7:7:7:7:7:b:8:7:9:c:c:9:d:c:7:e:f:b:b:g:h:i:j:k:l:m:I+|@[+L+H+t+t+w#3+:@[+[+I+L+l#1+l#L+I+I+[+I+t+:@+#[+Y#J+1+t+t+t+x#t+4+l#7>n:o:x]x]T]x]x]x]p:^^(^q:;/r:s:s:t:u:v:w:Z#1+##Y#I+##[+y#[+I+t+1+I+1+w#4+##I+:@3+[+<@x:y:z:b:8:b:8:8:A:0:b:0:0:c:d:b:8:",
"B:7:C:C:D:B:B:B:B:B:B:E:7:B:F:D:D:F:B:B:B:B:B:B:C:G:H:I:J:K:L:M:R.N:[+t+1+1+t+|+_#:@H+[+[+;++#1+t+t+<@##:@[+H+L+H+1+1+l#4+[+t+t+I+3+;++#x)O:P:x]x]s^/^{:x]x]x]x]x]x]x]x]{:]^Q:R:S:[+t+t++#;+_#:@}@:@##1+[++#4+M+M+##I+t+[+[+1+T:U:V:B:7:B:B:7:B:D:B:F:F:B:B:E:7:",
"W:E:X:Y:Y:E:E:E:E:E:W:Z:E:`:Y:`:`:Y:`:E:W:X: <Y:X:Z:Z:.<+<@<#<G'$<%<&<4++#[+[+1+t+[+|@[+[+*<J+[++#4+[+H+:@[+J+t+t+1+1+J+L+3+:@[+[+H+1+[+)*=<-<x]x]x]x]T]]^s^x]x]x]x]x]x]T]/^;<><,<##1+1+l#I+t+[+1+:@_#w#[+Y#;+1+t+[+1+x#I+t+1+'<)<!<Y: < <Z: < < < < <`:Y: <Z:W:",
"~<{<{<{<{<{<{<{<{<{<~<{<{<{<~<{<{<~<{<{<~<{<~<~<{<{<{<{<{<]<^</<(<_<:<<<4+##+#[+:$:@M+[+[+;+;+1+2+|+1+M+M+[+[+4+3+[+<@1+M+Y#:@d#[+t+M+t+[<}<|<1<t^]^x](^N/w]w]T]T]w]x]x]x]x]2<3<4<5<w#1+1+[+}+:@d#[+I+2+t+I+t+3+L+[+[++#1+1+x*6<7<8<~<~<~<{<~<W:W:9<~<{<~<~<{<~<",
"0<0<0<0<0<0<0<0<0<0<0<0<0<0<0<0<0<0<0<0<0<0<0<0<0<0<0<0<0<0<a<b<c<d<e<f<g<|+|+1+;+[+2$M+4+y@M+I+1+1+[+x@;+1@[+1+d#H+[+[+<@M+M+;+1@[+1+<@T'h<i<j<p:k</^S]]^l<T]l<]^N/l<]^+/x]f/m<n<o<H+[+I+1+J+|+;+<@M+1+<@[+[+L+;+[+M+1@<@2+p<q<r<s<0<0<0<0<t<u<t<v<0<0<0<0<0<0<",
"w<w<x<w<w<w<w<w<x<w<w<w<x<y<u<z<z<w<x<A<B<B<w<w<w<w<z<B<B<B<w<w<C<D<E<F<G<<@M+1+[+[+:@<@[+:@<@####[+[+:@M+2+M+[+1+:@####[+[+<@M+2+:@x@I+I+&*H<I<x]]^J<x]x]]^/^N/{:{^]^x]]^x]x]2<K<L<n$3+H+1+[+<@[+[++#}+##w#1+[+M+[+}@:@;+S%M<N<O<B<B<A<B<B<x<w<B<z<z<B<y<x<w<w<",
"P<Q<P<P<P<P<P<P<P<Q<P<P<P<P<P<P<P<P<P<P<P<P<R<Q<P<P<P<P<P<P<Q<R<R<S<T<U<V<:@y@+#M+)%:@}@2+1@[+I+I+I+<$;+[+[+[+[+1+}@}@}@x#4+[+[+[+1+|+1+I+],W<X<S]x]N/J<x]f/^^x]t^T]x]Y<]^Z<x]/^`< [2/M,[+[+[+[+z@[+1+}@}@I+[+}+4+[+1+.[+[@[#[$[R<P<P<Q<R<P<P<P<P<P<P<P<Q<R<P<P<",
"%[&[&[&[&[&[&[*[%[&[&[=[-[*[;[*[&[*[-[=[&[&[=[&[&[;[>[*[;[=[-[&[&[,['[)[![S@C$[+[+:@[+[+M+;+I+I+I+[+M+1+2$:@2$:@:@[+[+I+t+[+2$:@|+:@[+1+}@~[{[][x]Y</^]^p:(^/^/^/^/^(^p:]^x]]^x]w]^[/[r*1+x@2+[+1+M+[+[+:@t+}@1+[+([_[:[<[[[}[*[*[;[*[-[=[&[=[-[*[;[>[*[;[&[&[%[",
"|[%[|[%[1[1[%[|[%[|[%[%[|[%[%[%[%[%[|[%[|[%[|[%[|[|[|[|[|[|[|[|[|[2[3[4[5[B{L=Y#[+U%4+[+;+7#[+##3+:@1+[+}@[+M+2+K+:@:@[+I+M+}@[+1+x@:@:@[+6[7[8[N/p:/^k<x]/^s^s^s^f/x]p:Y<N/+/x]x]9[0[a[q%M+4+[+M+4+1+Y#3+:@:@[+I+b[c[d[e[%[|[|[|[|[|[%[|[%[|[%[|[%[1[1[%[|[|[|[",
"f[g[h[i[j[i[i[h[g[k[g[g[l[m[n[n[n[n[h[g[o[g[k[g[f[f[f[f[f[f[f[f[k[p[q[r[s[(*;+:@[+1+x@1+4+[+1+1+w#+#:$1+M+[+[+I+1+l#w#4+:@[+J+[+M+M+Y#y#t+*(t[u[v[w[/^/^w]S]{:]^]^p:N/^^{^x]/^w]x]x[y[z['=m%x@:@:@x#M+M+t+##J+1+S@A[B[E:n[C[f[f[f[f[f[g[f[g[k[g[h[i[i[j[i[h[f[f[",
"D[E[F[G[F[F[F[H[I[D[J[E[K[H[J[J[J[J[H[I[J[J[H[G[L[L[M[M[K[H[N[L[L[O[P[Q[R[U%B@;++#I+M+L+y#1+M+M+M+1+[++#[+[++#<@M+M+M+w#4+[+y#:@+#[+M+M+1+I+S[T[U[^^/^T]t^x]]^t^f/T]p:x]l</^s^t^x]V[W[X[Y[Z[l't+[+I+[+1+;+1+1+v,`[ }.}J[J[+}L[L[L[L[L[G[H[J[D[I[@}#}F[F[G[F[L[L[",
"$}%}$}%}$}$}$}$}$}$}J[&}*}$}$}$}$}$}$}$}$}$}%}*}$}$}$}$}%}=}-};}$}>},}'}n![+1+1+##:@[+t+t+:@+#[+Y#;+1+y#I+I+y###[+[+1+t+t+t+I+[+y#[+[+[+1+I+%')}!}~}h/{}]}]}^}/}{:(}_}:}<}[}}}|}1}2}3}4}5}6}n!2+[+##[+;+Z#;+p%7}8}9}0}$}$}$}$}a}b}c}E[%}$}b}d}G[e}f}=}g}e}h}d}$}",
"i}j}i}k}l}l}m}n}o}p};}&}o}q}l}l}q}q}l}o}p}q}o}q}q}q}k}r}m}n}=}s}i}t}u}]&H/+#Y#I+[+[+[+I+3+;++#[+4+4+1+t+t+t+|+##4++#[+1+t+t+:$[+t+:@##1+1+1+v}w}x}y}z}A}B}C}D}E}F}G}H}I}J}K}L}M}N}O}P}Q}R}S}T}*/I+H+t+;+w*):1!U}V}#}i}q}q}q}l}p}W}X}i}e}o}W}i}Y}l}q}Z}X}i}j}i}q}",
"`} |.|+|@|#|$|%|s}#| |&|s}W}@|s}.|`}@|s}#|W}*|`}`}`}`}`}#|*|=|-| |$[;||^m%Y#L+1+I+d#[+:@H+t+M+2+2+1+##:@[+[+t+M+L+7#Z###4+[+Z#[+M+L+J+1+[+1+N+>|,|'|)|!|~|{|]|K)^|/|(|_|:|<|[|}|||1|2|a$3| ,4|b*<$1+;+5|6|7|8|9|0|=| |W} |W}@|s}.|.|+|&|*|W}`}#|s}W}.|`}`}`}`}`}",
"a|b|c|b|b|d|b|e|f|f|f|g|f|g|b|h|`}i|g|a|f|g|a|a|d|i|d|f|f|f|f|`}j|k|l|c*J+<@[+3+;+Y#M+[+1+[+1+;+;+I+Y#:@}+[+[+1+1+;+L+Y#_#;+[+1@1+1+1+;+J+I+M+m|n|o|p|q|i.i.e>r|H's|}!t|u|v|i.i.m)w|x|i.W.}!y|z|K,F;]'A|B|C|D|E|f|a|f|g|f|g|b|b|b|b|f|g|f|g|a|f|b|g|h|i|f|d|a|f|",
"F|G|H|I|J|K|H|L|J|J|M|J|J|J|J|K|N|H|L|F|G|J|G|N|I|L|K|J|J|J|J|F|O|P|0;~&3+##[+:@[+M+1+[+J+}+[+[+t+t+M+M+2+|+1@[+[+1+I+I+I+:@M+4+[+<@M+I+C$[+1+1+c-N=Q|R|S|i.T|U|V|W.i.i.W|X|i.i.Y|Z|a$i.i.i.`| 1.1+1@1#1$1%1H|L|J|F|J|G|H|I|J|J|J|J|I|&1M|J|F|J|J|J|K|L|J|I|N|J|",
"*1=1-1-1=1-1;1>1;1=1*1,1;1>1'1-1-1;1>1,1,1,1=1-1-1-1-1'1,1,1-1*1)1!1~1I+|+|+}@1+[+[+[@[+|+:@+#3+[+[+[+[+[+}@:@4+}+[+[+[+y@4+M+[+:@1@[+[+[+[+[+[+M+-+{1]1^1/1(1_1z;Y|i.i.:1!)i.i.m~<1[1}1|11121314151617181-1-1;1-1,1=1=1-1>1'1>1,1>1;1-1-1=1-1,1'1=1-1-1=1-1-1=1",
"919101a1b19191c10191919101c191919191919191919101c1b1a1b191919191d1e1f1[+[+[+[+}++#[+}@[+;+U%1+_###y@+#[+[+[+}@}@M+##3+[+M+1+:@|+}@[+[+1+I+[+[+[+[+:@Y#g1h1i1j1k1l1m1n1o1p1q1o1r1s1t1u1v1w1x1l#y1z1A1B1,19191b1019191C19101c1b1b191919191c191c19101b1b1a10191c1a1",
"D1D1D1D1D1D1D1D1D1D1D1D1D1D1D1D1D1D1D1D1D1D1D1D1D1D1D1D1D1D1a1E1F1G1H17#[+3+H+1+U%C$M+[+1+I+1+|+|+t+<@x@:@[+:@1+|+I+3+##I+1+1@:@M+<@+#x#|+|+t+y@4+1@[+:@I1J1K1L1M1N1O1T/m^4=P15;Q1R1J+[+}+J+S1T1U1D1D1D1D1D1D1D1D1D1D1D1D1D1D1D1D1D1D1D1D1D1D1D1D1D1D1D1D1D1D1D1",
"V1W1W1V1V1W1V1V1V1V1V1W1V1V1V1V1V1V1V1V1V1V1W1V1W1W1V1V1V1V1X1Y1Z1`1 21+<@t+1+I+1+4+1+[+4+<@[+[+[+t+M+M+M+1+1@[+[+1+}@t+;+1+[+4+[+M+M+[++###t+M+}@1+[+[+<@M+t+1+t+[+I+M+[+M+[+1+M+I+:@<@[+[+.2+2V1V1V1V1V1W1V1V1W1V1V1W1V1W1V1V1V1V1W1V1W1V1V1W1V1W1W1V1W1W1V1V1",
"@2#2#2@2$2%2&2*2$2@2*2#2*2@2@2$2$2=2*2$2@2@2#2@2#2-2$2$2@2@2;2>2,2'21+M+t+<@4+:@1+x#M+:@x#I+;+4+4+:@4+:@1+M+1+1+4+[+1+1+H+|+t+x#+#[+I+[+;+4+[+[+I+M+1+[+[+[+1+:@Y#Y#:@+#[+1+Y#[+[++#l#L+;+[+)2!2$2*2*2$2&2%2$2*2#2@2@2#2*2#2$2$2$2$2#2@2#2@2*2#2~2#2~2@2#2#2@2@2",
"{2]2^2/2/2^2(2_2:2<2[2]2}2^2/2(2(2(2_2(2^2]2^2]2^2/2(2|2122232:|42=$+#:@4+I+w#4+t+I+J+[+t+1+6#l###Y#3+:@H+[+M+2+##4+Y#+#:@[+t+}@K+:@Y#1+J++#4+:@+#:@}@[++#1+M+Y#Y#w#Y#3+:@I+7#+#1+1+I+H+4+[+)2!2]25262/2(2(2^2(2^2^2{2]27282^29292^2^2^2^2]2[2^2{2]2^2]2{2^2^2]2",
"0202<1<1020202<1a2b20202<1<1<1c2c202<1<1<102<1c2<1c2c2d2e2f2g2h2i2:@w#4+l#1+t+##:@[+H+[+[+<@I+I+t+I+t+[+y#[+[+I+t+J+J+J+3+:@[+t+t+:@J+1+I+t+H+L+H+3+I+I+w#<@I+1+1+I+I+J+:@[+I+H+1+[+1+J+;+[+V-j2k2l2m20202c2c202<1<10202n2m2c2c2c2c2<1<1<10202<102c2<1c202<1<102",
"o2p2n,n,Y.q2Y.Y.r2p2s2o2`,n,n,r2t2u2v2`,`,o2`,p2`,w2w2`,x2C y2z2A2`#M+1+I+[+I+l#I+3+[+I+:@##[+[+1+##Y#[+t+3+[+[+t+t+1+I+l#:@3+[+}@[+t+[+1+t+t+t+|+##[+t+M+4+##1+[+[+[+Z#[+3+t+1+4++#1++#:@t+B2C2D2p2s2u2v2r2v2o2`,`,r2p2E2s2v2r2w2w2v2`,F2o2p2`,o2w2`,w2o2v2`,o2",
"j.G2H2I2j.I2H2J2I2j.I2G2G2H2K2H2I2H2G2G2j.G2j.G2G2J2G2L2M2R|N2O2|^|~1+[+1+[+1+I+t++#7#t+|+J+l###[+4+_#1+I+H+L+K+[+[+[+1+I+M+H+[+1+:@y#4+##[+[+[+1+[+}+[+1+;+J+##+#[+3+L+[++#[+<@|+Y#1+M+M+t+6#P2Q2H2I2j.K2K2j.G2G2j.I2G2I2I2H2K2J2J2G2G2I2j.G2j.J2G2J2j.J2G2j.j.",
"i.W.W.W.i.W.W.i.W.i.W.W.W.W.W.W.W.W.W.W.i.W.i.W.W.i.W.R2S2T2U22_Y{V2K&Y#J+##+#1+M+[+;+[+1+t+L+;+M+1+;+:@1+1+|+4+;+J+[+[+1+1+1+1@[+:@2+I+:@##l#1+I+M+4+:@7#[+t+|+|+1+4+|+M+[+M+[+t+I+[+1+1+7#|+W2X2Y2W.i.W.W.i.W.W.i.W.W.W.W.W.W.i.W.W.W.W.i.W.i.i.W.W.i.W.W.i.i.",
"i.i.i.i.i.i.i.i.i.i.i.i.i.i.i.i.i.i.i.i.i.i.i.i.i.i.Z2`2 3.3+3<+S%@3M%w*I+|+x#+#<@[+[@[+[+[+t+I+1+[+7#;+[+[+1+M+#3J+J+3++#[+M+2+M+M+1+t+M+|+I+[+<@1+M+[+1+1+I+1+1+I+1+<@1+|+2$[++#3+####[+1+1+J+$3%3k.i.i.i.i.i.i.i.i.i.i.i.i.i.i.i.i.i.i.i.i.i.i.i.i.i.i.i.i.i.",
"i.i.i.i.i.i.i.i.i.i.i.i.i.i.i.i.i.i.i.i.i.i.i.i.i.W.&3*3=3-3;3O+)%>3,3'3:$I+}@1+[+M+:@:@1@[+[+####[+:@[+[@[+[+[+[+t+}@I+[+1@4+[+[+4+1@[+[+[+I+x#4+[+}@[+4+1@[+####[+1@4+[@:@:@[+[+;+I+7#Z#[+[@:@)3!3~3i.i.i.i.i.i.i.i.i.i.i.i.i.i.i.i.i.i.i.i.i.i.i.i.i.i.i.i.i.",
"i.i.i.i.i.i.i.i.i.i.i.i.i.i.i.i.i.i.i.i.i.i.i.i.i.a${3]3^3/3(3l%[+6{V'_3K,=%1+:@M+<@|+}@L&U%[+t+t+:@M+}@}@z@4+1@[+:@[+I+}@1+[+[@[+<@M+:@##3+[+M+2$:@[@[+M+[+[+t+t+I+}@1+[+}@}@}@}@I+t+I+[+[+M+<@-+:3<3[3i.i.i.i.i.i.i.i.i.i.i.i.i.i.i.i.i.i.i.i.i.i.i.i.i.i.i.i.",
"i.i.i.i.i.i.i.i.i.i.i.i.i.i.i.i.i.i.i.i.i.i.i.i.9-o~}3|3W.1323M+|+|+.-**334353634+:@[+[+[+1+I+;+;+K+4+[+[+1+M+<@+#3+:@:@I+1+M+1+2+[++#x#M+t+[+I+1+1+;+[+M+|+L+:@:@[+I+M+[+4+[+:@:@:@[+3+H+1+M+M+Y#7383j>i.i.i.i.i.i.i.i.i.i.i.i.i.i.i.i.i.i.i.i.i.i.i.i.i.i.i.i.",
"i.i.i.i.i.i.i.i.i.i.i.i.i.i.i.i.i.i.i.i.i.i.i.i.9303a3b3W.c32_4+:@y@1+j,d3S&e3f3F/P*:@4+<@I+4+l#l#[+[+4+[+M++#M+1+M+##+#[+I+<@M+1@<@M+t+C$;+[+[+I+M+$#[+4+4+3+Z#Z#4+:@[+1+1@;+x@+#K+:@t+1+4+[+1+:@g3h3i30-i.i.i.i.i.i.i.i.i.i.i.i.i.i.i.i.i.i.i.i.i.i.i.i.i.i.i.",
"i.i.i.i.i.i.i.i.i.i.i.i.i.i.i.i.i.i.i.i.i.i.i.X.j3k3l3i.m3n3:@x#1+t+I+;+o3p3q3r3E-5(D{x#[+4+y#M+M+t+1+y#:@[+y@I+1+M+L+1+4+:@[+1+Z#[+[+1+Y#2+1+4+:@[+1+:@y#1+1+<@1+w#4+1+I+1+M+M+I+l###1+1+y#:@I+1+j]s3t3a$i.i.i.i.i.i.i.i.i.i.i.i.i.i.i.i.i.i.i.i.i.i.i.i.i.i.i.",
"i.i.i.i.i.i.i.i.i.i.i.i.i.i.i.i.i.i.i.i.i.i.i.u3v3w3.>i.x3M*[+I+I+I+##2+B@[+{'y!9&y3z3A3B3<@1+4+4+1+I+I+J+t+[+:@+#[+L+2+w#4+[+I+:$:@l#M+[+;+I+##:@##}@[+I+I+Y#Y#I+|+1+t+[+I+[+[+1+M+I+1+I+}@1+[+I+##*/C3D3k.i.i.i.i.i.i.i.i.i.i.i.i.i.i.i.i.i.i.i.i.i.i.i.i.i.i.",
"i.i.i.i.i.i.i.i.i.i.i.i.i.i.i.i.i.i.i.i.i.i.[!n(E3#_!)/3F33@[+3+[+:@##<@t+1+1+t+{$G3j!H3E-G;-+Y#y@4+[+t+J+t+[+L+l#[+1+t+t+J+:@[+I+I+3+l#[+;+L+I+[+##I+:@##[+4+3+4+1+##:@3+[+I+##[+1+Y#4+[+1+3+[+I+w#J+%=I3J3i.i.i.i.i.i.i.i.i.i.i.i.i.i.i.i.i.i.i.i.i.i.i.i.i.i.",
"i.i.i.i.i.i.i.i.i.i.i.i.i.i.i.i.i.i.i.i.i.i.>.K3L3M3i.W+N3[+t+##I+t+[+[+t+t+[+t+<@X&!&l!O36>d3P3T':@##;+[+:$[+I+M+[+[+[+[+Y#y@:@t+M+:@Y#1+[+[+M+M+[+[+I+##I+I+Y#4+t+H+L+H+[+|++#4+l#Y#4+##L+##[+t+t+t+h&Q3s'i.i.i.i.i.i.i.i.i.i.i.i.i.i.i.i.i.i.i.i.i.i.i.i.i.i.",
"i.i.i.i.i.i.i.i.i.i.i.i.i.i.i.i.i.i.i.i.i.X.R3S3K3!)i.T3U3I+t+M+1+;+K+[++###[+1+[+1+[+T'S%V3&&G&^*}~Y#}+:@Y#[+4+3+1+l#+#[+I+H+[+[+t+M+J+####+#1+y#:@M+1+I+1+1+J+Z#1+1+1+1+[+1+M+|+L+t+M+2+I+7#:@[+I+;+y.W3X3i.i.i.i.i.i.i.i.i.i.i.i.i.i.i.i.i.i.i.i.i.i.i.i.i.i.",
"i.i.i.i.i.i.i.i.i.i.i.i.i.i.i.i.i.i.i.i.i.Y3Z3`3 4i..4+4}+4+[+1+x@|+L+[+;+|+1+[+[+[+[+M+;+{$3=-&k=@4Y;{$:@[+x@|+L+t+2+;+K+4+1+[+1@[+1+I+2+;+:@[+J+:@1+[+;+}+[+I+I+3+4+[+1@[+[+1+1+<@[+1+1+[+;+[+1@1+I+#4^;$4%4&4i.i.i.i.i.i.i.i.i.i.i.i.i.i.i.i.i.i.i.i.i.i.i.i.",
"i.i.i.i.i.i.i.i.i.i.i.i.i.i.i.i.i.i.i.i.i.*4=4|;0-i.-4;4>4B!:@[+2+<@1+|+I+3+##I+x@:@|+2$[+[+J+{$h~4,,4'4l!M,|+<@[+[+<@[+:@[+M+|+2+[+1+I+<@I+1+I+@#:@[@[+1+L+[+[+[+L+1+[+2+|+1@[+[++###[+I+1+M+|+4+M+1+q&r=k1)4!4~4m~i.i.i.i.i.i.i.i.i.i.i.i.i.i.i.i.i.i.i.i.i.i.",
"i.i.i.i.i.i.i.i.i.i.i.i.i.i.i.i.i.i.i.i.i.{4]4))i.i.^4/4G-(4]*:@[+[+[+[+[+I+1+M+}@<@[+|+[+1+I+t+|+5)z)):_4&/:4<4O#Y#H+q&1+[+[+[+:@[@[++#3+t+t+[+|+}@:@z@1+M++#y#t+I+}@1+[+}@:@;+<$I+[+3++#[+[+}@[+[+[+[+],<~9>[4}4|4{)0-X.i.i.i.i.i.i.i.i.i.i.i.i.i.i.i.i.i.i.i.",
"i.i.i.i.i.i.i.i.i.i.i.i.i.i.i.i.i.i.i.i.!)142434i.44v#t+g-{(54y$644+1@:@t+_###[+:@[+M+C$$#[+;+t+t+1+[+[+[+F-@;]_3]74.-:@M+x@4+:@}@|+[+1+I+:@:@I+1+[+M+[+:@[+1+t+:@[+:@:@[+[+}@M+[+1+}@}@x#4+[+2$:@1@1+H+8494p%M,04a4b4<|M3c4d4=,q,9-X.i.i.i.i.i.i.i.i.i.i.i.i.i.",
"i.i.i.i.i.i.i.i.i.i.i.i.i.i.i.i.i.i.i.i.e4]4U,i.f4g4h41+[+i4<~j4p</%J+k4[+L+;+[+x@+#[+[+M+4+K+[+[+[+<@2+:@~&L%l4m4,&4&3+J+1+1+1@[+M+I+[+####3+##[+4+[+;+x#I+:@[+3++#y@H+:@4+[+4+:@:@[+t+t+1+1+M+M+<@1+I+n4o4p4K+2$q4r4s4t4u4v4w4t_x4y4V)z4A4B4C4C4C4D4E4F4G4H4Y|",
"i.i.i.i.i.i.i.i.i.i.i.i.i.i.i.i.i.i.i.q,I4J4K4i.L4M4<@1+[+I+m%N4O4`[P4Q4R4L;l#[+M+x#:@+#1+;+1+1+Y#)%z)S4h~3,T4U44=L%6#[+[+I+}@[+[+4+[+1+M+M+}@_#;+y@[+M+M+Y#3+1+|+1+I+x#;+1@;+y#Y###[+[+t+M+M++#[+I+[+[+i$b*x)[+I+[+:@V4W4X4Y4Z4`4 5.5+5@5#5$5%5t;&5*5=5-5;5>5T=",
"i.i.i.i.i.i.i.i.i.i.i.i.i.i.i.i.i.i.i.,5'5)5i.!5~55@1+M+1++#:@1+S%{5]52/^5/5(5n%z)_51+:5x*S@n%w=<5u+K,[5D]|^!=7#Y#1+M+Y#:@[+H+t+:@x#Y#[+[+[+t+M+M+t+[++#<@M+t+[+1+1+1+I+M+t+M+M+I+1+;+4+4+:@[+x#+#1+[+1+<$}5|5d#1+[+[+[+I+[+Q+1525354555c*6575859505M=a5.=b5c5[!",
"i.i.i.i.i.i.i.i.i.i.i.i.i.i.i.i.i.i.i.d5e5s'i.L4k%l#[++#;+w#:@t+[+U%f5g5s*A>b*<*h5i5j51~k5l-$=-&^>b*D&l5j)_5t+;+6#[+1+##4+[+##}@[+I+J+4+Y#1+[+[+[+t+I+y#[+:@+#1+[+[+t+[+[+t+:@##1+M+J+Y###k4:@}@3+M+<@1+1+m51.=%w#:@t+[+1+<@1+[++#3+;+t+[+[+##2+##l#n5o5p5q57_i.",
"i.i.i.i.i.i.i.i.i.i.i.i.i.i.i.i.i.i.i._;r5S=s5t5K%1+[+l#L+t+[+[+[+[+[+Y#u5v5w5^*x5y5y5z5A5^5e_/5K;}~;+1+[+t+t+4+w#1+I+I+I+B@:@t+[+[+I+L+J+1+1+##:@t+I+y#[+4+_#l#1+1+##:@3+[+:@w#[+1+t+t+I+J+:@t+[+;+##[+1+B5c>m!w#:@t+:@w#<@L+Y#[++#;+t+[+I+_#m|p%C5D5E5F5>.i.i.",
"i.i.i.i.i.i.i.i.i.i.i.i.i.i.i.i.i.i.u3!>G50-H5<&;+6#1+1+<@3+L+[+I+:@3+[+[+1+M+1+2+q*I5J5+#[+4+w#M+1+##:@[+}+[+:@l#<@1+1+1+Z#:@}+:@3+1+1+t+1+I+Y#:@1+[+H+I+[+L+Y#B@2+H+L+H+I+[+I+J+[+1+<@1+[+[+[+y@L+J+[+t+)&K5S%M+<@7#:@J+[+A@L+Z#;+[+:$:@{$L5M5N5O5P5U)>.i.i.i.",
"i.i.i.i.i.i.i.i.i.i.i.i.i.i.i.i.i.i.Q5R5t_[!S5T5:@;+<@t+1+J+;+U%1+:@2+t++#+#1+[+1+1+M+;+}+1+I+4+1+[+J+|+[+H+[+I+Y###+#+#[+:$C$H+M+4+[+4+##<@1+:$;+[+M+1+1+1+I+<@;+;+1+1+1+1+[+#3l###[+##4+:$C$M+H+1+t+t+[+F/b*U51+[+Y#M+1+[+[+t+L+C$:$H/V5W5@5X5Y5s>Z50-i.i.i.i.",
"i.i.i.i.i.i.i.i.i.i.i.i.i.i.i.i.i.D)5!`5 6!5.6L+[++###I+1+<@[+;+M+[+t+}@I+:@3++#}+:@1+|+J+1+M+[+J+Y#<@|+[+}@[+1+|+2+I+:@[+|+1+1+}@<@M+I+:@##+#1+M+x@1+:@}+[++###[+[+[+[+1@:@1@1+I+;+M+;+:@|+1+1+1+:@y@<@1+B&#*K~,=[+[+1+d#4+[@+6e_==T@=/@6#6$6Z5q,i.i.i.i.i.i.i.",
"i.i.i.i.i.i.i.i.i.i.i.i.i.i.i.i.i.%6&6*6=,=6-6[+[+;+I+[+[+M+<@[+:@1@[+[+J+J+I+}@2+:@M+[+[++#y@[+:@y@+#[+[+:@[@[+[+[+J+J+[+[+[+[+1+M+[+[+t+|+;+I+1+:@[+[+|+[+1+I+t+x#+#[+|+|+:@[+1+I+[+I+1+[+[+[+[+[+;+}@I+1+]$V-;6:@[@[+h-<4z3Z'>6,6'6)6Z!~)X.i.i.i.i.i.i.i.i.i.",
"i.i.i.i.i.i.i.i.i.i.i.i.i.i.i.i.X.!6~6{6W.]6[+;+d#1+I+3++#x@2+[+|+[+4+y@t+t+[+[+[+:@[+:@2$}@}@t+t+1+[+1@:@}@|+[+[+[+t+t+y@+#[@:@[@4+2$I+[+[+[+[+$#L&}@[+}@M+1+I+I+}@}@1+[+}@M+[+[+##3+[+y@+#[@|+}@M+[+[+##^6~,/6(6_6:6`~<6[6f,o~Z!q,9-k.i.i.i.i.i.i.i.i.i.i.i.i.",
"i.i.i.i.i.i.i.i.i.i.i.i.i.i.i.i.}6|61626X.a+|+M+[+##3+I+1+M+;+[+4+M+1+I+:@:@[+:@|+2$1+[+M+[+:@:@[+M+1+M+|+[+<@2+y@:@:@[+I+|+|+}@<@<@M+[+1+3+##[+[+:@[+:@[+:@:@:@[+:@[+:@[+:@4+1@[+1+I+:@I+|+|+[+:@4+x@:@t+t+364656g>6676+>86k.i.i.i.i.i.i.i.i.i.i.i.i.i.i.i.i.i.",
"i.i.i.i.i.i.i.i.i.i.i.i.i.i.i.i.96G'06u3a64@4+[+1+t+t+t+1+[+d#:@x@M+[+[+##H+t+y@J+M+M+[+4+[++#b6C$t+;+[+1+4+[+M+I++#H+;+:@[+[+M+M+4+[+L+@~t+L+1+[+x@1+x@4+y@l#3+[+3+Y#x@;+2$M+;+L+[+J+Z#[+4+1+[+2$M+A@:$1+t+c6d6q,i.i.i.i.i.i.i.i.i.i.i.i.i.i.i.i.i.i.i.i.i.i.i.",
"i.i.i.i.i.i.i.i.i.i.i.i.i.i.i.W.e6}_f6j.g6h6}+<@M+I+4+4+;+[+1+1+[+:@Y#1+1+1+I+1+[++#1+;+y#1+1+2+Z#1+3+:@}@}+[+:@;+1+I+##4+4+:@+#;+y@1+t+[+1+w#Y#[+I+M+}@<@M+M+M+t+t+M+M+M+M+[+L+3+1+1+4+;+3+2+[+M+[+I+:@4+I+m^i6=,i.i.i.i.i.i.i.i.i.i.i.i.i.i.i.i.i.i.i.i.i.i.i.",
"i.i.i.i.i.i.i.i.i.i.i.i.i.i.i.t>j6k6@_i.l6;+;++#[++#l#w#J+<@t+H+[+I+:$t+4+4+1+1+[+y#I+I+I+t+[+1+1+t+L+:@I+J+[+1+J+[+1+t+t+y#;+x#I+t+:@+#[+1+t+I++#:@[+I+[+:@+#1+1+[+[+[+[+1+[+t+;+4+1+w#J+<@t+[+[++#[+Y#l#1+l!m6S=i.i.i.i.i.i.i.i.i.i.i.i.i.i.i.i.i.i.i.i.i.i.i.",
"i.i.i.i.i.i.i.i.i.i.i.i.i.i.i.n6o6p68-i.J.X$|+##1+1+I+I+##:@[+y#[+t+C$J+Y#4+Y#L+[+t+[+:@##:@+#t+t+[+|@C$[+,=t+[+;+Y#[+1+I+I+I+I+[+##L+l#4+Y#I+t+##:@##:@##Y#+#4+Y###;+[+[+t+[+M+2++#1+I+1+##:@J+I+##<@M+I+[+q6r6s6i.i.i.i.i.i.i.i.i.i.i.i.i.i.i.i.i.i.i.i.i.i.i.",
"i.i.i.i.i.i.i.i.i.i.i.i.i.i.7_t6u6q59-i.v62@t+I+Y#+#[+1+H+L+I+t+K+[+C$L+t+1+Y#I+[+3+[+:@H+L+l#Y#Y#[+J+C$[+I+y#<@L+Y#+#4+[+[+[+[+:@H+t+t+Y#K+4+1+I+I+_#I+H+t+1+Y#L+J+L+:$:@:$[+[+L+Z#[+1+I+H+I+J+I+H+[+4+l#1+w6x6Z!i.i.i.i.i.i.i.i.i.i.i.i.i.i.i.i.i.i.i.i.i.i.i.",
"i.i.i.i.i.i.i.i.i.i.i.i.i.i.y6z6G z4i.k.A6X$[+t+I+4++#Y#1+1+1+M++#I+[+[+t+t+[+H+|+H+M+[+1+1+1+;+;+[+2+1+}+[++#[+t+M+Y#:@##L+M+M+[+1+[+1+|+J+;+[+1+1+1+1+1+1+M+<@<@1+[+Y#[+|@}+[+C$;+[+1+1+1+1+[+[+Y#[+;+Y#1+B6C6D6i.i.i.i.i.i.i.i.i.i.i.i.i.i.i.i.i.i.i.i.i.i.i.",
"i.i.i.i.i.i.i.i.i.i.i.i.i.i.E6o(F6G6H6I6J6:@}+[+t+M+;+:@[+}+:@1+|+x@4+3+####[+;+1+1+1+[+[+1+M+I+##+#1+[+J+M+L+}+[+1+t+M+2+;+1+1+[+L+}+[+1+1+[+K+4+[+[+:@7#[+<@[+##+#[+7#:@M+2+I+1+M+w#+#[+[+[+[+[+M+M+J+3+##K6L6w_i.i.i.i.i.i.i.i.i.i.i.i.i.i.i.i.i.i.i.i.i.i.i.",
"i.i.i.i.i.i.i.i.i.i.i.i.i.n~M6N6O6P6U3Q6|+|+2+[+[+I+I+[+I+2+1+[+1+2+I+:@:@I+1+[+[+1@:@2$M+[+1+t+;+:@7#;+<@1+|+:@+#3+[+1+1+[+1@:@[+|+:@[+[+J+@~;+[+1@|+[+1+4+y#M+|+;+[+1+[+<@1+4+y@I+I+:@K+J+$#:@[@1+1+I+|+|+ )R626i.i.i.i.i.i.i.i.i.i.i.i.i.i.i.i.i.i.i.i.i.i.i.",
"i.i.i.i.i.i.i.i.i.i.i.i.i.s6p6S6n!1+[+[+[+[+[+4+}+[+t+}@1+[+[+[+|+[+1+}@}@t+y@+#[+|+}@|+4+1@1+I+[+[+:@[+[@[+1+M+1+_#3+[+}+4+|+T'[+1+J+}+[+[+[+M+}@}@<@[+M+1+I+[+[+[+1@4+[+[@[+[+:@[+t+}@}@1+:@[+:@[+1+M+[+[+K~T6c4i.i.i.i.i.i.i.i.i.i.i.i.i.i.i.i.i.i.i.i.i.i.i."};
