/* XPM */
static char * logo2_xpm[] = {
"129 129 2838 2",
"  	c None",
". 	c #54252B",
"+ 	c #6F3631",
"@ 	c #AB6748",
"# 	c #C07653",
"$ 	c #A3544C",
"% 	c #692D37",
"& 	c #9D6443",
"* 	c #D89467",
"= 	c #763E3A",
"- 	c #703F37",
"; 	c #A45037",
"> 	c #98463C",
", 	c #904039",
"' 	c #863835",
") 	c #7C3235",
"! 	c #772E34",
"~ 	c #602E28",
"{ 	c #542420",
"] 	c #542726",
"^ 	c #4E2424",
"/ 	c #4C2427",
"( 	c #452427",
"_ 	c #3D2023",
": 	c #391E20",
"< 	c #391B1F",
"[ 	c #401B21",
"} 	c #542526",
"| 	c #6C2C29",
"1 	c #9C563A",
"2 	c #803A37",
"3 	c #92503B",
"4 	c #C67C4C",
"5 	c #855631",
"6 	c #2E1E23",
"7 	c #713B30",
"8 	c #884236",
"9 	c #542426",
"0 	c #67362A",
"a 	c #804135",
"b 	c #242126",
"c 	c #56281F",
"d 	c #551E28",
"e 	c #54251D",
"f 	c #542221",
"g 	c #5D2827",
"h 	c #612828",
"i 	c #67282A",
"j 	c #6D2C2E",
"k 	c #613228",
"l 	c #4D201D",
"m 	c #431E1F",
"n 	c #3E2021",
"o 	c #331C19",
"p 	c #361B18",
"q 	c #311C27",
"r 	c #45222E",
"s 	c #954B2F",
"t 	c #C06D54",
"u 	c #78362B",
"v 	c #712B2D",
"w 	c #A75D36",
"x 	c #C36F45",
"y 	c #B75F3F",
"z 	c #4F3327",
"A 	c #6A3237",
"B 	c #81403B",
"C 	c #C47A59",
"D 	c #CA7E55",
"E 	c #A65A4A",
"F 	c #6D2A2C",
"G 	c #C17C51",
"H 	c #F5A56E",
"I 	c #7A3629",
"J 	c #7F4433",
"K 	c #C0623C",
"L 	c #BC5F3C",
"M 	c #AB5031",
"N 	c #A1482D",
"O 	c #97432C",
"P 	c #93402A",
"Q 	c #7B312D",
"R 	c #722A27",
"S 	c #732E2E",
"T 	c #6D2B2D",
"U 	c #69282D",
"V 	c #63292F",
"W 	c #58252B",
"X 	c #532429",
"Y 	c #502327",
"Z 	c #4F1E24",
"` 	c #561F20",
" .	c #6B2828",
"..	c #994F35",
"+.	c #79302D",
"@.	c #924C39",
"#.	c #C37549",
"$.	c #995938",
"%.	c #4B2C24",
"&.	c #BE7751",
"*.	c #C26A46",
"=.	c #712C27",
"-.	c #944F3C",
";.	c #A7523B",
">.	c #442923",
",.	c #914931",
"'.	c #9E4B44",
").	c #97482F",
"!.	c #96442F",
"~.	c #95432E",
"{.	c #92402C",
"].	c #8B3926",
"^.	c #853420",
"/.	c #732A27",
"(.	c #6C2628",
"_.	c #65272D",
":.	c #5C242A",
"<.	c #552324",
"[.	c #481D1B",
"}.	c #3E1E29",
"|.	c #491E26",
"1.	c #9D5131",
"2.	c #C17053",
"3.	c #6E3127",
"4.	c #69272E",
"5.	c #A45B37",
"6.	c #C06B41",
"7.	c #B55B3A",
"8.	c #502F21",
"9.	c #65262B",
"0.	c #823832",
"a.	c #CD7A58",
"b.	c #CE7E50",
"c.	c #AF664E",
"d.	c #773432",
"e.	c #C37C52",
"f.	c #F1A06B",
"g.	c #753329",
"h.	c #7B4135",
"i.	c #B85C3E",
"j.	c #AD513D",
"k.	c #A34938",
"l.	c #A14A3C",
"m.	c #974437",
"n.	c #923F35",
"o.	c #7E392F",
"p.	c #78352C",
"q.	c #783730",
"r.	c #70332E",
"s.	c #682D2B",
"t.	c #672A2F",
"u.	c #5C2329",
"v.	c #542125",
"w.	c #552628",
"x.	c #542427",
"y.	c #5A2425",
"z.	c #793137",
"A.	c #994B32",
"B.	c #7A2E2A",
"C.	c #9B5140",
"D.	c #BD6C46",
"E.	c #97533F",
"F.	c #532D23",
"G.	c #DD8E54",
"H.	c #CA6836",
"I.	c #6C201C",
"J.	c #944635",
"K.	c #A84831",
"L.	c #492118",
"M.	c #9E472B",
"N.	c #AF4A3E",
"O.	c #AA4B2D",
"P.	c #A94B38",
"Q.	c #98402C",
"R.	c #93402C",
"S.	c #8F432F",
"T.	c #8A422D",
"U.	c #77352E",
"V.	c #71312F",
"W.	c #622729",
"X.	c #5B2525",
"Y.	c #693833",
"Z.	c #5C2825",
"`.	c #4C202A",
" +	c #592328",
".+	c #A85833",
"++	c #AD6041",
"@+	c #602B23",
"#+	c #622530",
"$+	c #A05939",
"%+	c #BD683F",
"&+	c #BB5C3B",
"*+	c #593323",
"=+	c #5F252A",
"-+	c #803732",
";+	c #C97351",
">+	c #D48153",
",+	c #B56C52",
"'+	c #7C3E41",
")+	c #B67654",
"!+	c #E89F73",
"~+	c #713737",
"{+	c #5E2F2C",
"]+	c #893824",
"^+	c #823429",
"/+	c #782D23",
"(+	c #772F27",
"_+	c #712D25",
":+	c #75322B",
"<+	c #6D2A24",
"[+	c #6B2A24",
"}+	c #6A2C29",
"|+	c #672C2B",
"1+	c #602729",
"2+	c #5D2A2D",
"3+	c #512628",
"4+	c #492222",
"5+	c #492625",
"6+	c #4C2727",
"7+	c #572727",
"8+	c #732C35",
"9+	c #8E4228",
"0+	c #772D28",
"a+	c #995040",
"b+	c #B56543",
"c+	c #9C5A4D",
"d+	c #522E2A",
"e+	c #CD7F4C",
"f+	c #BB6032",
"g+	c #6C2A2D",
"h+	c #944E45",
"i+	c #A04637",
"j+	c #40201F",
"k+	c #944533",
"l+	c #9E423F",
"m+	c #9B432C",
"n+	c #9C3E2B",
"o+	c #903926",
"p+	c #8C3C2A",
"q+	c #853D2B",
"r+	c #7B3726",
"s+	c #70302D",
"t+	c #6B2D2D",
"u+	c #5E2427",
"v+	c #551F1F",
"w+	c #5C2A25",
"x+	c #592524",
"y+	c #4B1D28",
"z+	c #592126",
"A+	c #AE5C39",
"B+	c #A95E42",
"C+	c #693632",
"D+	c #62232E",
"E+	c #9B5133",
"F+	c #B6613A",
"G+	c #BA5D3E",
"H+	c #573326",
"I+	c #5B2C33",
"J+	c #753331",
"K+	c #C06B4C",
"L+	c #DB875C",
"M+	c #AF654C",
"N+	c #773537",
"O+	c #BC7752",
"P+	c #E6986B",
"Q+	c #662A29",
"R+	c #623130",
"S+	c #8B3B2B",
"T+	c #7F3536",
"U+	c #813A3B",
"V+	c #7C383A",
"W+	c #662627",
"X+	c #662728",
"Y+	c #512521",
"Z+	c #4F2321",
"`+	c #4A2223",
" @	c #472326",
".@	c #411F24",
"+@	c #411C21",
"@@	c #3F1D22",
"#@	c #441F24",
"$@	c #4A2027",
"%@	c #57242B",
"&@	c #712F39",
"*@	c #8F482C",
"=@	c #78322A",
"-@	c #884533",
";@	c #AB5F3E",
">@	c #995136",
",@	c #643631",
"'@	c #EF9A6F",
")@	c #BA5D37",
"!@	c #5A2021",
"~@	c #874336",
"{@	c #903927",
"]@	c #391E1E",
"^@	c #783123",
"/@	c #6F1E23",
"(@	c #772F23",
"_@	c #6E2B26",
":@	c #662826",
"<@	c #5F2727",
"[@	c #552225",
"}@	c #4B1D20",
"|@	c #4B231E",
"1@	c #471F1E",
"2@	c #482324",
"3@	c #43221F",
"4@	c #3C1F16",
"5@	c #441C1B",
"6@	c #49212C",
"7@	c #50191E",
"8@	c #AE5B3C",
"9@	c #A15742",
"0@	c #582424",
"a@	c #6E2931",
"b@	c #994E2E",
"c@	c #B15B37",
"d@	c #B85E44",
"e@	c #4F3129",
"f@	c #572E30",
"g@	c #683033",
"h@	c #B16149",
"i@	c #CE794E",
"j@	c #B97256",
"k@	c #834943",
"l@	c #C28254",
"m@	c #EA9E67",
"n@	c #632C1F",
"o@	c #8E584E",
"p@	c #B0573C",
"q@	c #9E4E37",
"r@	c #A65A3E",
"s@	c #A94C37",
"t@	c #7D3A25",
"u@	c #793C2C",
"v@	c #6B2D27",
"w@	c #6D2B2B",
"x@	c #65282B",
"y@	c #5D282A",
"z@	c #522423",
"A@	c #4E2322",
"B@	c #512425",
"C@	c #552528",
"D@	c #522226",
"E@	c #542224",
"F@	c #723733",
"G@	c #864632",
"H@	c #76342A",
"I@	c #843F31",
"J@	c #A35A3C",
"K@	c #8F5536",
"L@	c #632E22",
"M@	c #ECA569",
"N@	c #AC5748",
"O@	c #5D2515",
"P@	c #874B41",
"Q@	c #893628",
"R@	c #3A1B18",
"S@	c #A15339",
"T@	c #A04B3A",
"U@	c #9D4E27",
"V@	c #9C4A2E",
"W@	c #8B432E",
"X@	c #813924",
"Y@	c #7D3622",
"Z@	c #763627",
"`@	c #73312E",
" #	c #712A2C",
".#	c #672A2D",
"+#	c #602D2D",
"@#	c #5E2927",
"##	c #59211B",
"$#	c #552A30",
"%#	c #552124",
"&#	c #A4543A",
"*#	c #A26150",
"=#	c #512B2E",
"-#	c #632B2B",
";#	c #8D4838",
">#	c #B95C36",
",#	c #BF6B46",
"'#	c #573D32",
")#	c #5B302E",
"!#	c #6C373A",
"~#	c #AE604C",
"{#	c #CF7B50",
"]#	c #B27054",
"^#	c #7E453F",
"/#	c #C08054",
"(#	c #E89E69",
"_#	c #613127",
":#	c #6E3D38",
"<#	c #97412A",
"[#	c #8F4430",
"}#	c #783928",
"|#	c #822F2F",
"1#	c #67312B",
"2#	c #652B1F",
"3#	c #512C2C",
"4#	c #5B292F",
"5#	c #54252C",
"6#	c #472427",
"7#	c #4C2528",
"8#	c #482425",
"9#	c #482224",
"0#	c #481E23",
"a#	c #471C23",
"b#	c #441D24",
"c#	c #4E2427",
"d#	c #6F372F",
"e#	c #783E32",
"f#	c #71322E",
"g#	c #834139",
"h#	c #9C5A43",
"i#	c #8B5841",
"j#	c #673026",
"k#	c #D19151",
"l#	c #90403E",
"m#	c #5B2315",
"n#	c #753D30",
"o#	c #853626",
"p#	c #412327",
"q#	c #8C4035",
"r#	c #833437",
"s#	c #823A2B",
"t#	c #7D312D",
"u#	c #6B2A2F",
"v#	c #742E30",
"w#	c #6F2B2B",
"x#	c #5B202A",
"y#	c #562322",
"z#	c #5D2325",
"A#	c #522022",
"B#	c #492424",
"C#	c #4F2427",
"D#	c #4F2325",
"E#	c #44232D",
"F#	c #4E2022",
"G#	c #9F4C2E",
"H#	c #AA5F41",
"I#	c #613225",
"J#	c #59271F",
"K#	c #844437",
"L#	c #B65932",
"M#	c #B3653A",
"N#	c #533524",
"O#	c #61302C",
"P#	c #71393B",
"Q#	c #B56853",
"R#	c #D6835B",
"S#	c #AE6B52",
"T#	c #824845",
"U#	c #C4835B",
"V#	c #DB9164",
"W#	c #582B2B",
"X#	c #4B2023",
"Y#	c #AD5A46",
"Z#	c #B2644D",
"`#	c #824A3F",
" $	c #753645",
".$	c #552D2E",
"+$	c #9B5D46",
"@$	c #2F1D25",
"#$	c #45212A",
"$$	c #4C2227",
"%$	c #402021",
"&$	c #411D23",
"*$	c #411A1C",
"=$	c #491E1F",
"-$	c #4B1D21",
";$	c #4A1D21",
">$	c #4D2428",
",$	c #582C30",
"'$	c #622B27",
")$	c #622828",
"!$	c #6E3132",
"~$	c #7D4334",
"{$	c #804A3B",
"]$	c #6D332E",
"^$	c #B2713B",
"/$	c #883939",
"($	c #5B2320",
"_$	c #72392D",
":$	c #893A2C",
"<$	c #351B22",
"[$	c #63211B",
"}$	c #621F2B",
"|$	c #56251D",
"1$	c #3D1E24",
"2$	c #441E1F",
"3$	c #472020",
"4$	c #371C25",
"5$	c #391C1F",
"6$	c #461D23",
"7$	c #411C20",
"8$	c #3B1F21",
"9$	c #3F1E24",
"0$	c #3C1D26",
"a$	c #311927",
"b$	c #4A2327",
"c$	c #8F4832",
"d$	c #98533A",
"e$	c #613024",
"f$	c #522620",
"g$	c #864E43",
"h$	c #AC6145",
"i$	c #9D5E41",
"j$	c #4E3125",
"k$	c #783C35",
"l$	c #763837",
"m$	c #B36751",
"n$	c #985542",
"o$	c #6F3638",
"p$	c #A66747",
"q$	c #CE8563",
"r$	c #50262D",
"s$	c #593235",
"t$	c #D8886C",
"u$	c #D77F54",
"v$	c #B06A4C",
"w$	c #803D44",
"x$	c #5E382E",
"y$	c #E49C6A",
"z$	c #2F1E24",
"A$	c #5C2F2F",
"B$	c #7E3F33",
"C$	c #793F2F",
"D$	c #733B32",
"E$	c #7A3B2F",
"F$	c #7C392D",
"G$	c #74362B",
"H$	c #6E352C",
"I$	c #612621",
"J$	c #602921",
"K$	c #592024",
"L$	c #572026",
"M$	c #56221A",
"N$	c #642A21",
"O$	c #743834",
"P$	c #A66336",
"Q$	c #924642",
"R$	c #511921",
"S$	c #703B33",
"T$	c #813429",
"U$	c #3D2523",
"V$	c #9D5D3F",
"W$	c #A96952",
"X$	c #AB714C",
"Y$	c #944842",
"Z$	c #7F322C",
"`$	c #9C4537",
" %	c #AE5547",
".%	c #80342F",
"+%	c #361F22",
"@%	c #471E21",
"#%	c #4C1E1D",
"$%	c #4A2321",
"%%	c #4A1D24",
"&%	c #451C1F",
"*%	c #4D2026",
"=%	c #502227",
"-%	c #492228",
";%	c #381A22",
">%	c #3A1A1E",
",%	c #421919",
"'%	c #40120E",
")%	c #471F1D",
"!%	c #3E2228",
"~%	c #823F37",
"{%	c #793735",
"]%	c #AB614A",
"^%	c #B66842",
"/%	c #9B5A4B",
"(%	c #68343A",
"_%	c #9F6649",
":%	c #C78263",
"<%	c #542A30",
"[%	c #613836",
"}%	c #D18461",
"|%	c #D88653",
"1%	c #C37344",
"2%	c #924B44",
"3%	c #5F402C",
"4%	c #E1A163",
"5%	c #2C1A20",
"6%	c #632E2B",
"7%	c #91422E",
"8%	c #91442B",
"9%	c #8B4233",
"0%	c #8B3E2C",
"a%	c #93432F",
"b%	c #944331",
"c%	c #883B2A",
"d%	c #7D3725",
"e%	c #783728",
"f%	c #72332B",
"g%	c #6D3128",
"h%	c #62272B",
"i%	c #612A32",
"j%	c #592622",
"k%	c #6C3027",
"l%	c #80433D",
"m%	c #AF6C40",
"n%	c #934840",
"o%	c #521B26",
"p%	c #69392A",
"q%	c #803625",
"r%	c #3F251E",
"s%	c #B76D4A",
"t%	c #B46346",
"u%	c #B27044",
"v%	c #864C3C",
"w%	c #7E3D2A",
"x%	c #A15335",
"y%	c #9E5030",
"z%	c #874733",
"A%	c #4C2625",
"B%	c #692D2A",
"C%	c #732D24",
"D%	c #6E2E25",
"E%	c #752E2F",
"F%	c #6C2F2A",
"G%	c #64271F",
"H%	c #642623",
"I%	c #511D25",
"J%	c #51222C",
"K%	c #4C2128",
"L%	c #492226",
"M%	c #4D2120",
"N%	c #42191C",
"O%	c #401923",
"P%	c #431A23",
"Q%	c #844137",
"R%	c #783935",
"S%	c #A35A43",
"T%	c #B1603C",
"U%	c #975647",
"V%	c #5D2F32",
"W%	c #945D43",
"X%	c #B66F54",
"Y%	c #401F20",
"Z%	c #5A2C28",
"`%	c #B6704A",
" &	c #C27E4F",
".&	c #CD844E",
"+&	c #B66F5D",
"@&	c #5A4636",
"#&	c #EABB7E",
"$&	c #2B1B1F",
"%&	c #66312C",
"&&	c #923F2B",
"*&	c #903F26",
"=&	c #8F4131",
"-&	c #8F3F30",
";&	c #92412F",
">&	c #8F3F2E",
",&	c #883D2A",
"'&	c #823D29",
")&	c #783624",
"!&	c #722F20",
"~&	c #6A2C1E",
"{&	c #612622",
"]&	c #622A2C",
"^&	c #5E2A24",
"/&	c #6A342C",
"(&	c #753C2C",
"_&	c #A9673E",
":&	c #7C3729",
"<&	c #52232B",
"[&	c #683822",
"}&	c #8A4D3A",
"|&	c #4C2824",
"1&	c #B46147",
"2&	c #B65D46",
"3&	c #B36449",
"4&	c #894343",
"5&	c #AA553F",
"6&	c #A24931",
"7&	c #9C4D41",
"8&	c #4F1E17",
"9&	c #7A3229",
"0&	c #873326",
"a&	c #7D2D20",
"b&	c #89332F",
"c&	c #7D342F",
"d&	c #762E25",
"e&	c #7B2F28",
"f&	c #6F2828",
"g&	c #6D2624",
"h&	c #64211B",
"i&	c #5A2823",
"j&	c #5B251E",
"k&	c #542322",
"l&	c #532227",
"m&	c #582123",
"n&	c #804438",
"o&	c #6A3631",
"p&	c #A25A45",
"q&	c #B05A39",
"r&	c #995848",
"s&	c #572F29",
"t&	c #A0634B",
"u&	c #C97864",
"v&	c #31211C",
"w&	c #5E2829",
"x&	c #B77751",
"y&	c #BC774E",
"z&	c #C28451",
"A&	c #BB7053",
"B&	c #4C342E",
"C&	c #D8935B",
"D&	c #212430",
"E&	c #492C38",
"F&	c #5D292E",
"G&	c #5C292A",
"H&	c #5A262B",
"I&	c #5A272D",
"J&	c #502124",
"K&	c #53272A",
"L&	c #532B2C",
"M&	c #4A2524",
"N&	c #4D2A2A",
"O&	c #412329",
"P&	c #40242D",
"Q&	c #371E2A",
"R&	c #38202E",
"S&	c #472321",
"T&	c #67361B",
"U&	c #AB6C4C",
"V&	c #773A2E",
"W&	c #481E21",
"X&	c #6C3025",
"Y&	c #572F2A",
"Z&	c #5B282C",
"`&	c #AD5F45",
" *	c #B16A39",
".*	c #B46C4D",
"+*	c #79322F",
"@*	c #723225",
"#*	c #994F34",
"$*	c #9E492D",
"%*	c #914130",
"&*	c #4B2420",
"**	c #692D2B",
"=*	c #783431",
"-*	c #753832",
";*	c #753433",
">*	c #6D2E2F",
",*	c #622829",
"'*	c #642B2D",
")*	c #622B2E",
"!*	c #592427",
"~*	c #552427",
"{*	c #512827",
"]*	c #522928",
"^*	c #4F2625",
"/*	c #4D2423",
"(*	c #4E2524",
"_*	c #834437",
":*	c #67332E",
"<*	c #A15D4C",
"[*	c #AC5A3D",
"}*	c #935547",
"|*	c #5A332E",
"1*	c #9E624B",
"2*	c #C47565",
"3*	c #2E1E1B",
"4*	c #6B3334",
"5*	c #BB754F",
"6*	c #C37651",
"7*	c #C6814F",
"8*	c #E8977A",
"9*	c #513431",
"0*	c #D28753",
"a*	c #281B1C",
"b*	c #4E2226",
"c*	c #702C2D",
"d*	c #632122",
"e*	c #65232B",
"f*	c #5D2428",
"g*	c #5C2A2B",
"h*	c #502122",
"i*	c #4B2121",
"j*	c #4B2423",
"k*	c #431C1C",
"l*	c #411B1D",
"m*	c #3E1B1F",
"n*	c #3C1C21",
"o*	c #371920",
"p*	c #361921",
"q*	c #411D24",
"r*	c #5E2E20",
"s*	c #A2634E",
"t*	c #72332D",
"u*	c #4E1D1F",
"v*	c #713228",
"w*	c #4C211F",
"x*	c #541E24",
"y*	c #A3513A",
"z*	c #994D23",
"A*	c #A1563D",
"B*	c #702E2B",
"C*	c #6A2B22",
"D*	c #8B402E",
"E*	c #943F2E",
"F*	c #90413E",
"G*	c #3B1B25",
"H*	c #4A1923",
"I*	c #501A20",
"J*	c #481D20",
"K*	c #451B22",
"L*	c #441C21",
"M*	c #431E22",
"N*	c #421F24",
"O*	c #3C1A21",
"P*	c #38181F",
"Q*	c #3B1B22",
"R*	c #3A181F",
"S*	c #3B1920",
"T*	c #39161E",
"U*	c #864436",
"V*	c #6E3937",
"W*	c #A06053",
"X*	c #A05139",
"Y*	c #814339",
"Z*	c #58312D",
"`*	c #925742",
" =	c #B4675A",
".=	c #2E2020",
"+=	c #6D3234",
"@=	c #BC704B",
"#=	c #C06D4C",
"$=	c #D28856",
"%=	c #D38061",
"&=	c #583935",
"*=	c #DD9160",
"==	c #291919",
"-=	c #532528",
";=	c #611D1F",
">=	c #69292B",
",=	c #63242D",
"'=	c #5F232A",
")=	c #652C31",
"!=	c #5B252A",
"~=	c #4F1D23",
"{=	c #52232A",
"]=	c #4B1F25",
"^=	c #482226",
"/=	c #442125",
"(=	c #401F24",
"_=	c #3B1D23",
":=	c #381C22",
"<=	c #4A202A",
"[=	c #65332B",
"}=	c #A16258",
"|=	c #743536",
"1=	c #4E191A",
"2=	c #77382F",
"3=	c #562D2C",
"4=	c #541F24",
"5=	c #A14D37",
"6=	c #9C4D2A",
"7=	c #9E5241",
"8=	c #6C2E2C",
"9=	c #6B2D28",
"0=	c #8F4436",
"a=	c #954238",
"b=	c #853C3E",
"c=	c #3F1C22",
"d=	c #552129",
"e=	c #5A2327",
"f=	c #4A2020",
"g=	c #502629",
"h=	c #542629",
"i=	c #552629",
"j=	c #4B2024",
"k=	c #4A2026",
"l=	c #4C2228",
"m=	c #472023",
"n=	c #451E21",
"o=	c #492225",
"p=	c #4B2427",
"q=	c #482125",
"r=	c #803B2D",
"s=	c #6B3636",
"t=	c #723630",
"u=	c #984E3C",
"v=	c #81443D",
"w=	c #532B2A",
"x=	c #844939",
"y=	c #9A5048",
"z=	c #312528",
"A=	c #682B2D",
"B=	c #C4744F",
"C=	c #B86345",
"D=	c #D68E59",
"E=	c #C3724E",
"F=	c #543A34",
"G=	c #CE8656",
"H=	c #232025",
"I=	c #432127",
"J=	c #602C2C",
"K=	c #572824",
"L=	c #592B2E",
"M=	c #58272A",
"N=	c #572629",
"O=	c #522328",
"P=	c #4C2027",
"Q=	c #49202A",
"R=	c #471F28",
"S=	c #451D24",
"T=	c #421C22",
"U=	c #3C1A1E",
"V=	c #3A1D1F",
"W=	c #361A1C",
"X=	c #4E1A1B",
"Y=	c #5E241A",
"Z=	c #7D3E38",
"`=	c #682C30",
" -	c #522120",
".-	c #753B31",
"+-	c #482625",
"@-	c #542527",
"#-	c #9C4D38",
"$-	c #8C4021",
"%-	c #9D544A",
"&-	c #672E2F",
"*-	c #632523",
"=-	c #85392C",
"--	c #8D3F2F",
";-	c #7C3A35",
">-	c #3D1D1F",
",-	c #4B181C",
"'-	c #571F1F",
")-	c #4D1E1A",
"!-	c #4B1A1B",
"~-	c #4C1A1C",
"{-	c #4C1C1E",
"]-	c #45171A",
"^-	c #43161B",
"/-	c #471B20",
"(-	c #431B1F",
"_-	c #3D1A1D",
":-	c #3E1B1E",
"<-	c #401D1F",
"[-	c #421F21",
"}-	c #884133",
"|-	c #764142",
"1-	c #723935",
"2-	c #833A2A",
"3-	c #743934",
"4-	c #5C3433",
"5-	c #6E3526",
"6-	c #762E28",
"7-	c #3F3339",
"8-	c #6D2F30",
"9-	c #C1704A",
"0-	c #BE6B4D",
"a-	c #BF7842",
"b-	c #CB7E57",
"c-	c #503932",
"d-	c #C88454",
"e-	c #261A16",
"f-	c #6C423D",
"g-	c #965B4B",
"h-	c #9C6751",
"i-	c #93614D",
"j-	c #895541",
"k-	c #794834",
"l-	c #7B4C3B",
"m-	c #74483A",
"n-	c #4F251B",
"o-	c #66372E",
"p-	c #73372D",
"q-	c #72382D",
"r-	c #6D372A",
"s-	c #6F3D2F",
"t-	c #6B3B2C",
"u-	c #733730",
"v-	c #733426",
"w-	c #632A2F",
"x-	c #4F2320",
"y-	c #5C281E",
"z-	c #452827",
"A-	c #532929",
"B-	c #984D38",
"C-	c #8D4227",
"D-	c #88433B",
"E-	c #5B2529",
"F-	c #652826",
"G-	c #883D2C",
"H-	c #934631",
"I-	c #86493C",
"J-	c #342126",
"K-	c #4E262E",
"L-	c #5A2B30",
"M-	c #4B2225",
"N-	c #5B2D35",
"O-	c #512E35",
"P-	c #40272D",
"Q-	c #351C24",
"R-	c #311B23",
"S-	c #331D26",
"T-	c #2D1922",
"U-	c #301C25",
"V-	c #311E27",
"W-	c #2F1B24",
"X-	c #2D1A23",
"Y-	c #9B503C",
"Z-	c #8E4433",
"`-	c #894238",
" ;	c #813D38",
".;	c #773434",
"+;	c #6E3330",
"@;	c #63332A",
"#;	c #5C3229",
"$;	c #66322F",
"%;	c #7E3A28",
"&;	c #BE7044",
"*;	c #BF7346",
"=;	c #BE734B",
"-;	c #AB563F",
";;	c #543A2D",
">;	c #FFB241",
",;	c #FFC365",
"';	c #FFBA59",
");	c #EBAA41",
"!;	c #BC735C",
"~;	c #773530",
"{;	c #BA6F45",
"];	c #B47746",
"^;	c #925244",
"/;	c #37201A",
"(;	c #863A2B",
"_;	c #93492F",
":;	c #883B26",
"<;	c #813729",
"[;	c #873928",
"};	c #893A29",
"|;	c #843A2B",
"1;	c #7D372B",
"2;	c #90483E",
"3;	c #894139",
"4;	c #843F3A",
"5;	c #7B3B36",
"6;	c #753634",
"7;	c #6A2F32",
"8;	c #663432",
"9;	c #603130",
"0;	c #6B3337",
"a;	c #894136",
"b;	c #CD7A55",
"c;	c #B7663E",
"d;	c #C47551",
"e;	c #AF5541",
"f;	c #55362C",
"g;	c #B1664F",
"h;	c #7B3B37",
"i;	c #B56C43",
"j;	c #B56D39",
"k;	c #9B4B38",
"l;	c #452319",
"m;	c #923F2E",
"n;	c #964830",
"o;	c #8D3B27",
"p;	c #94402B",
"q;	c #923B24",
"r;	c #8F3822",
"s;	c #8B3824",
"t;	c #823524",
"u;	c #5B2230",
"v;	c #5A2330",
"w;	c #55222D",
"x;	c #502129",
"y;	c #50242A",
"z;	c #491F27",
"A;	c #492327",
"B;	c #472125",
"C;	c #602D36",
"D;	c #824239",
"E;	c #B86C4A",
"F;	c #AA5439",
"G;	c #BA6648",
"H;	c #B15443",
"I;	c #55332D",
"J;	c #A35841",
"K;	c #773934",
"L;	c #AE6740",
"M;	c #B7693D",
"N;	c #9E493E",
"O;	c #4A2723",
"P;	c #81352E",
"Q;	c #7B382F",
"R;	c #77322F",
"S;	c #7A3630",
"T;	c #7C362F",
"U;	c #77332C",
"V;	c #6E302F",
"W;	c #63292C",
"X;	c #522137",
"Y;	c #512136",
"Z;	c #481C2F",
"`;	c #441D2C",
" >	c #411D2A",
".>	c #3F1E29",
"+>	c #3B1E21",
"@>	c #5E2E36",
"#>	c #7B4035",
"$>	c #B36C4C",
"%>	c #A14B39",
"&>	c #B25F46",
"*>	c #AA4D3E",
"=>	c #543330",
"->	c #A45741",
";>	c #824340",
">>	c #AA5C39",
",>	c #A95D3A",
"'>	c #974645",
")>	c #402425",
"!>	c #672220",
"~>	c #5B211F",
"{>	c #5A2029",
"]>	c #531E24",
"^>	c #531D24",
"/>	c #4D1820",
"(>	c #431725",
"_>	c #401A2C",
":>	c #75343B",
"<>	c #703238",
"[>	c #682D34",
"}>	c #6A3238",
"|>	c #642E35",
"1>	c #5B2C38",
"2>	c #562730",
"3>	c #602A35",
"4>	c #722C39",
"5>	c #853630",
"6>	c #C27054",
"7>	c #A25045",
"8>	c #A85A42",
"9>	c #A14A39",
"0>	c #472A27",
"a>	c #803C3C",
"b>	c #AA5335",
"c>	c #AB5836",
"d>	c #9C4740",
"e>	c #4F2C25",
"f>	c #83382A",
"g>	c #783629",
"h>	c #7B3431",
"i>	c #7D322B",
"j>	c #873C35",
"k>	c #7E3732",
"l>	c #642527",
"m>	c #60272D",
"n>	c #692C2F",
"o>	c #6B3030",
"p>	c #622A28",
"q>	c #642D2D",
"r>	c #612B2F",
"s>	c #57232E",
"t>	c #4D1C29",
"u>	c #54212E",
"v>	c #6B2A32",
"w>	c #8B3C35",
"x>	c #BE6550",
"y>	c #934B2F",
"z>	c #A9563A",
"A>	c #A84846",
"B>	c #533A28",
"C>	c #A85F48",
"D>	c #7D3F35",
"E>	c #9F4D32",
"F>	c #A05735",
"G>	c #954431",
"H>	c #46261C",
"I>	c #843430",
"J>	c #7C301E",
"K>	c #803332",
"L>	c #833323",
"M>	c #863D2D",
"N>	c #7A2D29",
"O>	c #772B2C",
"P>	c #67281F",
"Q>	c #6F2E42",
"R>	c #723141",
"S>	c #692834",
"T>	c #6A2A37",
"U>	c #68273B",
"V>	c #5E2736",
"W>	c #5B2B39",
"X>	c #5C2C3B",
"Y>	c #672E34",
"Z>	c #853E3A",
"`>	c #BE6A5F",
" ,	c #A15F45",
".,	c #A85945",
"+,	c #973A44",
"@,	c #553B2C",
"#,	c #A45C47",
"$,	c #7A3F33",
"%,	c #984A33",
"&,	c #A15B3A",
"*,	c #A2513B",
"=,	c #442821",
"-,	c #7E3438",
";,	c #7A3624",
">,	c #712F35",
",,	c #732E2F",
"',	c #6E3130",
"),	c #69242F",
"!,	c #682433",
"~,	c #59252A",
"{,	c #4E2432",
"],	c #532832",
"^,	c #51272C",
"/,	c #572C31",
"(,	c #542832",
"_,	c #54202C",
":,	c #56222E",
"<,	c #511D2A",
"[,	c #571E26",
"},	c #763435",
"|,	c #A45856",
"1,	c #7F4035",
"2,	c #86413A",
"3,	c #7A2D3C",
"4,	c #563633",
"5,	c #9E5745",
"6,	c #753C34",
"7,	c #8F4431",
"8,	c #A05637",
"9,	c #AD5743",
"0,	c #412621",
"a,	c #621F23",
"b,	c #60240E",
"c,	c #551F22",
"d,	c #551C23",
"e,	c #541C21",
"f,	c #5E1E23",
"g,	c #5D242C",
"h,	c #421A28",
"i,	c #693032",
"j,	c #763D3A",
"k,	c #7C4038",
"l,	c #81433C",
"m,	c #7C3C38",
"n,	c #702E31",
"o,	c #733339",
"p,	c #713239",
"q,	c #6F3035",
"r,	c #68272B",
"s,	c #712D2F",
"t,	c #682A2B",
"u,	c #5E2327",
"v,	c #581B27",
"w,	c #4D2128",
"x,	c #8F483D",
"y,	c #6E3736",
"z,	c #843C32",
"A,	c #9B5034",
"B,	c #9E4835",
"C,	c #3D241F",
"D,	c #8B4A47",
"E,	c #A46743",
"F,	c #90594A",
"G,	c #69372D",
"H,	c #874C3E",
"I,	c #A86545",
"J,	c #A56E54",
"K,	c #4F2E2D",
"L,	c #934046",
"M,	c #A45050",
"N,	c #A7504A",
"O,	c #A94F48",
"P,	c #A84B47",
"Q,	c #9A4946",
"R,	c #954A49",
"S,	c #89403F",
"T,	c #863F42",
"U,	c #7D393C",
"V,	c #7E3B3E",
"W,	c #7A393B",
"X,	c #652F34",
"Y,	c #5F2B2E",
"Z,	c #612A30",
"`,	c #874239",
" '	c #663033",
".'	c #7C3631",
"+'	c #9C553B",
"@'	c #A04E3A",
"#'	c #39221A",
"$'	c #995247",
"%'	c #C37949",
"&'	c #AE684A",
"*'	c #7D4330",
"='	c #A96047",
"-'	c #D4844E",
";'	c #D19160",
">'	c #5A332A",
",'	c #582B34",
"''	c #66383D",
")'	c #643230",
"!'	c #6D3531",
"~'	c #7A3D39",
"{'	c #75312F",
"]'	c #763332",
"^'	c #702E2E",
"/'	c #6C2930",
"('	c #5F232B",
"_'	c #582329",
":'	c #521F25",
"<'	c #4B232A",
"['	c #482528",
"}'	c #4A1D26",
"|'	c #89473E",
"1'	c #5F2B33",
"2'	c #763329",
"3'	c #894625",
"4'	c #9A553D",
"5'	c #412319",
"6'	c #88402D",
"7'	c #C87540",
"8'	c #BE6C45",
"9'	c #7C3629",
"0'	c #A15034",
"a'	c #CA6E38",
"b'	c #D58A57",
"c'	c #64382F",
"d'	c #633135",
"e'	c #673335",
"f'	c #622A29",
"g'	c #672924",
"h'	c #7A362C",
"i'	c #5C2D33",
"j'	c #54232C",
"k'	c #582231",
"l'	c #4D212F",
"m'	c #3D1C27",
"n'	c #3C1824",
"o'	c #381926",
"p'	c #351B27",
"q'	c #371A29",
"r'	c #7F4739",
"s'	c #5F2C3C",
"t'	c #7D3C26",
"u'	c #955129",
"v'	c #8F5742",
"w'	c #582823",
"x'	c #945240",
"y'	c #C77853",
"z'	c #B96941",
"A'	c #833933",
"B'	c #A15A36",
"C'	c #C26B3E",
"D'	c #C67F4F",
"E'	c #59382A",
"F'	c #864546",
"G'	c #8A4746",
"H'	c #914D4A",
"I'	c #86413E",
"J'	c #914C4A",
"K'	c #7C3B37",
"L'	c #844340",
"M'	c #723030",
"N'	c #6F3135",
"O'	c #632B30",
"P'	c #5E2A2D",
"Q'	c #582829",
"R'	c #542A2B",
"S'	c #512B2B",
"T'	c #50282B",
"U'	c #754135",
"V'	c #5C2C37",
"W'	c #7E402D",
"X'	c #883F28",
"Y'	c #8A4945",
"Z'	c #5B2026",
"`'	c #81392F",
" )	c #A6573B",
".)	c #C07553",
"+)	c #7F392F",
"@)	c #9E5A35",
"#)	c #C36C44",
"$)	c #B46D47",
"%)	c #54302E",
"&)	c #974E49",
"*)	c #9A4E46",
"=)	c #994C42",
"-)	c #944942",
";)	c #8C4745",
">)	c #7F4644",
",)	c #824344",
"')	c #77383D",
"))	c #633539",
"!)	c #662934",
"~)	c #66232E",
"{)	c #61242F",
"])	c #5D242F",
"^)	c #5D212E",
"/)	c #7F4435",
"()	c #5D2928",
"_)	c #89442E",
":)	c #863F2A",
"<)	c #84443D",
"[)	c #672926",
"})	c #9C503C",
"|)	c #AE613F",
"1)	c #AF6946",
"2)	c #813E35",
"3)	c #9B5838",
"4)	c #BA6441",
"5)	c #AC6444",
"6)	c #522B32",
"7)	c #522930",
"8)	c #5B2C2F",
"9)	c #622E2C",
"0)	c #613031",
"a)	c #4C2929",
"b)	c #582027",
"c)	c #5E272F",
"d)	c #331C1D",
"e)	c #3D1F25",
"f)	c #4F212C",
"g)	c #3A2625",
"h)	c #332523",
"i)	c #2F2322",
"j)	c #2F2223",
"k)	c #6C3831",
"l)	c #502420",
"m)	c #783B2C",
"n)	c #7A4232",
"o)	c #6F3B32",
"p)	c #93452C",
"q)	c #A55834",
"r)	c #9C5A39",
"s)	c #703131",
"t)	c #8C4B31",
"u)	c #BA6546",
"v)	c #964C30",
"w)	c #50282F",
"x)	c #412125",
"y)	c #532B27",
"z)	c #77453A",
"A)	c #6D3E35",
"B)	c #593230",
"C)	c #492620",
"D)	c #8A504F",
"E)	c #9B6363",
"F)	c #2F1C15",
"G)	c #462A29",
"H)	c #652730",
"I)	c #60282C",
"J)	c #572528",
"K)	c #532327",
"L)	c #55252A",
"M)	c #47252D",
"N)	c #3B2127",
"O)	c #502524",
"P)	c #562C2A",
"Q)	c #4D2123",
"R)	c #783F3F",
"S)	c #954635",
"T)	c #9D4F36",
"U)	c #8F4D39",
"V)	c #66272E",
"W)	c #884834",
"X)	c #B56144",
"Y)	c #9B5234",
"Z)	c #4E262A",
"`)	c #4C2923",
" !	c #814737",
".!	c #AF5E45",
"+!	c #974B38",
"@!	c #733D3A",
"#!	c #7D4743",
"$!	c #C47D54",
"%!	c #CB8855",
"&!	c #261D15",
"*!	c #5A192E",
"=!	c #592723",
"-!	c #562226",
";!	c #532126",
">!	c #4F1E23",
",!	c #4C1E24",
"'!	c #381A20",
")!	c #371B20",
"!!	c #361B22",
"~!	c #2F1B22",
"{!	c #351820",
"]!	c #652F2E",
"^!	c #914D34",
"/!	c #8D442B",
"(!	c #7E392B",
"_!	c #5A2A1A",
":!	c #874837",
"<!	c #AB5D3B",
"[!	c #A1573E",
"}!	c #3F2B26",
"|!	c #4D2925",
"1!	c #6C3122",
"2!	c #AC5B42",
"3!	c #9D513F",
"4!	c #66302E",
"5!	c #7B443F",
"6!	c #CA8259",
"7!	c #CD8C5B",
"8!	c #251F1C",
"9!	c #561A33",
"0!	c #542525",
"a!	c #5A2229",
"b!	c #572129",
"c!	c #531E27",
"d!	c #501C26",
"e!	c #2B1F21",
"f!	c #2A1F23",
"g!	c #281F24",
"h!	c #2C2027",
"i!	c #31151F",
"j!	c #5C2628",
"k!	c #8A4430",
"l!	c #8B3F2B",
"m!	c #7C352C",
"n!	c #5A2A1E",
"o!	c #834435",
"p!	c #A45737",
"q!	c #9B5139",
"r!	c #382521",
"s!	c #512A28",
"t!	c #76392D",
"u!	c #A85741",
"v!	c #9D5241",
"w!	c #6B3938",
"x!	c #7B453D",
"y!	c #CB8A5D",
"z!	c #252123",
"A!	c #59213A",
"B!	c #552727",
"C!	c #5E222A",
"D!	c #5D222B",
"E!	c #5C232D",
"F!	c #5C242F",
"G!	c #421927",
"H!	c #3F1928",
"I!	c #3E1828",
"J!	c #301A25",
"K!	c #381C27",
"L!	c #652E33",
"M!	c #884233",
"N!	c #8C4032",
"O!	c #5D2E25",
"P!	c #7D4034",
"Q!	c #A05336",
"R!	c #924934",
"S!	c #312020",
"T!	c #54292B",
"U!	c #88493F",
"V!	c #9F4D38",
"W!	c #8C4232",
"X!	c #673736",
"Y!	c #7D4941",
"Z!	c #CF875E",
"`!	c #CB895D",
" ~	c #261D1E",
".~	c #5D1D33",
"+~	c #50241A",
"@~	c #4F2421",
"#~	c #4C2321",
"$~	c #4B2322",
"%~	c #472122",
"&~	c #371B21",
"*~	c #351A22",
"=~	c #341A22",
"-~	c #351E25",
";~	c #381720",
">~	c #62292D",
",~	c #8C4837",
"'~	c #874132",
")~	c #783632",
"!~	c #5C3028",
"~~	c #753931",
"{~	c #9E5339",
"]~	c #8F4736",
"^~	c #332225",
"/~	c #56282C",
"(~	c #7D3D35",
"_~	c #9C4937",
":~	c #8B4133",
"<~	c #5C2D2D",
"[~	c #68362E",
"}~	c #BD764E",
"|~	c #C47D52",
"1~	c #352421",
"2~	c #7F3541",
"3~	c #803F2E",
"4~	c #833A3A",
"5~	c #803739",
"6~	c #7E373A",
"7~	c #7A3437",
"8~	c #451F23",
"9~	c #431F23",
"0~	c #401E23",
"a~	c #411F23",
"b~	c #451C22",
"c~	c #6A2E2C",
"d~	c #854630",
"e~	c #7F422C",
"f~	c #763D35",
"g~	c #592E29",
"h~	c #6B302A",
"i~	c #9B513A",
"j~	c #8C4536",
"k~	c #332429",
"l~	c #462526",
"m~	c #73352A",
"n~	c #9E4E3D",
"o~	c #89483E",
"p~	c #57302C",
"q~	c #63392C",
"r~	c #B3704E",
"s~	c #BD7858",
"t~	c #31251C",
"u~	c #722E3B",
"v~	c #703E29",
"w~	c #713026",
"x~	c #703127",
"y~	c #672F25",
"z~	c #762B26",
"A~	c #4E1D20",
"B~	c #4D1D25",
"C~	c #481928",
"D~	c #441F1A",
"E~	c #753E2F",
"F~	c #813D20",
"G~	c #894428",
"H~	c #834231",
"I~	c #5E2F23",
"J~	c #6B3A26",
"K~	c #9B5337",
"L~	c #8C4A37",
"M~	c #2F201A",
"N~	c #3E2326",
"O~	c #763B31",
"P~	c #9B4D40",
"Q~	c #7D403C",
"R~	c #522D2C",
"S~	c #7F5548",
"T~	c #BA7659",
"U~	c #B26C53",
"V~	c #2E2519",
"W~	c #5E202A",
"X~	c #4E2A1A",
"Y~	c #471E25",
"Z~	c #4F272E",
"`~	c #3B232B",
" {	c #502127",
".{	c #321E1B",
"+{	c #331F1F",
"@{	c #321C24",
"#{	c #291A2C",
"${	c #2B1424",
"%{	c #5C353C",
"&{	c #5A2629",
"*{	c #642E31",
"={	c #683338",
"-{	c #502021",
";{	c #582C26",
">{	c #703330",
",{	c #2F1B21",
"'{	c #381D24",
"){	c #743832",
"!{	c #95463C",
"~{	c #793B3A",
"{{	c #502B2D",
"]{	c #6B3E33",
"^{	c #B36A51",
"/{	c #B56B55",
"({	c #2F2416",
"_{	c #743537",
":{	c #95664C",
"<{	c #A26458",
"[{	c #8A483D",
"}{	c #492421",
"|{	c #BA836C",
"1{	c #552221",
"2{	c #582323",
"3{	c #5A2528",
"4{	c #59272D",
"5{	c #551F21",
"6{	c #753636",
"7{	c #6C2828",
"8{	c #6C292B",
"9{	c #6E333B",
"0{	c #491D27",
"a{	c #4D212C",
"b{	c #5D2328",
"c{	c #5C272D",
"d{	c #3D2331",
"e{	c #41252C",
"f{	c #7C3F39",
"g{	c #97483F",
"h{	c #7F4141",
"i{	c #502A2C",
"j{	c #683C32",
"k{	c #A76048",
"l{	c #A55845",
"m{	c #463425",
"n{	c #944F48",
"o{	c #BF7E5C",
"p{	c #C6785A",
"q{	c #9F442B",
"r{	c #592822",
"s{	c #E8AA79",
"t{	c #8D3C30",
"u{	c #8D3C2E",
"v{	c #8C4133",
"w{	c #864236",
"x{	c #78352A",
"y{	c #7C3A2F",
"z{	c #72312A",
"A{	c #672A26",
"B{	c #67322F",
"C{	c #562D2F",
"D{	c #52262F",
"E{	c #562728",
"F{	c #5C312C",
"G{	c #4F2C2D",
"H{	c #3D2225",
"I{	c #7D4137",
"J{	c #96473A",
"K{	c #7C3F3B",
"L{	c #4B2624",
"M{	c #5A3227",
"N{	c #AA664F",
"O{	c #A55948",
"P{	c #493322",
"Q{	c #A05146",
"R{	c #C17B5A",
"S{	c #A66954",
"T{	c #9F4C3F",
"U{	c #55313E",
"V{	c #EAB488",
"W{	c #7C3424",
"X{	c #75301E",
"Y{	c #6E3424",
"Z{	c #642D28",
"`{	c #612B2D",
" ]	c #5A272B",
".]	c #55272F",
"+]	c #50252D",
"@]	c #4D2326",
"#]	c #4B201E",
"$]	c #491824",
"%]	c #4A1F21",
"&]	c #5D352A",
"*]	c #5B2D29",
"=]	c #351D1B",
"-]	c #7E4635",
";]	c #974F3A",
">]	c #874838",
",]	c #502F29",
"']	c #523124",
")]	c #B07253",
"!]	c #A75D49",
"~]	c #543025",
"{]	c #9E4F3C",
"]]	c #C7714F",
"^]	c #A25D3D",
"/]	c #9F4632",
"(]	c #603138",
"_]	c #F7B57A",
":]	c #903734",
"<]	c #883734",
"[]	c #7B3433",
"}]	c #78302E",
"|]	c #803635",
"1]	c #752E30",
"2]	c #69252A",
"3]	c #67272A",
"4]	c #582021",
"5]	c #56262A",
"6]	c #531F2F",
"7]	c #4B1D26",
"8]	c #582C2B",
"9]	c #5E282D",
"0]	c #362023",
"a]	c #784636",
"b]	c #8A4B38",
"c]	c #8F4A30",
"d]	c #462A2A",
"e]	c #52302A",
"f]	c #A1663B",
"g]	c #A35B46",
"h]	c #612B2C",
"i]	c #9B5C3C",
"j]	c #BC6044",
"k]	c #A15C41",
"l]	c #914C3C",
"m]	c #572B31",
"n]	c #F7BF7F",
"o]	c #602323",
"p]	c #5B292A",
"q]	c #511F27",
"r]	c #572B2B",
"s]	c #4F2322",
"t]	c #522126",
"u]	c #46171E",
"v]	c #4A2324",
"w]	c #3C1B18",
"x]	c #3C1C1C",
"y]	c #3B1A1E",
"z]	c #3C1B21",
"A]	c #422027",
"B]	c #442330",
"C]	c #814643",
"D]	c #88443F",
"E]	c #8F463B",
"F]	c #462431",
"G]	c #56282E",
"H]	c #A3664B",
"I]	c #924F48",
"J]	c #693336",
"K]	c #9D5F41",
"L]	c #CC755E",
"M]	c #A75D43",
"N]	c #8D4335",
"O]	c #5E2D37",
"P]	c #FBC384",
"Q]	c #553B16",
"R]	c #553E1E",
"S]	c #554122",
"T]	c #4E3916",
"U]	c #AA772B",
"V]	c #C78B33",
"W]	c #C79145",
"X]	c #8E6832",
"Y]	c #5C2427",
"Z]	c #582F2F",
"`]	c #482328",
" ^	c #431B20",
".^	c #492128",
"+^	c #451F24",
"@^	c #422220",
"#^	c #3F201D",
"$^	c #442025",
"%^	c #421E24",
"&^	c #411C25",
"*^	c #421D28",
"=^	c #441F2A",
"-^	c #482127",
";^	c #7C3F36",
">^	c #86453D",
",^	c #91493B",
"'^	c #421E28",
")^	c #5E2933",
"!^	c #84493B",
"~^	c #73373B",
"{^	c #A86749",
"]^	c #BB6652",
"^^	c #A4593D",
"/^	c #86392E",
"(^	c #5A2734",
"_^	c #EEAD70",
":^	c #000000",
"<^	c #1D150A",
"[^	c #1D1407",
"}^	c #E39E3A",
"|^	c #AA7C3B",
"1^	c #AA8243",
"2^	c #7A2A25",
"3^	c #702E25",
"4^	c #692A25",
"5^	c #6D2A31",
"6^	c #652331",
"7^	c #622131",
"8^	c #632431",
"9^	c #60232B",
"0^	c #61262D",
"a^	c #5B222E",
"b^	c #551C2A",
"c^	c #531A29",
"d^	c #571D2F",
"e^	c #5B2133",
"f^	c #593231",
"g^	c #874D45",
"h^	c #8A4A3B",
"i^	c #47292F",
"j^	c #5D2831",
"k^	c #815149",
"l^	c #63343F",
"m^	c #6D322F",
"n^	c #A9613E",
"o^	c #BA6553",
"p^	c #A86041",
"q^	c #8C4339",
"r^	c #572736",
"s^	c #DFA264",
"t^	c #D1973A",
"u^	c #39280F",
"v^	c #9D712B",
"w^	c #E3AE5A",
"x^	c #E3A64F",
"y^	c #C7984F",
"z^	c #B78533",
"A^	c #64242C",
"B^	c #5E292D",
"C^	c #5A252D",
"D^	c #53201E",
"E^	c #562824",
"F^	c #4A2121",
"G^	c #4F2729",
"H^	c #4B2123",
"I^	c #481E1F",
"J^	c #462423",
"K^	c #452223",
"L^	c #3F1C1F",
"M^	c #411E23",
"N^	c #4B272C",
"O^	c #593139",
"P^	c #69302F",
"Q^	c #6F383C",
"R^	c #682A28",
"S^	c #3D2134",
"T^	c #53212B",
"U^	c #613A33",
"V^	c #4B232F",
"W^	c #7C3E37",
"X^	c #C2734E",
"Y^	c #B05948",
"Z^	c #9C5837",
"`^	c #8A443A",
" /	c #4F2233",
"./	c #E5AC6D",
"+/	c #392A14",
"@/	c #72572D",
"#/	c #1B1307",
"$/	c #725328",
"%/	c #1D160B",
"&/	c #35260F",
"*/	c #694C1D",
"=/	c #8F4B41",
"-/	c #6A2D1F",
";/	c #77382D",
">/	c #814436",
",/	c #794639",
"'/	c #4D1F19",
")/	c #4A1C1F",
"!/	c #562125",
"~/	c #572323",
"{/	c #5F2A2D",
"]/	c #582428",
"^/	c #562127",
"//	c #5F2A30",
"(/	c #7A3A2B",
"_/	c #783B2F",
":/	c #713A34",
"</	c #6A3835",
"[/	c #613234",
"}/	c #603330",
"|/	c #5B302F",
"1/	c #592B2D",
"2/	c #723A31",
"3/	c #AA644C",
"4/	c #A55B42",
"5/	c #673126",
"6/	c #5B2934",
"7/	c #E4A869",
"8/	c #72501D",
"9/	c #8E6D38",
"0/	c #392C17",
"a/	c #C17D4D",
"b/	c #78382C",
"c/	c #95513E",
"d/	c #AB6A3D",
"e/	c #A85839",
"f/	c #432825",
"g/	c #893D2D",
"h/	c #9A423A",
"i/	c #924423",
"j/	c #8C452C",
"k/	c #873C28",
"l/	c #8A3E2E",
"m/	c #833C30",
"n/	c #7D3B2E",
"o/	c #7F3E35",
"p/	c #7B3D35",
"q/	c #733A33",
"r/	c #63322E",
"s/	c #623232",
"t/	c #5A2B33",
"u/	c #592630",
"v/	c #753736",
"w/	c #AD6050",
"x/	c #AA5A3F",
"y/	c #994F3E",
"z/	c #6E3A34",
"A/	c #592938",
"B/	c #D79B61",
"C/	c #835F24",
"D/	c #CC864E",
"E/	c #8B4833",
"F/	c #924E2F",
"G/	c #AB6836",
"H/	c #AF6142",
"I/	c #402D2C",
"J/	c #6F3329",
"K/	c #7E3A3E",
"L/	c #7E412F",
"M/	c #77352B",
"N/	c #752D28",
"O/	c #772F2D",
"P/	c #6F2C2C",
"Q/	c #682A2A",
"R/	c #5D2D39",
"S/	c #5A2B36",
"T/	c #552A32",
"U/	c #50292F",
"V/	c #4E2A2E",
"W/	c #4E2D32",
"X/	c #462632",
"Y/	c #45212F",
"Z/	c #643136",
"`/	c #9B594E",
" (	c #984E3A",
".(	c #8D443C",
"+(	c #633233",
"@(	c #4E2237",
"#(	c #CF925E",
"$(	c #BC6E41",
"%(	c #7A3127",
"&(	c #985037",
"*(	c #B36E40",
"=(	c #AD6042",
"-(	c #332827",
";(	c #4A1F1B",
">(	c #491C2E",
",(	c #521F27",
"'(	c #55222C",
")(	c #4C1F28",
"!(	c #461E28",
"~(	c #3A182F",
"{(	c #39192F",
"](	c #381B2E",
"^(	c #371C2E",
"/(	c #361D2D",
"((	c #301B24",
"_(	c #2A1822",
":(	c #301826",
"<(	c #542D31",
"[(	c #91594E",
"}(	c #934F3D",
"|(	c #914A45",
"1(	c #582B2E",
"2(	c #4A2238",
"3(	c #D19561",
"4(	c #BD6C4F",
"5(	c #792F34",
"6(	c #934A40",
"7(	c #AB643D",
"8(	c #B16247",
"9(	c #392E2A",
"0(	c #51261F",
"a(	c #4A1C2D",
"b(	c #3D1B1D",
"c(	c #3C1920",
"d(	c #3E1821",
"e(	c #411B24",
"f(	c #391920",
"g(	c #462331",
"h(	c #472332",
"i(	c #462334",
"j(	c #432132",
"k(	c #3E1E31",
"l(	c #3D222C",
"m(	c #3F2632",
"n(	c #422231",
"o(	c #59272E",
"p(	c #914E46",
"q(	c #974B3C",
"r(	c #86403C",
"s(	c #522B2B",
"t(	c #4D2A3B",
"u(	c #D3985F",
"v(	c #8E6324",
"w(	c #AF6246",
"x(	c #732D33",
"y(	c #935143",
"z(	c #A15B38",
"A(	c #AC5842",
"B(	c #412E28",
"C(	c #672E20",
"D(	c #6B2C33",
"E(	c #65302C",
"F(	c #5E2C33",
"G(	c #5E292F",
"H(	c #5D282F",
"I(	c #55262A",
"J(	c #552A2C",
"K(	c #542C34",
"L(	c #563038",
"M(	c #4C2830",
"N(	c #4E2C34",
"O(	c #4A2932",
"P(	c #482A30",
"Q(	c #3E1E27",
"R(	c #4D2633",
"S(	c #683034",
"T(	c #9F584E",
"U(	c #A25746",
"V(	c #854237",
"W(	c #50282A",
"X(	c #442328",
"Y(	c #CE8A5C",
"Z(	c #6C3534",
"`(	c #8B4A34",
" _	c #AB5832",
"._	c #AE5E3E",
"+_	c #462622",
"@_	c #6B342A",
"#_	c #853B35",
"$_	c #713331",
"%_	c #74332F",
"&_	c #74262E",
"*_	c #682A36",
"=_	c #652A2B",
"-_	c #63222A",
";_	c #49222D",
">_	c #512A34",
",_	c #442029",
"'_	c #45232C",
")_	c #42222A",
"!_	c #3F1F26",
"~_	c #3B1A25",
"{_	c #44202D",
"]_	c #54272E",
"^_	c #7D4843",
"/_	c #753F35",
"(_	c #693733",
"__	c #3E1F2D",
":_	c #402930",
"<_	c #955E46",
"[_	c #AF5F49",
"}_	c #5A2628",
"|_	c #8C4632",
"1_	c #B25F41",
"2_	c #A35D44",
"3_	c #4B2C2F",
"4_	c #4E1D1A",
"5_	c #5C180E",
"6_	c #4A1F22",
"7_	c #422320",
"8_	c #632825",
"9_	c #532924",
"0_	c #4F2B1F",
"a_	c #402328",
"b_	c #65353B",
"c_	c #6F4046",
"d_	c #65383D",
"e_	c #63363C",
"f_	c #603338",
"g_	c #64363B",
"h_	c #663A41",
"i_	c #5C343D",
"j_	c #583036",
"k_	c #6F4544",
"l_	c #572C28",
"m_	c #4B2428",
"n_	c #452A3B",
"o_	c #3A242D",
"p_	c #441C14",
"q_	c #933F2E",
"r_	c #5F282E",
"s_	c #AB5A44",
"t_	c #A35D4A",
"u_	c #553035",
"v_	c #774038",
"w_	c #9D5744",
"x_	c #63363A",
"y_	c #512432",
"z_	c #944237",
"A_	c #A55541",
"B_	c #9A5945",
"C_	c #522F33",
"D_	c #6C3431",
"E_	c #753C3A",
"F_	c #733937",
"G_	c #733836",
"H_	c #6E3331",
"I_	c #6B2D2C",
"J_	c #642C2A",
"K_	c #5D2A28",
"L_	c #582928",
"M_	c #5D2D2A",
"N_	c #562722",
"O_	c #4D2427",
"P_	c #461F28",
"Q_	c #462425",
"R_	c #A95544",
"S_	c #663036",
"T_	c #843F30",
"U_	c #AA553B",
"V_	c #AD5A3E",
"W_	c #6A312A",
"X_	c #A3563F",
"Y_	c #BE6845",
"Z_	c #5D231D",
"`_	c #602730",
" :	c #BC6140",
".:	c #D16A3D",
"+:	c #B75C36",
"@:	c #552A1F",
"#:	c #5B2F30",
"$:	c #5F3233",
"%:	c #643537",
"&:	c #69383A",
"*:	c #643235",
"=:	c #663438",
"-:	c #613436",
";:	c #582F30",
">:	c #582E2F",
",:	c #58292D",
"':	c #5D2D2E",
"):	c #502D32",
"!:	c #512621",
"~:	c #3E2430",
"{:	c #994933",
"]:	c #633334",
"^:	c #874933",
"/:	c #A95A3C",
"(:	c #B05D3F",
"_:	c #6E3026",
"::	c #A9563C",
"<:	c #B75F3B",
"[:	c #6F3A32",
"}:	c #94572C",
"|:	c #B96B38",
"1:	c #B76B40",
"2:	c #533825",
"3:	c #281B1F",
"4:	c #321F25",
"5:	c #3A1F28",
"6:	c #40242E",
"7:	c #331C25",
"8:	c #3A212A",
"9:	c #3E2830",
"0:	c #322127",
"a:	c #352128",
"b:	c #3E1F29",
"c:	c #401E26",
"d:	c #301E26",
"e:	c #3A2029",
"f:	c #3E2222",
"g:	c #312534",
"h:	c #AB6348",
"i:	c #592926",
"j:	c #8F543F",
"k:	c #9B5837",
"l:	c #A25D40",
"m:	c #672C23",
"n:	c #AD5F4A",
"o:	c #A4573E",
"p:	c #5E2628",
"q:	c #652529",
"r:	c #98543F",
"s:	c #B55A3C",
"t:	c #B25C40",
"u:	c #5E2F27",
"v:	c #241E18",
"w:	c #372524",
"x:	c #391D20",
"y:	c #381F23",
"z:	c #251B1B",
"A:	c #321D1B",
"B:	c #352321",
"C:	c #231B1B",
"D:	c #231C1D",
"E:	c #342326",
"F:	c #2F1C1D",
"G:	c #231B18",
"H:	c #25191B",
"I:	c #211A1A",
"J:	c #291A19",
"K:	c #A56246",
"L:	c #622725",
"M:	c #85483D",
"N:	c #975635",
"O:	c #95583F",
"P:	c #69271D",
"Q:	c #A55A42",
"R:	c #A05E46",
"S:	c #61292A",
"T:	c #772F2A",
"U:	c #945043",
"V:	c #B55638",
"W:	c #B4704B",
"X:	c #653429",
"Y:	c #612D2E",
"Z:	c #562828",
"`:	c #482223",
" <	c #4F282A",
".<	c #4D2726",
"+<	c #482025",
"@<	c #411C22",
"#<	c #3E1E20",
"$<	c #391F1C",
"%<	c #3D2121",
"&<	c #442529",
"*<	c #3C2425",
"=<	c #422321",
"-<	c #975238",
";<	c #602321",
"><	c #834238",
",<	c #8F4730",
"'<	c #8E493E",
")<	c #6F2829",
"!<	c #9B4B37",
"~<	c #B06549",
"{<	c #7A3836",
"]<	c #884A2E",
"^<	c #BE6332",
"/<	c #B87148",
"(<	c #6B3232",
"_<	c #7C3437",
":<	c #703333",
"<<	c #6B3A38",
"[<	c #5B2C2B",
"}<	c #6F393C",
"|<	c #5D2E2B",
"1<	c #592828",
"2<	c #5A2329",
"3<	c #55242B",
"4<	c #4F2A2A",
"5<	c #4A2C28",
"6<	c #4B2426",
"7<	c #50272D",
"8<	c #422225",
"9<	c #431E1D",
"0<	c #904C31",
"a<	c #5D211F",
"b<	c #854139",
"c<	c #954A31",
"d<	c #995344",
"e<	c #843E3A",
"f<	c #A25333",
"g<	c #C6784F",
"h<	c #7B3B2F",
"i<	c #743636",
"j<	c #874C2D",
"k<	c #C36A33",
"l<	c #B26C41",
"m<	c #662D31",
"n<	c #6A3431",
"o<	c #693230",
"p<	c #5B2726",
"q<	c #5B2C2C",
"r<	c #592826",
"s<	c #4D2226",
"t<	c #452424",
"u<	c #3E1E1D",
"v<	c #421E25",
"w<	c #371F22",
"x<	c #422525",
"y<	c #925638",
"z<	c #612C28",
"A<	c #834339",
"B<	c #8E4428",
"C<	c #8A4938",
"D<	c #753430",
"E<	c #9A4D30",
"F<	c #BD6F43",
"G<	c #8F4C3D",
"H<	c #783838",
"I<	c #814331",
"J<	c #AD532D",
"K<	c #A4623C",
"L<	c #612F2E",
"M<	c #45291E",
"N<	c #5A302C",
"O<	c #6A3234",
"P<	c #703D3F",
"Q<	c #4B2826",
"R<	c #653636",
"S<	c #643A3B",
"T<	c #3E2526",
"U<	c #472E2F",
"V<	c #462829",
"W<	c #3D2226",
"X<	c #3A2028",
"Y<	c #312226",
"Z<	c #3E2B2B",
"`<	c #8C5636",
" [	c #5D2E28",
".[	c #73372C",
"+[	c #8D452E",
"@[	c #85453F",
"#[	c #662830",
"$[	c #984D3E",
"%[	c #AE5F43",
"&[	c #904A43",
"*[	c #722D2C",
"=[	c #793832",
"-[	c #A0452F",
";[	c #A36545",
">[	c #5E332B",
",[	c #613E3A",
"'[	c #C47450",
")[	c #EA976E",
"![	c #E9AD7E",
"~[	c #93584B",
"{[	c #B26545",
"][	c #C27A50",
"^[	c #E7A76B",
"/[	c #BC6A47",
"([	c #AE6641",
"_[	c #4E1E2A",
":[	c #4B1725",
"<[	c #4B1A26",
"[[	c #4C1E28",
"}[	c #461B23",
"|[	c #441A20",
"1[	c #451821",
"2[	c #431922",
"3[	c #3E1A24",
"4[	c #3F202A",
"5[	c #3A1F2A",
"6[	c #3A1C29",
"7[	c #3D1824",
"8[	c #642F2D",
"9[	c #A25339",
"0[	c #AF5D40",
"a[	c #944C42",
"b[	c #392927",
"c[	c #57212A",
"d[	c #6A2D28",
"e[	c #753229",
"f[	c #8E4C4C",
"g[	c #A0573E",
"h[	c #C26C59",
"i[	c #69423C",
"j[	c #C77B5D",
"k[	c #E8946F",
"l[	c #E3B583",
"m[	c #855847",
"n[	c #BD7347",
"o[	c #E69F5E",
"p[	c #C26A3F",
"q[	c #BE7141",
"r[	c #6F372D",
"s[	c #703733",
"t[	c #7C3A37",
"u[	c #793935",
"v[	c #773735",
"w[	c #6F302F",
"x[	c #713130",
"y[	c #682B2F",
"z[	c #64292D",
"A[	c #592325",
"B[	c #572729",
"C[	c #532728",
"D[	c #53222B",
"E[	c #54202B",
"F[	c #733634",
"G[	c #A75940",
"H[	c #9D5238",
"I[	c #76352F",
"J[	c #322425",
"K[	c #551E29",
"L[	c #6F312F",
"M[	c #7B362E",
"N[	c #753131",
"O[	c #A55D3F",
"P[	c #B35F4B",
"Q[	c #643935",
"R[	c #BD7251",
"S[	c #E59C74",
"T[	c #EBAE7A",
"U[	c #674537",
"V[	c #AC6349",
"W[	c #C0794B",
"X[	c #D28755",
"Y[	c #BF6B3B",
"Z[	c #BB6F3D",
"`[	c #773926",
" }	c #794037",
".}	c #864036",
"+}	c #81392C",
"@}	c #78372F",
"#}	c #6C312B",
"$}	c #702E24",
"%}	c #66363C",
"&}	c #662927",
"*}	c #5E2A2F",
"=}	c #51262E",
"-}	c #4C1F20",
";}	c #6A322A",
">}	c #9C4D3B",
",}	c #9A4A34",
"'}	c #7A3D32",
")}	c #361E1F",
"!}	c #4A1F1E",
"~}	c #763A34",
"{}	c #7D3530",
"]}	c #702E2D",
"^}	c #925133",
"/}	c #9B5637",
"(}	c #563138",
"_}	c #D18763",
":}	c #DF9D73",
"<}	c #E29C6A",
"[}	c #62463D",
"}}	c #A0573F",
"|}	c #B0693B",
"1}	c #C87B53",
"2}	c #C57447",
"3}	c #A96036",
"4}	c #74382C",
"5}	c #5B272A",
"6}	c #682628",
"7}	c #6A221D",
"8}	c #682926",
"9}	c #612725",
"0}	c #6F2D22",
"a}	c #532418",
"b}	c #351C28",
"c}	c #542324",
"d}	c #471C27",
"e}	c #371524",
"f}	c #471F27",
"g}	c #3F1C1D",
"h}	c #603530",
"i}	c #94514C",
"j}	c #8C4944",
"k}	c #6E3B37",
"l}	c #432125",
"m}	c #4D2824",
"n}	c #733C3A",
"o}	c #743333",
"p}	c #652E2C",
"q}	c #904E36",
"r}	c #57313B",
"s}	c #C9805D",
"t}	c #D4916B",
"u}	c #D49062",
"v}	c #624742",
"w}	c #B06951",
"x}	c #B86D3F",
"y}	c #CD7B54",
"z}	c #CC794F",
"A}	c #A9623E",
"B}	c #743C39",
"C}	c #4C1C29",
"D}	c #6D2F34",
"E}	c #89433D",
"F}	c #87463F",
"G}	c #B36953",
"H}	c #76503D",
"I}	c #342229",
"J}	c #62312C",
"K}	c #56272B",
"L}	c #4B1F28",
"M}	c #683739",
"N}	c #4E2623",
"O}	c #4D201C",
"P}	c #682B2B",
"Q}	c #54272B",
"R}	c #4A1F26",
"S}	c #472223",
"T}	c #5A292C",
"U}	c #5B2629",
"V}	c #4A1F20",
"W}	c #974F3D",
"X}	c #B16A52",
"Y}	c #6D3434",
"Z}	c #D6906E",
"`}	c #C58461",
" |	c #DA966F",
".|	c #593F3F",
"+|	c #9B553F",
"@|	c #D28858",
"#|	c #C06E47",
"$|	c #CC784E",
"%|	c #A75F3F",
"&|	c #6E3538",
"*|	c #532330",
"=|	c #733531",
"-|	c #823A28",
";|	c #935039",
">|	c #8D4A2B",
",|	c #B4663C",
"'|	c #966444",
")|	c #4D2D24",
"!|	c #8E4A35",
"~|	c #945141",
"{|	c #8D4A3E",
"]|	c #964E3E",
"^|	c #844A36",
"/|	c #844836",
"(|	c #863F37",
"_|	c #73322F",
":|	c #663030",
"<|	c #642E33",
"[|	c #532B2F",
"}|	c #54272F",
"||	c #572730",
"1|	c #4D292D",
"2|	c #8E4332",
"3|	c #A96049",
"4|	c #6C2C2A",
"5|	c #C98462",
"6|	c #CE8E6D",
"7|	c #E29F7D",
"8|	c #644B4F",
"9|	c #8F4A35",
"0|	c #D18B5B",
"a|	c #B4673F",
"b|	c #C7764B",
"c|	c #A35936",
"d|	c #773938",
"e|	c #541E29",
"f|	c #722F2E",
"g|	c #893D2F",
"h|	c #97513F",
"i|	c #864128",
"j|	c #B76944",
"k|	c #955739",
"l|	c #542922",
"m|	c #964B31",
"n|	c #974D38",
"o|	c #8D4531",
"p|	c #8E422C",
"q|	c #83432C",
"r|	c #82422C",
"s|	c #7D3227",
"t|	c #6D2823",
"u|	c #652C28",
"v|	c #652B29",
"w|	c #54262E",
"x|	c #521F2A",
"y|	c #52272D",
"z|	c #984E38",
"A|	c #A35E41",
"B|	c #5D2A2B",
"C|	c #B26F4C",
"D|	c #BC7D5C",
"E|	c #C98663",
"F|	c #5A4143",
"G|	c #935038",
"H|	c #C98653",
"I|	c #AE673B",
"J|	c #BE7248",
"K|	c #AF663F",
"L|	c #8D4D43",
"M|	c #541E28",
"N|	c #702D31",
"O|	c #883833",
"P|	c #974B45",
"Q|	c #823B2D",
"R|	c #A6583D",
"S|	c #9B5F45",
"T|	c #562F2C",
"U|	c #894432",
"V|	c #8E4C3D",
"W|	c #824538",
"X|	c #803F32",
"Y|	c #784035",
"Z|	c #783F35",
"`|	c #733331",
" 1	c #682C2F",
".1	c #5F2B2D",
"+1	c #572724",
"@1	c #4E2A2B",
"#1	c #491D26",
"$1	c #4B2429",
"%1	c #945136",
"&1	c #492626",
"*1	c #AF6E4C",
"=1	c #C38460",
"-1	c #D48E65",
";1	c #5A3E3B",
">1	c #924F35",
",1	c #C47A4E",
"'1	c #A15A38",
")1	c #AE654A",
"!1	c #B46944",
"~1	c #8F503B",
"{1	c #522526",
"]1	c #6A372E",
"^1	c #8D4136",
"/1	c #97473F",
"(1	c #883F2B",
"_1	c #B56943",
":1	c #8E5B3E",
"<1	c #482924",
"[1	c #5A2114",
"}1	c #6B332E",
"|1	c #512021",
"11	c #4D221C",
"21	c #45231E",
"31	c #401E1D",
"41	c #39191C",
"51	c #38191F",
"61	c #391B22",
"71	c #35191F",
"81	c #34191E",
"91	c #32181D",
"01	c #392024",
"a1	c #9F6143",
"b1	c #9E5346",
"c1	c #602E2F",
"d1	c #C27A5D",
"e1	c #D18B6B",
"f1	c #D68B64",
"g1	c #573837",
"h1	c #924C34",
"i1	c #BB674D",
"j1	c #A14E43",
"k1	c #A85649",
"l1	c #AD5B3C",
"m1	c #8F4B35",
"n1	c #562525",
"o1	c #68302C",
"p1	c #83372F",
"q1	c #8C3F3A",
"r1	c #863E2F",
"s1	c #AE6142",
"t1	c #86583F",
"u1	c #4F3131",
"v1	c #65292B",
"w1	c #5B242D",
"x1	c #592927",
"y1	c #4F2824",
"z1	c #4A2626",
"A1	c #4A2628",
"B1	c #482126",
"C1	c #4D1F26",
"D1	c #4C1E25",
"E1	c #4F2028",
"F1	c #5C2D35",
"G1	c #9E563C",
"H1	c #A04F43",
"I1	c #5C2526",
"J1	c #B16741",
"K1	c #C88059",
"L1	c #DD9163",
"M1	c #5B3D33",
"N1	c #9C5938",
"O1	c #BB6D41",
"P1	c #A7593B",
"Q1	c #A5543D",
"R1	c #BC6A4A",
"S1	c #9C5646",
"T1	c #582229",
"U1	c #763A35",
"V1	c #8D413A",
"W1	c #7C322E",
"X1	c #AE6146",
"Y1	c #8B5337",
"Z1	c #502925",
"`1	c #833F36",
" 2	c #763130",
".2	c #6B2B31",
"+2	c #6C262B",
"@2	c #6A262D",
"#2	c #67232C",
"$2	c #64222C",
"%2	c #61202A",
"&2	c #591E27",
"*2	c #522127",
"=2	c #56222A",
"-2	c #541C25",
";2	c #5D242D",
">2	c #9A4C33",
",2	c #A24E44",
"'2	c #B76C4C",
")2	c #BE7756",
"!2	c #BA7147",
"~2	c #5B413C",
"{2	c #8B4E31",
"]2	c #A06138",
"^2	c #9F6446",
"/2	c #97553E",
"(2	c #9D5133",
"_2	c #884235",
":2	c #551C24",
"<2	c #74332A",
"[2	c #8A4133",
"}2	c #7E382F",
"|2	c #753123",
"12	c #A85A40",
"22	c #9D624A",
"32	c #4D2525",
"42	c #6B2B23",
"52	c #5E201F",
"62	c #5B272C",
"72	c #502527",
"82	c #492529",
"92	c #432224",
"02	c #402022",
"a2	c #3E2022",
"b2	c #401F23",
"c2	c #431C22",
"d2	c #481C24",
"e2	c #50222B",
"f2	c #A3533B",
"g2	c #A65449",
"h2	c #4F2A2B",
"i2	c #9F5346",
"j2	c #863F31",
"k2	c #904832",
"l2	c #442B39",
"m2	c #6E3228",
"n2	c #6A332B",
"o2	c #6D3B3F",
"p2	c #692E2E",
"q2	c #8B462D",
"r2	c #8A4935",
"s2	c #7C3B2E",
"t2	c #833B29",
"u2	c #793628",
"v2	c #8B4938",
"w2	c #AE6144",
"x2	c #8E5B4F",
"y2	c #351823",
"z2	c #552527",
"A2	c #461C24",
"B2	c #3B1D29",
"C2	c #3C1D24",
"D2	c #35171E",
"E2	c #3A1E23",
"F2	c #3B2125",
"G2	c #341E21",
"H2	c #2C1A1D",
"I2	c #301C1F",
"J2	c #3B2227",
"K2	c #3D2027",
"L2	c #3D1C24",
"M2	c #A6563D",
". + @ # $ % & * = - ; > , ' ) ! ~ { ] ^ / ( _ : < [ } | 1 2 3 4 5 6 7 8 9 0 a b c d e f g h i j k l m n o p q r s t u v w x y z . + @ # $ % & * = - ; > , ' ) ! ~ { ] ^ / ( _ : < [ } | 1 2 3 4 5 6 7 8 9 0 a b c d e f g h i j k l m n o p q r s t u v w x y z . ",
"A B C D E F G H I J K L M N O P Q R S T U V W X Y Z `  ...+.@.#.$.%.&.*.=.-.;.>.,.'.).!.~.{.].^./.(._.:.<.[.}.|.1.2.3.4.5.6.7.8.A B C D E F G H I J K L M N O P Q R S T U V W X Y Z `  ...+.@.#.$.%.&.*.=.-.;.>.,.'.).!.~.{.].^./.(._.:.<.[.}.|.1.2.3.4.5.6.7.8.A ",
"9.0.a.b.c.d.e.f.g.h.i.j.k.l.m.n.o.p.q.r.s.t.u.v.w.x.y.z.A.B.C.D.E.F.G.H.I.J.K.L.M.N.O.P.Q.R.S.T.U.V.W.X.Y.Z.`. +.+++@+#+$+%+&+*+9.0.a.b.c.d.e.f.g.h.i.j.k.l.m.n.o.p.q.r.s.t.u.v.w.x.y.z.A.B.C.D.E.F.G.H.I.J.K.L.M.N.O.P.Q.R.S.T.U.V.W.X.Y.Z.`. +.+++@+#+$+%+&+*+9.",
"=+-+;+>+,+'+)+!+~+{+]+^+/+(+_+:+<+[+}+|+1+2+3+4+5+6+7+8+9+0+a+b+c+d+e+f+g+h+i+j+k+l+m+n+o+p+q+r+s+t+u+v+w+x+y+z+A+B+C+D+E+F+G+H+=+-+;+>+,+'+)+!+~+{+]+^+/+(+_+:+<+[+}+|+1+2+3+4+5+6+7+8+9+0+a+b+c+d+e+f+g+h+i+j+k+l+m+n+o+p+q+r+s+t+u+v+w+x+y+z+A+B+C+D+E+F+G+H+=+",
"I+J+K+L+M+N+O+P+Q+R+S+T+U+V+W+X+Y+Z+`+ @.@+@+@@@#@$@%@&@*@=@-@;@>@,@'@)@!@~@{@]@^@/@(@_@:@<@[@}@|@1@2@3@4@5@6@7@8@9@0@a@b@c@d@e@I+J+K+L+M+N+O+P+Q+R+S+T+U+V+W+X+Y+Z+`+ @.@+@+@@@#@$@%@&@*@=@-@;@>@,@'@)@!@~@{@]@^@/@(@_@:@<@[@}@|@1@2@3@4@5@6@7@8@9@0@a@b@c@d@e@I+",
"f@g@h@i@j@k@l@m@n@o@p@q@r@s@t@u@v@w@x@y@y@z@A@B@C@D@E@F@G@H@I@J@K@L@M@N@O@P@Q@R@S@T@U@V@W@X@Y@Z@`@ #.#+#@###$#%#&#*#=#-#;#>#,#'#f@g@h@i@j@k@l@m@n@o@p@q@r@s@t@u@v@w@x@y@y@z@A@B@C@D@E@F@G@H@I@J@K@L@M@N@O@P@Q@R@S@T@U@V@W@X@Y@Z@`@ #.#+#@###$#%#&#*#=#-#;#>#,#'#f@",
")#!#~#{#]#^#/#(#_#:#<#[#}#|#1#2#3#4#5#6#7#8#9#0#a#b#c#d#e#f#g#h#i#j#k#l#m#n#o#p#q#r#s#t#u#v#w#x#y#z#A#B#C#D#E#F#G#H#I#J#K#L#M#N#)#!#~#{#]#^#/#(#_#:#<#[#}#|#1#2#3#4#5#6#7#8#9#0#a#b#c#d#e#f#g#h#i#j#k#l#m#n#o#p#q#r#s#t#u#v#w#x#y#z#A#B#C#D#E#F#G#H#I#J#K#L#M#N#)#",
"O#P#Q#R#S#T#U#V#W#X#Y#Z#`# $.$+$@$#$$$%$&$*$=$-$;$>$,$'$j#)$!$~${$]$^$/$($_$:$<$[$}$|$2@1$2$3$4$5$6$7$8$9$0$a$b$c$d$e$f$g$h$i$j$O#P#Q#R#S#T#U#V#W#X#Y#Z#`# $.$+$@$#$$$%$&$*$=$-$;$>$,$'$j#)$!$~${$]$^$/$($_$:$<$[$}$|$2@1$2$3$4$5$6$7$8$9$0$a$b$c$d$e$f$g$h$i$j$O#",
"k$l$m$D.n$o$p$q$r$s$t$u$v$w$x$y$z$A$B$C$D$E$~@8 F$G$H$I$J$K$L$M$N$O$P$Q$R$S$T$U$V$W$X$Y$Z$`$ %.%+%@%#%$%%%X#&%*%=%-%;%>%,%'%)%!%k$l$m$D.n$o$p$q$r$s$t$u$v$w$x$y$z$A$B$C$D$E$~@8 F$G$H$I$J$K$L$M$N$O$P$Q$R$S$T$U$V$W$X$Y$Z$`$ %.%+%@%#%$%%%X#&%*%=%-%;%>%,%'%)%!%k$",
"~%{%]%^%/%(%_%:%<%[%}%|%1%2%3%4%5%6%7%8%9%0%a%b%c%d%e%f%g%h%i%j%k%l%m%n%o%p%q%r%s%t%u%v%w%x%y%z%A%B%C%D%E%F%G%H%I%J%K%L%M%N%O%P%~%{%]%^%/%(%_%:%<%[%}%|%1%2%3%4%5%6%7%8%9%0%a%b%c%d%e%f%g%h%i%j%k%l%m%n%o%p%q%r%s%t%u%v%w%x%y%z%A%B%C%D%E%F%G%H%I%J%K%L%M%N%O%P%~%",
"Q%R%S%T%U%V%W%X%Y%Z%`% &.&+&@&#&$&%&&&*&=&-&;&>&,&'&)&!&~&{&]&^&/&(&_&:&<&[&}&|&1&2&3&4&(+5&6&7&8&9&0&a&b&c&d&e&f&g&h&i&j&k&l&m&Q%R%S%T%U%V%W%X%Y%Z%`% &.&+&@&#&$&%&&&*&=&-&;&>&,&'&)&!&~&{&]&^&/&(&_&:&<&[&}&|&1&2&3&4&(+5&6&7&8&9&0&a&b&c&d&e&f&g&h&i&j&k&l&m&Q%",
"n&o&p&q&r&s&t&u&v&w&x&y&z&A&B&C&D&E&F&G&H&I&J&K&L&M&N&( O&P&Q&R&S&T&U&V&W&X&Y&Z&`& *.*+*@*#*$*%*&***=*-*;*>*,*'*)*!*~*{*]*^*/*(*n&o&p&q&r&s&t&u&v&w&x&y&z&A&B&C&D&E&F&G&H&I&J&K&L&M&N&( O&P&Q&R&S&T&U&V&W&X&Y&Z&`& *.*+*@*#*$*%*&***=*-*;*>*,*'*)*!*~*{*]*^*/*(*n&",
"_*:*<*[*}*|*1*2*3*4*5*6*7*8*9*0*a*b*c*d*e*f*g*h*i*j*k*l*m*n*o*p*q*r*s*t*u*v*w*x*y*z*A*B*C*D*E*F*G*H*I*J*K*L*M*N*O*P*Q*O*R*S*S*T*_*:*<*[*}*|*1*2*3*4*5*6*7*8*9*0*a*b*c*d*e*f*g*h*i*j*k*l*m*n*o*p*q*r*s*t*u*v*w*x*y*z*A*B*C*D*E*F*G*H*I*J*K*L*M*N*O*P*Q*O*R*S*S*T*_*",
"U*V*W*X*Y*Z*`* =.=+=@=#=$=%=&=*===-=;=>=,='=)=!=~={=]=^=/=(=_=:=<=[=}=|=1=2=3=4=5=6=7=8=9=0=a=b=c=d=e=f=g=h=i=-=j=k=l=m=n=o=p=q=U*V*W*X*Y*Z*`* =.=+=@=#=$=%=&=*===-=;=>=,='=)=!=~={=]=^=/=(=_=:=<=[=}=|=1=2=3=4=5=6=7=8=9=0=a=b=c=d=e=f=g=h=i=-=j=k=l=m=n=o=p=q=U*",
"r=s=t=u=v=w=x=y=z=A=B=C=D=E=F=G=H=I=J=K=L=M=N=O=P=Q=R=S=T=U=V=W=X=Y=Z=`= -.-+-@-#-$-%-&-*-=---;->-,-'-)-!-~-{-]-^-/-(-_-:-<-[-[-r=s=t=u=v=w=x=y=z=A=B=C=D=E=F=G=H=I=J=K=L=M=N=O=P=Q=R=S=T=U=V=W=X=Y=Z=`= -.-+-@-#-$-%-&-*-=---;->-,-'-)-!-~-{-]-^-/-(-_-:-<-[-[-r=",
"}-|-1-2-3-4-5-6-7-8-9-0-a-b-c-d-e-f-g-h-i-j-k-l-m-n-o-p-q-r-s-t-u-v-t*w-x-y-z-A-B-C-D-E-F-G-H-I-J-K-L-M-N-O-P-Q-R-S-T-U-V-W-X-U-}-|-1-2-3-4-5-6-7-8-9-0-a-b-c-d-e-f-g-h-i-j-k-l-m-n-o-p-q-r-s-t-u-v-t*w-x-y-z-A-B-C-D-E-F-G-H-I-J-K-L-M-N-O-P-Q-R-S-T-U-V-W-X-U-}-",
"Y-Z-`- ;.;+;@;#;$;%;&;*;=;-;;;>;>;,;,;>;';';';';';,;);>;>;';';';';,;);>;>;';';,;,;,;);>;>;>;';';,;);>;>;';';';,;);>;';';';,;,;);>;>;>;';';);>;>;>;';';,;);>;>;';';,;,;,;);>;>;';);>;>;';';,;);>;>;>;>;';';,;,;);>;';,;);>;>;>;';,;);!;~;{;];^;/;(;_;:;<;[;};|;1;Y-",
"2;3;4;5;6;7;8;9;0;a;b;c;d;e;f;>;>;,;,;';';';>;';';,;);>;';';>;';';,;);>;>;';';,;,;,;);>;>;>;';';,;);>;>;';';';,;);>;';';';,;,;);>;>;';';,;););>;';>;';,;);>;>;';';,;,;););>;>;';);>;>;';';';);>;>;>;>;';';,;,;);>;';,;);>;>;>;';,;);g;h;i;j;k;l;m;n;o;p;q;r;s;t;2;",
"u;v;w;x;y;z;A;B;C;D;E;F;G;H;I;>;>;,;);>;';';>;';';,;);>;>;';';';';,;);>;>;';';,;,;,;);>;';';';';,;);>;>;';';';,;);>;>;';';,;,;);>;>;';';';,;);';';';';,;);>;>;';';,;,;);>;>;>;';);>;';';';,;);>;>;>;';';';,;,;);>;';,;);>;>;>;';,;);J;K;L;M;N;O;P;Q;R;S;T;U;V;W;u;",
"X;Y;Z;`; >.>+>@@@>#>$>%>&>*>=>>;>;';);>;>;';>;';';,;);>;>;';>;';';,;);>;>;';';,;,;,;);>;>;>;';';,;);>;>;';';';,;);>;>;>;';,;,;);>;>;';';,;,;);>;>;>;';,;);>;>;';';,;,;);>;>;';';);>;';';';,;);>;>;';';';';,;,;);>;';,;);>;>;>;';,;);->;>>>,>'>)>!>~>{>]>^>/>(>_>X;",
":><>[>}>|>1>2>3>4>5>6>7>8>9>0>>;,;';);';';';';';';,;);>;>;';';';';,;);>;';';';,;,;,;);>;>;>;';';,;);>;>;';';';,;);>;';';';,;,;);>;';';';,;,;);>;>;';';,;);>;>;';';,;,;);>;>;';';';>;>;';';,;);>;>;';';';';,;,;';>;';,;);>;>;>;';,;);J;a>b>c>d>e>f>g>h>i>j>k>l>m>:>",
"n>o>p>q>r>s>t>u>v>w>x>y>z>A>B>>;,;,;);>;';';>;';';,;);>;>;>;>;';,;,;);>;';>;';,;,;,;);>;>;';';';,;);>;>;';';';,;);>;';';';,;,;);>;>;';';,;,;);>;>;';';,;);>;>;';';,;,;);>;>;>;';);>;>;>;';,;);>;>;>;>;';';,;';';>;';,;);>;>;>;';););C>D>E>F>G>H>I>J>K>L>M>N>O>P>n>",
"Q>R>S>T>U>V>W>X>Y>Z>`> ,.,+,@,>;,;';);>;>;';';';,;,;);>;>;';';';,;,;);>;>;>;';,;,;,;);>;>;>;';';,;);>;>;';';';,;);>;';';';,;,;);>;>;>;';';,;);>;>;';';,;);>;>;';';';,;);>;>;';';';>;>;>;';,;);>;>;>;';';';,;,;);';';,;);>;>;>;';);>;#,$,%,&,*,=,-,;,>,,,',),!,~,Q>",
"{,],^,/,(,_,:,<,[,},|,1,2,3,4,>;,;';);>;';>;';';,;,;);>;>;';>;';,;,;);>;>;';';,;,;););>;>;>;';';,;);>;>;';';';,;);>;>;>;';,;,;);>;>;';';,;,;);>;';';';,;);>;>;';';,;,;);>;>;';';);>;>;>;';,;);>;>;>;';';';,;,;';>;';,;);>;>;>;';);>;5,6,7,8,9,0,a,b,c,d,e,f,g,h,{,",
"i,j,k,l,m,n,o,p,q,r,s,t,u,v,w,';,;';);>;>;>;';';,;,;);>;>;';';';,;,;);>;>;';';,;,;);>;>;>;';';';,;);>;>;';';';,;);>;>;>;';,;,;);>;>;>;';,;,;);>;>;';';,;);>;>;>;';,;,;);>;>;';';);>;>;>;';,;);>;>;>;';';';,;,;);';';,;);>;>;>;';);>;x,y,z,A,B,C,D,E,F,G,H,I,J,K,i,",
"L,M,N,O,P,Q,R,S,T,U,V,W,X,Y,Z,,;';,;);>;>;>;';';,;,;);>;>;>;';';,;,;);>;>;>;';,;,;);>;>;';>;';';,;);>;';';';';,;);>;>;';';';,;);>;>;';';';,;);>;>;';';,;);>;>;>;';,;,;);>;>;';';);>;>;>;';,;);>;>;>;';';';,;,;);>;';,;);>;>;>;';);>;`, '.'+'@'#'$'%'&'*'='-';'>'L,",
",''')'!'~'{']'^'/'('_':'<'['}'';,;,;);>;>;>;';';,;,;);>;>;>;';';,;,;);>;';>;';,;,;);>;>;>;';';';,;);>;';';';';,;);>;>;>;';,;,;);>;';>;';';,;);>;>;';';,;);>;>;';';';,;);>;>;';';);>;';>;';,;);>;>;>;>;';';,;,;);>;';,;);>;>;>;';);>;|'1'2'3'4'5'6'7'8'9'0'a'b'c','",
"d'e'f'g'h')$i'j'k'l'm'n'o'p'q'>;,;,;);>;>;>;';';,;,;);>;>;>;';';,;,;);>;>;';';,;,;);>;>;';>;';';,;);>;>;>;';';,;);>;>;>;';,;,;);>;>;';';';,;);>;';>;';,;);>;>;>;';,;,;);>;>;';';,;';';';';,;);>;>;>;>;';';,;,;);>;';,;);>;>;';';);>;r's't'u'v'w'x'y'z'A'B'C'D'E'd'",
"F'G'H'I'J'K'L'M'N'O'P'Q'R'S'T',;,;);>;>;>;>;';';,;);>;>;>;>;';';,;,;);>;>;';';,;,;);>;>;';>;';,;,;);>;>;';';';,;);>;>;>;';,;,;);>;>;>;';';,;);>;>;';';,;);>;>;';';,;,;);>;>;';';,;);';';';,;);>;>;>;>;';';,;,;);>;';,;';>;';';';);>;U'V'W'X'Y'Z'`' ).)+)@)#)$)%)F'",
"&)*)=)-);)>),)')))5#!)~){)])^)>;,;);>;';';';';';,;);>;>;>;>;';';,;,;);>;>;';,;,;,;);>;>;';>;';,;,;);>;';';';';,;);>;';>;';';,;);>;>;>;';';,;);>;>;>;';,;);>;>;';';,;,;);>;>;';';,;);>;';';,;);>;>;>;>;';';,;);>;>;';,;);';>;';';);>;/)()_):)<)[)})|)1)2)3)4)5)6)&)",
"7)8)9)0)<'a)b)c)d)e)f)g)h)i)j)>;,;);>;>;';';';';);>;>;>;>;>;';';,;);';>;>;';,;,;,;);>;';';>;';,;,;);>;>;';';';,;);>;>;';';';,;);>;>;>;';';,;);>;';';';,;);>;>;>;';,;,;););>;>;';';);>;';';,;);>;>;>;';';';,;);>;>;';,;);';';';,;);>;k)l)m)n)o)g%p)q)r)s)t)u)v)w)7)",
"x)y)z)A)B)C)D)E)F)G)H)I)J)K)L)>;,;,;>;>;';';';';);>;>;';';';';,;,;);>;';';';,;,;,;);>;>;';>;';,;,;);';>;';';';,;);>;>;';';';,;);>;>;';';';,;);>;';';';,;);>;>;>;';,;,;,;);>;';';,;';>;';';,;);>;>;>;';';';,;);>;>;';,;);';';';,;);>;M)N)O)P)Q)R)S)T)U)V)W)X)Y)Z)x)",
"`) !.!+!@!#!$!%!&!*!=!-!;!>!,!>;';);>;>;>;';';,;);,;>;>;';>;';,;,;);>;>;>;';,;,;,;);>;';';>;';,;,;);';>;';';';,;);>;>;>;';';,;);>;>;';';';,;);>;>;';';,;);>;>;>;';';,;,;);>;>;';';);';>;';,;);>;>;';';';';,;);>;>;';,;);';>;';,;);>;'!)!!!~!{!]!^!/!(!_!:!<![!}!`)",
"|!1!2!3!4!5!6!7!8!9!0!a!b!c!d!>;';);>;>;';';,;,;);>;>;>;';';';,;,;);>;>;';';,;,;,;);>;';';>;';,;,;);>;>;';';';,;);>;>;>;';';,;);>;>;>;';';,;);>;';';';,;);>;>;>;';';,;,;);>;>;';,;);>;>;';,;);>;>;>;';';';,;);>;>;';,;);';';';,;);>;e!f!g!h!i!j!k!l!m!n!o!p!q!r!|!",
"s!t!u!v!w!x!6!y!z!A!B!C!D!E!F!>;';);>;>;>;>;';';);>;>;>;';>;';,;,;);>;>;';';,;,;,;);>;>;>;>;';,;,;);>;';>;';';,;);>;>;>;';';,;);>;>;>;';';,;);>;';';';,;);>;>;';';';,;,;);>;>;';,;);>;>;';,;);>;>;>;';';,;,;);>;>;';,;);>;>;';,;);>;G!H!I!J!K!L!M!N!Z>O!P!Q!R!S!s!",
"T!U!V!W!X!Y!Z!`! ~.~+~@~#~$~%~>;';);>;>;';';';';);>;>;';';>;';,;,;);>;';';';,;,;,;);>;';';>;';,;,;);>;';';';';,;);>;>;>;';';,;);>;>;';';';';);>;>;';';,;);>;>;>;';';';,;);>;>;';,;);>;>;';,;);>;>;';';';,;,;);>;>;';,;);';>;';,;);>;&~*~=~-~;~>~,~'~)~!~~~{~]~^~T!",
"/~(~_~:~<~[~}~|~1~2~3~4~5~6~7~';';);>;>;>;';';';);>;>;>;';>;';,;,;);>;';>;';,;,;,;);>;>;';>;';,;,;);>;>;';';,;,;);>;>;>;';';,;);>;>;';';';,;);>;>;';';,;);>;>;>;>;';';,;);>;>;';';);>;>;';,;);>;>;>;';';,;,;);>;>;';,;);';';';,;);>;8~9~0~a~b~c~d~e~f~g~h~i~j~k~/~",
"l~m~n~o~p~q~r~s~t~u~v~w~x~y~z~';';);>;>;>;';';';);>;>;>;';';';,;,;);>;';';';,;,;,;);>;>;';';';,;,;);>;>;';';,;,;,;);>;';>;';,;,;);>;';';';,;);>;>;';';,;);>;>;>;>;';';,;);>;>;';,;);>;>;';,;);>;>;>;';';,;,;);>;>;';,;);';>;';,;);>;A~B~C~1$D~E~F~G~H~I~J~K~L~M~l~",
"N~O~P~Q~R~S~T~U~V~W~X~Y~Z~`~ {';,;);>;>;>;>;';,;);>;>;>;';>;';,;););>;>;>;';,;,;,;);>;>;';>;';';,;);>;>;';';,;,;,;);>;>;';';,;,;);>;>;';';,;);>;';';';,;);>;>;>;>;';,;,;);>;>;';,;);>;>;';,;);>;>;>;';';,;,;,;);>;';,;';';>;';,;);>;.{+{@{#{${%{&{*{={-{;{p.>{,{N~",
"'{){!{~{{{]{^{/{({_{:{<{[{}{|{';,;);>;>;>;,;,;,;);>;>;';';>;';,;);>;>;';';';,;,;,;);>;>;>;';';,;,;);';>;';';,;,;,;);>;';';';,;,;);>;';';';';);>;';>;';,;);>;>;';>;';';,;);>;>;';,;);>;>;';,;);>;>;>;';';,;,;,;);>;';););';>;';,;);>;1{2{3{4{5{6{7{8{9{0{a{b{c{d{'{",
"e{f{g{h{i{j{k{l{m{n{o{p{q{r{s{';,;);>;>;>;>;';,;);>;>;>;';>;';,;);>;>;';>;';,;,;,;);>;>;';';';,;,;);>;>;';';,;,;,;);>;>;';';,;,;);>;';';';,;);>;';';';,;););>;>;>;';,;,;);>;>;';,;);>;>;';,;);>;>;>;';';,;,;,;);>;';);>;>;>;';,;);';t{u{v{w{x{y{z{A{B{C{D{E{F{G{e{",
"H{I{J{K{L{M{N{O{P{Q{R{S{T{U{V{';,;);>;>;>;>;';,;);>;>;>;';';';,;);>;>;';';';,;,;,;);>;>;>;';';,;,;);>;>;';';,;,;,;);>;>;>;';,;,;);>;';';';,;);>;>;';';,;,;);>;>;';';,;,;);>;';';';);>;>;';';);>;>;';';';,;,;,;);>;';);>;>;>;';,;);';W{X{Y{Z{`{ ].]+]@]#]$]%]&]*]H{",
"=]-];]>],]'])]!]~]{]]]^]/](]_]';,;);>;>;>;>;';,;);>;>;>;';';';,;);>;>;';';';,;,;,;);>;>;';>;';,;,;);';>;';';,;,;,;);>;>;';';';,;);>;>;';';,;););>;>;';,;,;);>;>;>;';,;,;);>;>;';';);>;>;';';);>;>;>;';';,;,;,;);>;';);>;>;>;';,;);>;:]<][]}]|]1]2]3]4]5]6]7]8]9]=]",
"0]a]b]c]d]e]f]g]h]i]j]k]l]m]n]';,;);>;>;>;>;';,;);>;>;>;';';';,;);>;>;>;';';';,;,;);>;>;>;>;';,;);>;>;';';';,;,;,;);>;>;';';,;,;);>;>;';';,;,;);>;';';';,;););>;';';,;,;);>;>;';';);>;';';';);>;>;>;';';,;,;,;);>;';);>;>;>;';,;);>;o]p]q]r]s]t]u]v]w]x]>-y]z]A]0]",
"B]C]D]E]F]G]H]I]J]K]L]M]N]O]P]';,;);>;';';Q]R]S]T]U]>;>;>;';,;,;);>;>;';>;';,;,;,;);>;';';';';,;);>;>;>;';';,;,;,;);>;>;';';,;,;);>;';';';,;,;);>;';';';,;,;);>;V]R]W],;);>;';';';);>;>;';';);>;>;>;';';,;,;);>;>;X]T]>;>;>;';,;);>;Y]Z]`]^= ^.^+^@^#^$^%^&^*^=^B]",
"-^;^>^,^'^)^!^~^g@{^]^^^/^(^_^';,;);>;';';:^<^S]:^:^[^}^>;';,;,;);>;>;>;';';,;,;,;);>;>;';>;';,;);>;>;>;';';,;,;,;);>;>;';';,;,;);>;>;';';,;,;);>;>;';';,;,;);>;|^:^1^,;);>;>;>;';);>;>;';';';>;>;>;';';,;,;);>;>;X]T]>;>;>;';,;);>;2^3^4^5^6^7^8^9^0^a^b^c^d^e^-^",
"f^e#g^h^i^j^k^l^m^n^o^p^q^r^s^';,;);';>;';:^R],;t^Q]:^u^>;';,;,;v^U]>;W]|^';,;,;w^v^U]>;';>;x^1^t^V]U]x^';x^1^y^,;);>;';';W]1^y^);>;';W]|^,;1^v^>;';';';y^1^);';|^:^1^y^v^w^>;,;';);}^U]|^';);>;>;>;x^|^1^w^z^|^';W]v^>;>;>;';,;);>;A^B^C^D^E^F^G^H^I^J^K^L^M^N^f^",
"O^P^Q^R^S^T^U^V^W^X^Y^Z^`^ /./';,;);>;>;';:^R],;);>;u^:^}^';1^:^:^:^<^+/:^';,;@/:^:^:^[^|^>;|^:^#/:^:^:^$/:^:^:^%/t^>;}^+/:^:^:^&/}^>;R]:^%/:^:^[^}^>;$/:^:^#/x^|^:^<^:^:^:^|^,;';*/:^:^:^<^v^>;>;U]:^:^:^:^#/:^';R]:^>;>;>;';,;);>;=/-/;/>/,/'/)/;!!/~/{/]/^///O^",
"(/_/:/</[/}/|/1/2/3/,>4/5/6/7/';,;);>;>;';:^R],;);>;|^:^U]W]:^%/t^>;8/:^:^';9/:^S]);}^Q]:^x^|^:^#/}^V]:^:^R],;S]:^*/>;u^:^|^,;1^:^u^';R]:^S],;*/:^8/';:^0/y^T]V]|^:^%/w^t^:^[^';9/:^Q]>;x^<^:^}^V]:^<^x^';T]:^:^>;R]:^>;>;>;';,;);>;a/b/c/d/e/f/g/h/i/j/k/l/m/n/(/",
"o/p/q/o&r/s/t/u/v/w/x/y/z/A/B/';,;);>;>;>;:^R],;);>;U]:^U]$/:^y^);>;>;u^:^,;%/:^1^v^U]Q]:^X]|^:^C/>;>;Q]:^';,;w^:^T]V]:^$/';,;,;*/:^V]R]:^w^,;);:^Q]';<^%/9/t^>;|^:^X],;);Q]:^,;<^#/>;>;>;W]:^8/8/:^x^';';);:^:^>;R]:^>;>;';';,;);>;D/E/F/G/H/I/J/K/L/M/N/O/P/Q/o/",
"R/S/T/U/V/W/X/Y/Z/`/ (.(+(@(#(';,;);>;>;>;:^R],;);>;$/:^V]R]:^,;);>;>;R]:^';:^:^:^:^:^:^:^R]|^:^v^>;>;Q]:^';,;,;:^T]U]:^|^';';,;v^:^U]R]:^';,;);:^Q]';|^%/:^:^V]U]:^|^';);Q]:^';:^T]>;';';';:^Q]Q]:^';';';);u^:^>;R]:^>;>;>;';,;);>;$(%(&(*(=(-(;(>(B#=%,('()(!(R/",
"~({(](^(/(((_(:(<([(}(|(1(2(3(';,;);>;>;>;:^R],;);V]:^<^>;$/:^y^);>;';<^:^,;S]:^y^);>;>;>;';1^:^v^>;>;R]:^';';,;:^T]}^:^R]';,;,;T]:^W]Q]:^';,;);:^R]x^|^w^y^:^Q]U]:^|^,;);Q]:^,;+/#/}^>;';|^:^8/8/:^W]';';t^:^:^>;R]:^>;';';';,;);>;4(5(6(7(8(9(0(a(b(c(d(e(f(&~~(",
"g(h(i(j(k(l(m(n(o(p(q(r(s(t(u(';,;);>;>;>;:^0/1^T]:^:^|^>;x^%/%/C/U]+/:^:^';y^:^%/v^v([^[^x^1^:^v^>;>;R]:^';,;,;:^T]>;Q]:^R]1^@/:^Q]>;R]:^';,;);:^R]x^:^+/9/:^8/U]:^|^';);Q]:^,;|^:^[^|^X]<^#/}^}^<^<^X]|^#/:^:^>;R]:^>;';';';,;);>;w(x(y(z(A(B(C(D(E(F(G(H(I(J(g(",
"K(L(M(N(O(P(Q(R(S(T(U(V(W(X(Y(';,;);>;>;';:^:^:^:^Q]V]>;>;';w^0/:^:^8/X]R]';,;y^0/:^:^Q]}^';1^:^v^>;';R]:^';,;,;:^T]>;>;X]<^:^%/C/>;';R]:^';,;);:^Q]';|^%/:^T]>;U]:^|^,;);Q]:^,;';z^u^:^:^$/t^>;>;}^+/:^:^@/T]:^>;R]:^>;>;';';,;);>;r@Z(`( _._+_@_#_$_%_&_*_=_-_K(",
";_>_,_'_)_!_~_{_]_^_/_(___:_<_';,;);>;>;';';,;,;);>;>;';>;';,;,;);>;';>;';,;,;,;,;);>;>;>;';';';);>;>;';';';,;,;,;);>;';>;';,;,;);>;';';';';,;);>;>;';';,;,;);>;>;';';,;);>;>;,;';);>;>;';';);>;x^|^W]';';w^:^u^>;';);>;>;';';,;);>;[_}_|_1_2_3_4_5_6_7_8_9_0_a_;_",
"b_c_d_e_f_g_h_i_j_k_l_m_n_o_p_';,;);>;';';';,;,;);>;';';';';,;,;);>;>;';';,;,;,;,;);>;>;>;';';,;);>;';';';';,;,;,;);>;>;>;';,;,;);>;>;';';';,;);>;>;>;';';,;);>;';';';,;);>;>;';';);>;>;,;,;);>;}^[^:^+/R]:^#/x^>;';);>;>;';';,;);>;q_r_,^s_t_u_v_w_x_y_z_A_B_C_b_",
"D_E_F_G_H_I_J_K_L_M_N_O_P_A%Q_';,;);>;>;';';,;,;);>;>;>;>;';';,;);>;>;';';,;,;,;,;);>;>;>;';';,;);>;';';';';,;,;,;);>;>;>;';';,;';>;>;>;>;';,;);>;';';';';,;);>;';';';,;);>;';';';);>;>;,;';);>;>;>;v(R]R]9/t^>;';';);>;';';';,;);>;R_S_T_U_V_W_X_Y_Z_`_ :.:+:@:D_",
"#:$:%:&:*:=:-:;:>:,:':):7)!:~:';,;);>;>;';';,;,;);>;>;';>;';';,;);>;>;';';,;,;,;,;);>;>;>;';';,;);>;>;';';,;,;,;,;);>;>;>;';';';);>;';';';';,;);>;>;';';';,;);>;>;';';,;);>;>;';';);>;,;,;';);>;>;>;>;';';,;);>;>;';);>;>;>;';,;);>;{:]:^:/:(:_:::<:[:w=}:|:1:2:#:",
"3:4:5:6:7:8:9:0:a:b:c:d:e:f:g:';';);>;>;';';,;,;);>;>;>;>;>;';,;);>;>;';';';,;,;,;);>;>;';';';,;);>;';';';,;,;,;,;);>;>;>;';';,;);>;';';>;';,;);>;>;';';';,;);>;';';';,;);>;>;';';);>;>;,;,;);>;>;>;>;';,;,;);>;>;';);>;>;';';,;);';h:i:j:k:l:m:n:o:p:q:r:s:t:u:3:",
"v:w:x:y:z:A:B:C:D:E:F:G:H:I:J:';,;);>;';';';';,;);>;';';>;>;';,;);>;';';';';,;,;,;);>;>;>;';';,;);>;>;>;';,;,;,;,;);}^8/Q]$/x^,;);>;>;';>;';S]T]Q]>;';>;';,;);>;';';';,;);>;>;>;';);>;>;,;';);>;>;>;';';,;,;);>;>;';);>;>;';';,;);>;K:L:M:N:O:P:Q:R:S:T:U:V:W:X:v:",
"Y:Z:w=`: <L{.<+<@<#<$<%<&<*<=<';,;);>;>;';';';,;);>;>;';';>;';,;);>;>;';';';,;,;,;);>;>;';';';,;);>;>;';';,;,;,;,;t^[^:^Q]<^:^w^);>;>;>;>;';S]#/:^';';>;';,;);';';';';,;);>;>;';';);>;,;,;';);>;>;';';';,;,;);>;>;';);>;>;';';,;';>;-<;<><,<'<)<!<~<Q+{<]<^</<(<Y:",
"_<:<<<[<}<|<1<2<3<4<5<6<7<8<9<';,;);>;';';';';,;);>;>;>;>;>;';,;);>;>;';';';,;,;,;);>;>;>;';';,;);>;';';';,;,;,;,;*/:^V]>;W]:^$/);>;>;>;>;';,;T]:^>;';>;';,;);>;>;>;';,;);>;,;,;';);>;>;';';';>;>;>;>;';,;,;);>;>;';);>;>;';,;,;);>;0<a<b<c<d<e<f<g<h<i<j<k<l<m<_<",
"n<o<-#p<q<r<Q's<$^t<u<L^v<w<x<';,;);>;>;';';';,;);>;>;>;';>;';,;);>;>;>;>;';,;,;,;);>;>;';';';,;);>;>;';';,;,;,;,;T]:^>;>;';:^S]);>;>;>;';';,;T]:^>;';>;';,;);>;';';';,;);>;>;,;,;);>;';';';);>;>;>;';';,;,;);>;>;';);>;>;';,;,;);>;y<z<A<B<C<D<E<F<G<H<I<J<K<L<n<",
"M<N<O<P<Q<R<S<T<S!U<V<W<X<Y<Z<';,;);>;>;';';';,;);>;>;';>;>;';,;);>;';';';';,;,;,;);>;>;';';';,;);>;';';';,;,;,;,;T]:^';';';:^S]);>;>;>;';';,;T]:^';';>;';,;);>;';';';,;);>;';,;';);>;>;>;';);>;>;>;>;';,;,;);>;>;';);>;>;';,;,;);>;`< [.[+[@[#[$[%[&[*[=[-[;[>[M<",
". + @ # $ % & * = - ; > , ' ) ';,;,;);';';';';,;););>;>;>;>;';,;);>;>;>;';';,;,;,;);>;';';';';,;);>;>;>;';';,;,;,;T]:^>;>;';:^S]);>;>;';';,;,;T]:^';';>;';,;);>;>;';';,;);>;,;,;';);>;>;';';);>;>;';';';,;,;);>;>;';);>;>;';,;,;);>;m n o p q r s t u v w x y z . ",
"A B C D E F G H I J K L M N O ';,;,;);>;';';';,;,;);>;>;>;>;';,;);>;>;>;';';,;,;,;);>;';>;';';,;);>;';';';';';,;,;T]:^';>;';:^R]);>;>;';';,;,;T]:^>;';';';,;);>;>;';';,;);>;';,;';);>;';';';);>;>;';';';,;,;);>;>;';);>;>;';,;,;);>;_.:.<.[.}.|.1.2.3.4.5.6.7.8.A ",
"9.0.a.b.c.d.e.f.g.h.i.j.k.l.m.';,;,;);>;';';';,;,;,;);>;>;';';,;);>;>;';';';,;,;,;);>;>;>;';';,;);>;>;';';';,;,;,;T]:^}^>;';:^S]);>;';';';';,;T]:^>;>;';';,;);>;';';';,;);>;>;';,;);>;>;';';);>;>;';';';,;,;);>;>;';);>;>;';,;,;);>;W.X.Y.Z.`. +.+++@+#+$+%+&+*+9.",
"=+-+;+>+,+'+)+!+~+{+]+^+/+(+_+';';,;);>;';>;';,;,;,;);>;>;';';,;,;);>;>;>;';,;,;,;);>;';>;';';,;);>;';';';';,;,;,;z^:^u^U]R]:^y^);V]U]';';,;);Q]:^>;';';';,;);>;>;';';,;);>;>;,;';);>;>;>;,;,;>;>;>;>;';,;,;);>;>;';);>;>;';,;,;);>;u+v+w+x+y+z+A+B+C+D+E+F+G+H+=+",
"I+J+K+L+M+N+O+P+Q+R+S+T+U+V+W+';';,;);>;>;>;';,;,;,;);>;>;';';,;,;);>;>;';';,;,;,;);>;';';';';,;);>;>;';';';';,;,;);U][^:^<^1^,;);Q]:^';';,;);Q]:^>;';';';';);>;';';';,;);>;>;';';);>;>;>;,;,;>;>;>;>;';,;,;);>;>;';);>;>;';';,;);>;2@3@4@5@6@7@8@9@0@a@b@c@d@e@I+",
"f@g@h@i@j@k@l@m@n@o@p@q@r@s@t@';';,;);>;>;>;';,;,;,;);>;';';';,;,;);>;>;';';,;,;,;);>;>;>;';';,;);>;>;>;';';,;,;,;);>;>;>;';,;,;);>;>;';';,;);>;>;>;';>;';,;);>;>;';';,;);>;>;';';);>;>;>;,;,;>;>;>;>;';,;,;);>;>;';);>;>;';';,;);>;.#+#@###$#%#&#*#=#-#;#>#,#'#f@",
")#!#~#{#]#^#/#(#_#:#<#[#}#|#1#>;';,;);>;>;>;';,;,;,;);>;>;';';';,;);>;>;>;';,;,;,;);>;';';';';,;);>;>;>;';';';,;,;);>;>;';';';,;);>;>;';';,;);>;>;>;>;';';,;);>;';';';,;);>;>;';';);>;>;>;';);>;>;>;>;';,;,;);>;>;';);>;>;>;';,;);>;A#B#C#D#E#F#G#H#I#J#K#L#M#N#)#",
"O#P#Q#R#S#T#U#V#W#X#Y#Z#`# $.$>;';,;);>;>;>;';';,;,;);>;>;>;';,;,;);>;>;>;';,;,;,;);>;';';';';,;);>;>;>;';';';,;,;);>;>;>;';,;,;);>;>;';';,;);>;>;>;>;';';,;);>;>;';';,;);>;';';';);>;>;,;,;);>;>;>;>;';,;,;);>;>;';);>;>;>;';,;);>;7$8$9$0$a$b$c$d$e$f$g$h$i$j$O#",
"k$l$m$D.n$o$p$q$r$s$t$u$v$w$x$';';,;);>;>;>;';';,;,;);';';';';';,;);>;';';';,;,;,;);>;';';';';,;);>;>;>;';';,;,;,;);>;>;>;';';';);>;>;';';,;);>;>;>;';';';,;);>;>;';';,;);>;';';';);>;';';,;);>;>;>;';';,;,;);>;>;';);>;>;>;';,;);>;#%$%%%X#&%*%=%-%;%>%,%'%)%!%k$",
"~%{%]%^%/%(%_%:%<%[%}%|%1%2%3%';';,;);>;>;>;';';,;,;);>;>;>;';';,;);>;>;';';,;,;,;);>;>;';';';,;);>;>;>;>;';,;,;,;);>;>;>;';';,;);>;';';';,;);>;>;>;>;';';,;);>;>;>;';,;);>;>;';';);>;';';,;);>;>;>;>;';,;,;);>;>;';);>;>;>;';,;);>;C%D%E%F%G%H%I%J%K%L%M%N%O%P%~%",
"Q%R%S%T%U%V%W%X%Y%Z%`% &.&+&@&>;';,;);>;>;>;';';,;,;);>;';';>;';,;);>;>;';';,;,;,;);>;>;>;';';,;,;);>;>;>;';,;,;,;);>;';>;';';,;);>;>;';';,;);>;>;>;>;';';,;);>;';>;';';);>;>;';,;);>;';';';);>;>;>;>;';';,;);>;>;';););>;>;';,;);>;0&a&b&c&d&e&f&g&h&i&j&k&l&m&Q%",
"n&o&p&q&r&s&t&u&v&w&x&y&z&A&B&';';,;);>;>;>;>;';,;,;);>;>;>;>;';,;);Q]v(>;';,;,;y^T]V]>;>;';X]S]S]T]v(>;';W]S]y^,;);V]Q]W]';,;,;);v(Q]';';,;);>;>;>;>;R]X],;);>;';W]R]1^z^Q]Q]R]S]C/';X]R]R]T]8/}^>;>;';';,;);>;>;';,;);';>;';,;);>;=*-*;*>*,*'*)*!*~*{*]*^*/*(*n&",
"_*:*<*[*}*|*1*2*3*4*5*6*7*8*9*>;';,;);>;>;>;>;';,;,;);>;>;';';';,;C/:^[^>;';,;,;1^:^U]>;>;>;R]:^S]:^:^u^>;|^:^1^,;);U]:^U]';,;,;t^:^:^W]';,;);>;>;>;';+/:^,;);';';$/:^y^v^:^u^R]R]C/>;Q]:^R]#/:^[^}^>;';';,;);>;>;';';);';>;';,;);>;I*J*K*L*M*N*O*P*Q*O*R*S*S*T*_*",
"U*V*W*X*Y*Z*`* =.=+=@=#=$=%=&=';';,;);>;>;>;>;';,;,;);>;';';>;';,;&/:^:^X]';,;,;1^:^U]>;';';R]:^,;t^Q]:^V]|^:^1^,;);U]:^U]';,;,;C/:^:^u^';,;);>;>;>;>;X]:^9/);>;>;:^<^,;v^:^|^';,;);>;Q]:^';);Q]:^8/>;';';,;);>;>;';,;);';';';,;,;);e=f=g=h=i=-=j=k=l=m=n=o=p=q=U*",
"r=s=t=u=v=w=x=y=z=A=B=C=D=E=F=>;>;';);>;>;>;>;';,;,;);>;>;';>;';y^:^8/:^+/';,;,;1^:^U]>;';';R]:^,;);U]:^U]|^:^1^,;);U]:^U]';';,;#/[^Q]:^x^,;);>;>;>;>;';:^0/);>;|^:^X],;v^:^|^';);>;>;Q]:^';);>;:^Q]>;';';,;););>;';,;';>;>;';,;,;);'-)-!-~-{-]-^-/-(-_-:-<-[-[-r=",
"}-|-1-2-3-4-5-6-7-8-9-0-a-b-c->;>;';);>;>;>;>;';,;,;);>;';';>;';S]:^V]$/:^W],;,;1^:^U]>;>;';R]:^,;z^[^:^}^|^:^0/S]T]u^:^|^';';1^:^8/V]:^$/,;);>;>;>;>;';$/:^t^>;R]:^x^,;v^:^$/1^v^V]>;Q]:^';);v(:^8/>;';';,;,;);>;';';);>;>;';,;,;);L-M-N-O-P-Q-R-S-T-U-V-W-X-U-}-",
"Y-Z-`- ;.;+;@;#;$;%;&;*;=;-;;;>;>;';);>;>;';';';,;,;);>;>;>;';x^:^#/}^8/:^$/,;,;1^:^U]>;>;';R]:^:^:^:^$/';|^:^0/S]T]u^:^|^';';0/:^V]U]:^<^,;);>;>;>;>;';W]:^C/>;:^R]';,;v^:^:^:^:^Q]>;Q]:^:^:^:^[^}^>;';';,;,;);>;';';);>;>;';,;,;,;!;~;{;];^;/;(;_;:;<;[;};|;1;Y-",
"2;3;4;5;6;7;8;9;0;a;b;c;d;e;f;>;>;';);>;';';';';,;,;);>;>;';';X]:^:^:^:^:^:^w^,;1^:^v^>;';';R]:^1^v^}^>;';|^:^1^););U]:^U]';w^:^:^:^:^:^:^9/);>;>;>;>;';,;%/&/U]:^U]';,;v^:^|^);>;>;>;R]:^<^:^v(>;>;';';';,;,;);>;>;';);>;>;';,;,;,;g;h;i;j;k;l;m;n;o;p;q;r;s;t;2;",
"u;v;w;x;y;z;A;B;C;D;E;F;G;H;I;';';';);>;';>;>;';,;,;);>;>;>;>;<^:^v^U]U]$/:^9/,;1^:^v^>;>;';R]:^,;);>;>;>;|^:^1^);>;U]:^U]';@/:^*/U]U]U]:^0/);>;>;>;';';,;9/:^u^<^';';,;v^:^|^);>;>;>;Q]:^W]:^[^>;>;>;';';,;,;);>;>;';);>;>;';,;,;,;J;K;L;M;N;O;P;Q;R;S;T;U;V;W;u;",
"X;Y;Z;`; >.>+>@@@>#>$>%>&>*>=>>;>;';);>;';>;>;';,;,;);>;';';V]:^S]);>;';';:^<^,;1^:^*/U]U]x^R]:^,;);>;>;';|^:^1^);>;U]:^U]';%/:^);>;>;>;R]:^z^>;>;>;';';,;w^:^:^$/';';,;v^:^$/v^U]V]>;Q]:^';*/:^Q]>;>;';';,;,;);>;>;';);>;';';';,;,;->;>>>,>'>)>!>~>{>]>^>/>(>_>X;",
":><>[>}>|>1>2>3>4>5>6>7>8>9>0>>;';';);>;>;';>;';,;,;);>;';';+/:^y^);>;>;';R]:^y^1^:^:^:^:^|^R]:^,;);>;';';|^:^1^);>;U]:^U]X]:^$/);>;';';|^:^*/>;>;';>;';,;,;T]:^x^';,;,;v^:^:^:^:^Q]>;Q]:^';);[^:^U]>;';';,;,;);>;>;';);>;';';';,;,;J;a>b>c>d>e>f>g>h>i>j>k>l>m>:>",
"n>o>p>q>r>s>t>u>v>w>x>y>z>A>B>>;>;';);';';';>;';,;,;);>;>;';>;';,;);>;>;>;';';,;,;,;);>;>;';';,;,;);>;>;';';,;,;);>;>;>;';';,;,;);';>;';';,;);>;>;>;';';,;,;);>;';';,;,;);>;';);>;>;>;';';,;);>;>;>;>;';';,;,;);>;>;';);>;>;';';,;,;C>D>E>F>G>H>I>J>K>L>M>N>O>P>n>",
"Q>R>S>T>U>V>W>X>Y>Z>`> ,.,+,@,';';';);>;>;>;>;';,;,;);>;>;';>;';,;);>;>;';';';,;,;,;);>;>;';';,;,;);>;>;';';,;,;);>;>;>;';';,;,;);>;';';';,;);>;>;>;';';,;,;);';';';';,;);>;';);>;>;';>;';,;);>;>;>;>;';';,;,;);>;';';);>;';';';,;,;#,$,%,&,*,=,-,;,>,,,',),!,~,Q>",
"{,],^,/,(,_,:,<,[,},|,1,2,3,4,>;>;';,;);';';>;';,;,;);>;>;>;>;';,;);>;>;';';';,;,;,;);>;>;';';,;,;);>;>;>;';';,;);>;>;';';';,;,;);>;';';';,;);>;>;>;';';,;,;);';';';,;,;);>;';);>;>;';>;';,;);>;>;>;';';';,;,;);>;>;';);>;>;>;';,;,;5,6,7,8,9,0,a,b,c,d,e,f,g,h,{,",
"i,j,k,l,m,n,o,p,q,r,s,t,u,v,w,>;>;';,;);';';';';,;,;);>;>;>;>;';,;);>;>;';';';,;,;,;);>;>;';';,;,;);>;';';';,;,;);>;>;';';';,;,;);>;';';,;,;);>;>;';';,;,;,;);>;';';';,;);>;';);>;';';>;';,;,;);>;>;>;';';,;,;);>;';';);>;>;>;';,;,;x,y,z,A,B,C,D,E,F,G,H,I,J,K,i,",
"L,M,N,O,P,Q,R,S,T,U,V,W,X,Y,Z,>;>;';,;);>;';>;';,;,;);>;>;>;>;';,;););>;>;>;';';,;,;);>;>;';';,;,;);>;>;';';,;,;);>;>;';';';';);>;>;>;';,;,;);>;>;';';,;,;););>;>;';,;,;);>;';);>;';';';';,;,;);>;>;';';';,;,;);';';';);>;>;>;';,;,;`, '.'+'@'#'$'%'&'*'='-';'>'L,",
",''')'!'~'{']'^'/'('_':'<'['}'>;>;';,;);>;';>;';';,;);>;>;';>;';,;,;);>;>;';';,;,;,;);';>;';';,;,;);>;';';';,;,;);>;';';';';,;);>;>;>;';';,;);>;';';';,;,;);>;>;';';,;,;);>;';);>;';>;>;';,;,;);>;>;';';';,;,;);>;';';,;);>;>;';,;,;|'1'2'3'4'5'6'7'8'9'0'a'b'c','",
"d'e'f'g'h')$i'j'k'l'm'n'o'p'q'>;>;';,;);>;>;';';';,;);>;>;';>;';,;,;);>;>;>;';,;,;,;);>;>;';';';,;);>;>;>;';,;,;);>;>;';';';,;);>;>;>;';,;,;);>;>;';';,;,;);>;';>;';,;);>;>;';);>;>;>;>;';,;,;);>;>;';';';,;,;);>;';';,;);>;>;';,;,;r's't'u'v'w'x'y'z'A'B'C'D'E'd'",
"F'G'H'I'J'K'L'M'N'O'P'Q'R'S'T'>;>;';';);>;';>;>;';,;);>;>;>;';>;';,;);>;>;>;';,;';,;);>;';';';';,;);>;>;>;';,;,;);>;>;>;';';,;);>;>;>;';,;,;);>;>;';';';,;);';';';';,;);>;>;';);>;>;>;';';,;,;);>;>;';';';,;,;);>;>;';,;);>;>;';,;,;U'V'W'X'Y'Z'`' ).)+)@)#)$)%)F'",
"&)*)=)-);)>),)')))5#!)~){)])^)>;>;';';);';>;';>;';,;);>;>;';';>;';,;);>;>;';';,;,;,;);>;>;';';';,;);>;>;';';,;,;);>;>;>;';,;,;);>;>;>;';,;,;);>;>;';';,;,;);>;';';';,;);>;>;';););>;';>;';,;,;);>;>;';>;';,;,;);>;>;';,;);>;>;';,;,;/)()_):)<)[)})|)1)2)3)4)5)6)&)",
"7)8)9)0)<'a)b)c)d)e)f)g)h)i)j)>;>;>;';);>;';';>;';,;););>;>;>;';';,;);>;>;';';';,;,;);>;>;';>;';,;);>;';';';';,;);>;>;>;';';,;);>;>;>;';';,;);>;>;';';,;,;);';';';';,;);>;>;';,;);>;>;';';,;,;);>;';';>;';,;,;);>;>;';,;);>;>;';,;,;k)l)m)n)o)g%p)q)r)s)t)u)v)w)7)",
"x)y)z)A)B)C)D)E)F)G)H)I)J)K)L)>;>;';';);>;>;';';';,;,;);>;>;';';';,;);>;';>;';';,;,;);>;>;';';';,;);>;>;';';,;,;);>;>;>;';,;,;);>;';';';';,;);>;';';';,;,;);>;';';,;,;);>;';';,;);>;>;';';,;,;);>;>;';>;';,;,;);>;>;';,;);>;>;';,;,;M)N)O)P)Q)R)S)T)U)V)W)X)Y)Z)x)",
"`) !.!+!@!#!$!%!&!*!=!-!;!>!,!>;>;>;';);>;>;';>;';,;,;);>;>;';';';,;);>;';';';,;,;,;);>;>;';>;';,;);>;>;';';';,;);>;>;';';,;,;);>;>;';';,;,;);>;';';';,;,;);>;';';,;););>;';';,;);>;';';';,;,;);>;>;>;>;';,;,;);>;>;';,;);>;>;';,;,;'!)!!!~!{!]!^!/!(!_!:!<![!}!`)",
"|!1!2!3!4!5!6!7!8!9!0!a!b!c!d!>;>;>;';);>;>;';>;';,;,;);>;>;>;>;';,;);>;>;>;';';,;,;);>;>;>;>;';,;);>;>;';';,;,;);>;>;';';,;,;);>;>;>;';,;););>;';';';,;););>;>;';,;);>;';';';,;);>;>;';';,;,;);>;>;>;>;';,;,;);>;>;';,;);>;>;';,;,;e!f!g!h!i!j!k!l!m!n!o!p!q!r!|!",
"s!t!u!v!w!x!6!y!z!A!B!C!D!E!F!>;>;';';);>;>;>;>;';,;,;);>;>;>;>;';,;);>;>;>;';,;,;,;);>;';';';';,;);>;>;';';,;,;);>;>;';';,;,;);>;>;>;';,;);>;>;>;';';,;);>;>;';';,;);>;';';,;,;);>;>;';';,;,;);>;>;>;';';,;););>;>;';,;);>;>;';,;,;G!H!I!J!K!L!M!N!Z>O!P!Q!R!S!s!",
"T!U!V!W!X!Y!Z!`! ~.~+~@~#~$~%~>;>;>;';);>;>;';>;';';,;);>;>;>;>;';,;);>;>;>;';';,;,;);>;';>;';';,;);>;>;>;';';,;);>;';';';,;,;);>;>;>;';,;);>;>;';';,;,;);>;>;';';,;);>;>;';,;,;);>;>;>;';,;,;);>;>;>;';';,;);>;>;>;';,;);>;>;';,;,;&~*~=~-~;~>~,~'~)~!~~~{~]~^~T!",
"/~(~_~:~<~[~}~|~1~2~3~4~5~6~7~>;>;>;';);>;>;';';';,;,;);>;>;>;>;>;';,;);>;>;';';,;,;);>;>;>;';';,;);>;>;';';,;,;);>;';';';';,;);>;>;>;';,;);>;';';';,;,;);>;>;';,;,;);>;';';,;,;);>;>;>;';';,;);>;>;>;>;';,;);>;>;>;';,;);>;>;';,;,;8~9~0~a~b~c~d~e~f~g~h~i~j~k~/~",
"l~m~n~o~p~q~r~s~t~u~v~w~x~y~z~>;>;>;';);>;>;';';';,;,;);>;>;';>;>;';,;);';';';';,;,;);>;>;';';';,;);>;';';';,;,;);';>;>;';';,;);>;>;>;';';);>;>;';';,;,;);>;';';,;);>;';';';';,;);>;>;';';';,;);>;>;>;>;';,;,;);>;>;';,;);>;>;';,;,;A~B~C~1$D~E~F~G~H~I~J~K~L~M~l~",
"N~O~P~Q~R~S~T~U~V~W~X~Y~Z~`~ {>;>;>;';);>;>;';';';,;);>;';>;';';>;';,;);>;>;';';,;,;);>;>;>;';';,;);>;';';';,;,;);';>;';';';,;);>;';';';';);>;';';';,;);>;>;';';';);>;>;';';,;););>;>;';';';,;);>;>;>;>;';,;,;';';';';,;);>;>;';,;,;.{+{@{#{${%{&{*{={-{;{p.>{,{N~",
"'{){!{~{{{]{^{/{({_{:{<{[{}{|{>;>;>;';);>;>;';';';,;);>;>;';';>;>;';,;);>;>;';';,;,;);>;>;>;';';,;);>;>;';';,;,;);>;';';';';,;);>;>;>;';,;);>;>;';';,;);>;>;';';,;);>;>;';';,;);>;>;>;';';';);>;>;>;>;>;';,;,;);';';';,;);>;>;';,;,;1{2{3{4{5{6{7{8{9{0{a{b{c{d{'{",
"e{f{g{h{i{j{k{l{m{n{o{p{q{r{s{>;>;>;';);>;>;>;';';';);>;';';>;';>;';,;);>;>;';';,;,;);>;>;';';';,;);>;';>;';,;,;);>;>;';';';,;);>;>;>;';,;);>;';>;';,;);>;>;';';,;);>;>;>;';,;);>;>;>;>;';';);>;>;>;>;>;';,;,;);>;';';,;);>;>;';,;,;t{u{v{w{x{y{z{A{B{C{D{E{F{G{e{",
"H{I{J{K{L{M{N{O{P{Q{R{S{T{U{V{>;>;>;';);>;>;>;';';,;);>;>;>;';>;>;';);>;>;>;';';,;,;);>;>;>;';';,;);>;>;';';,;,;);>;>;>;';';,;);>;>;';';';);';>;';';,;);>;>;';';';,;);';';';,;););>;>;>;';';);>;>;>;>;>;';,;,;);';';';,;);';';';,;,;W{X{Y{Z{`{ ].]+]@]#]$]%]&]*]H{",
"=]-];]>],]'])]!]~]{]]]^]/](]_]>;>;';';);>;>;';';';';);>;>;';>;>;';';);>;>;>;';';,;,;);>;>;>;';';,;);>;';';';';,;);';>;';';';,;);>;>;>;';,;);>;>;';';,;);>;>;';';,;,;);>;>;';';,;);>;>;>;';';);>;>;>;>;>;';,;,;);>;';';,;);>;>;';,;,;:]<][]}]|]1]2]3]4]5]6]7]8]9]=]",
"0]a]b]c]d]e]f]g]h]i]j]k]l]m]n]>;>;';';);>;>;>;';';,;);>;>;';';>;';';);>;';';>;';,;,;);>;>;>;';';';);>;>;';';';,;);>;>;';';';,;);>;>;>;';';';>;>;';';,;);>;>;';';';,;);>;';';';,;);';>;';';';);>;>;>;>;>;';,;,;);>;';,;,;);>;';';,;,;o]p]q]r]s]t]u]v]w]x]>-y]z]A]0]",
"B]C]D]E]F]G]H]I]J]K]L]M]N]O]P]>;>;';';);>;>;>;';';,;);>;>;';>;>;';';);>;>;>;>;';,;,;);>;>;';';';,;);>;';';';';,;);>;>;';';';,;);>;';';';,;);>;>;';';,;);>;>;>;';';,;);>;>;';';';);>;';';';';);>;>;>;>;>;';,;,;);>;';,;,;);';';';';);Y]Z]`]^= ^.^+^@^#^$^%^&^*^=^B]",
"-^;^>^,^'^)^!^~^g@{^]^^^/^(^_^>;';';,;);>;>;>;';';,;);>;>;>;>;>;';';);>;>;';';';,;,;);>;>;>;';';';);>;';';';';,;);>;';>;';,;,;);>;>;';';,;);';';>;';';);>;>;>;';';,;,;);';';';,;);>;>;';';';);>;>;>;>;';';,;,;);>;';,;,;);>;';';,;);2^3^4^5^6^7^8^9^0^a^b^c^d^e^-^",
"f^e#g^h^i^j^k^l^m^n^o^p^q^r^s^>;';';);>;>;>;>;';';,;);>;>;';';';';';);>;>;';';';,;,;);>;>;>;';';';);>;>;';';';,;);>;>;';';,;,;);>;>;>;';,;);>;>;';';,;,;);>;';';';,;,;);>;>;';,;);>;';';';';);>;>;>;>;';';,;,;);>;';,;););>;';';,;);A^B^C^D^E^F^G^H^I^J^K^L^M^N^f^",
"O^P^Q^R^S^T^U^V^W^X^Y^Z^`^ /./';';';);>;>;>;>;';';,;);>;>;';';';';';);>;';';';';,;,;);>;>;>;>;';';);>;';';';';,;);>;>;>;';,;,;);>;>;>;';';);>;>;>;';,;,;););>;';';,;,;,;);';';,;);>;>;';';';);>;>;>;>;';';,;,;);>;';,;);>;>;';';,;);=/-/;/>/,/'/)/;!!/~/{/]/^///O^",
"(/_/:/</[/}/|/1/2/3/,>4/5/6/7/>;';';';>;>;>;';';';,;);>;>;>;';>;';';);>;';';';';,;,;);>;>;>;';';';);>;>;';';';,;);>;';';';,;,;);>;>;>;';';);>;>;>;';,;,;););>;';';';,;,;);';';,;);>;';';';';);>;>;';>;';';,;,;);>;';,;);>;>;';';,;);a/b/c/d/e/f/g/h/i/j/k/l/m/n/(/",
"o/p/q/o&r/s/t/u/v/w/x/y/z/A/B/>;>;';);>;>;';>;';';,;);>;>;>;';';';,;);>;>;>;';,;,;,;);>;>;>;';';,;);>;>;';';';,;);>;>;';';,;,;);>;>;>;';,;);>;>;>;';,;,;);>;';>;';,;,;,;);';';,;);>;>;';';,;);>;>;>;>;';';,;,;);>;';,;);>;>;>;';,;);D/E/F/G/H/I/J/K/L/M/N/O/P/Q/o/",
"R/S/T/U/V/W/X/Y/Z/`/ (.(+(@(#(>;';';);>;>;';>;';';,;);>;>;';>;';';,;);>;>;>;';,;,;,;);>;>;';';';,;);>;>;';';';,;);';';';';,;,;);>;>;';';';);>;>;>;';,;,;);>;>;>;';';,;,;);';';';);>;>;';';,;);>;>;>;>;';';,;,;);>;';,;);>;>;>;';,;);$(%(&(*(=(-(;(>(B#=%,('()(!(R/",
"~({(](^(/(((_(:(<([(}(|(1(2(3(,['[)[![~[{[][^[/[([=:_[:[<[[[}[|[1[2[3[4[5[6[7[8[9[0[a[b[c[d[e[f[g[h[4(5(6(7(8(9(0(a(b(c(d(e(f(&~~({(](^(/(((_(:(<([(}(|(1(2(3(,['[)[![~[{[][^[/[([=:_[:[<[[[}[|[1[2[3[4[5[6[7[8[9[0[a[b[c[d[e[f[g[h[4(5(6(7(8(9(0(a(b(c(d(e(f(&~~(",
"g(h(i(j(k(l(m(n(o(p(q(r(s(t(u(i[j[k[l[m[H#n[o[p[q[r[s[t[u[v[w[x[y[z[A[B[C[D[E[F[G[H[I[J[K[L[M[N[O[P[w(x(y(z(A(B(C(D(E(F(G(H(I(J(g(h(i(j(k(l(m(n(o(p(q(r(s(t(u(i[j[k[l[m[H#n[o[p[q[r[s[t[u[v[w[x[y[z[A[B[C[D[E[F[G[H[I[J[K[L[M[N[O[P[w(x(y(z(A(B(C(D(E(F(G(H(I(J(g(",
"K(L(M(N(O(P(Q(R(S(T(U(V(W(X(Y(Q[R[S[T[U[V[W[X[Y[Z[`[ }.}+}@}#}_:$}%}&}*}=}. -};}>},}'})}!}~}{}]}^}/}r@Z(`( _._+_@_#_$_%_&_*_=_-_K(L(M(N(O(P(Q(R(S(T(U(V(W(X(Y(Q[R[S[T[U[V[W[X[Y[Z[`[ }.}+}@}#}_:$}%}&}*}=}. -};}>},}'})}!}~}{}]}^}/}r@Z(`( _._+_@_#_$_%_&_*_=_-_K(",
";_>_,_'_)_!_~_{_]_^_/_(___:_<_(}_}:}<}[}}}|}1}2}3}4}5}6}7}8}9}0}a}b}c}d}e}f}g}h}i}j}k}l}m}n}o}p}q}{^[_}_|_1_2_3_4_5_6_7_8_9_0_a_;_>_,_'_)_!_~_{_]_^_/_(___:_<_(}_}:}<}[}}}|}1}2}3}4}5}6}7}8}9}0}a}b}c}d}e}f}g}h}i}j}k}l}m}n}o}p}q}{^[_}_|_1_2_3_4_5_6_7_8_9_0_a_;_",
"b_c_d_e_f_g_h_i_j_k_l_m_n_o_p_r}s}t}u}v}w}x}y}z}A}B}C}D}E}F}><G}H}I}J}K}L}M}N}O}P}]&Q}R}S}T}U}V}W}X}q_r_,^s_t_u_v_w_x_y_z_A_B_C_b_c_d_e_f_g_h_i_j_k_l_m_n_o_p_r}s}t}u}v}w}x}y}z}A}B}C}D}E}F}><G}H}I}J}K}L}M}N}O}P}]&Q}R}S}T}U}V}W}X}q_r_,^s_t_u_v_w_x_y_z_A_B_C_b_",
"D_E_F_G_H_I_J_K_L_M_N_O_P_A%Q_Y}Z}`} |.|+|@|#|$|%|&|*|=|-|;|>|,|'|)|!|~|{|]|^|/|(|_|:|<|[|}|||1|2|3|R_S_T_U_V_W_X_Y_Z_`_ :.:+:@:D_E_F_G_H_I_J_K_L_M_N_O_P_A%Q_Y}Z}`} |.|+|@|#|$|%|&|*|=|-|;|>|,|'|)|!|~|{|]|^|/|(|_|:|<|[|}|||1|2|3|R_S_T_U_V_W_X_Y_Z_`_ :.:+:@:D_",
"#:$:%:&:*:=:-:;:>:,:':):7)!:~:4|5|6|7|8|9|0|a|b|c|d|e|f|g|h|i|j|k|l|m|n|o|p|q|r|s|t|u|v|J(w|x|y|z|A|{:]:^:/:(:_:::<:[:w=}:|:1:2:#:$:%:&:*:=:-:;:>:,:':):7)!:~:4|5|6|7|8|9|0|a|b|c|d|e|f|g|h|i|j|k|l|m|n|o|p|q|r|s|t|u|v|J(w|x|y|z|A|{:]:^:/:(:_:::<:[:w=}:|:1:2:#:",
"3:4:5:6:7:8:9:0:a:b:c:d:e:f:g:B|C|D|E|F|G|H|I|J|K|L|M|N|O|P|Q|R|S|T|U|V|W|X|Y|Z|`| 1.1+1@1U/#1$1%1k]h:i:j:k:l:m:n:o:p:q:r:s:t:u:3:4:5:6:7:8:9:0:a:b:c:d:e:f:g:B|C|D|E|F|G|H|I|J|K|L|M|N|O|P|Q|R|S|T|U|V|W|X|Y|Z|`| 1.1+1@1U/#1$1%1k]h:i:j:k:l:m:n:o:p:q:r:s:t:u:3:",
"v:w:x:y:z:A:B:C:D:E:F:G:H:I:J:&1*1=1-1;1>1,1'1)1!1~1{1]1^1/1(1_1:1<1[1}1|1112131415161&~71819101a1b1K:L:M:N:O:P:Q:R:S:T:U:V:W:X:v:w:x:y:z:A:B:C:D:E:F:G:H:I:J:&1*1=1-1;1>1,1'1)1!1~1{1]1^1/1(1_1:1<1[1}1|1112131415161&~71819101a1b1K:L:M:N:O:P:Q:R:S:T:U:V:W:X:v:",
"Y:Z:w=`: <L{.<+<@<#<$<%<&<*<=<c1d1e1f1g1h1i1j1k1l1m1n1o1p1q1r1s1t1u1h~v1w1x1y1$%z1A1B1%%C1D1E1F1G1H1-<;<><,<'<)<!<~<Q+{<]<^</<(<Y:Z:w=`: <L{.<+<@<#<$<%<&<*<=<c1d1e1f1g1h1i1j1k1l1m1n1o1p1q1r1s1t1u1h~v1w1x1y1$%z1A1B1%%C1D1E1F1G1H1-<;<><,<'<)<!<~<Q+{<]<^</<(<Y:",
"_<:<<<[<}<|<1<2<3<4<5<6<7<8<9<I1J1K1L1M1N1O1P1Q1R1S1T1U1V1W1m/X1Y1Z1`1 2.2+2@2#2$2%2&2*2%@=2-2;2>2,20<a<b<c<d<e<f<g<h<i<j<k<l<m<_<:<<<[<}<|<1<2<3<4<5<6<7<8<9<I1J1K1L1M1N1O1P1Q1R1S1T1U1V1W1m/X1Y1Z1`1 2.2+2@2#2$2%2&2*2%@=2-2;2>2,20<a<b<c<d<e<f<g<h<i<j<k<l<m<_<",
"n<o<-#p<q<r<Q's<$^t<u<L^v<w<x<B['2)2!2~2{2]2^2/2(2_2:2<2[2}2|212223242526272826#9202a2b2[ c2d2e2f2g2y<z<A<B<C<D<E<F<G<H<I<J<K<L<n<o<-#p<q<r<Q's<$^t<u<L^v<w<x<B['2)2!2~2{2]2^2/2(2_2:2<2[2}2|212223242526272826#9202a2b2[ c2d2e2f2g2y<z<A<B<C<D<E<F<G<H<I<J<K<L<n<",
"M<N<O<P<Q<R<S<T<S!U<V<W<X<Y<Z<h2i2j2k2l2m2n2o2p2q2r2p>s2t2u2v2w2x2y2z2A2B2M)C2D2E2F2G2H2I2J2K2L2M2P~`< [.[+[@[#[$[%[&[*[=[-[;[>[M<N<O<P<Q<R<S<T<S!U<V<W<X<Y<Z<h2i2j2k2l2m2n2o2p2q2r2p>s2t2u2v2w2x2y2z2A2B2M)C2D2E2F2G2H2I2J2K2L2M2P~`< [.[+[@[#[$[%[&[*[=[-[;[>[M<",
". + @ # $ % & * = - ; > , ' ) ! ~ { ] ^ / ( _ : < [ } | 1 2 3 4 5 6 7 8 9 0 a b c d e f g h i j k l m n o p q r s t u v w x y z . + @ # $ % & * = - ; > , ' ) ! ~ { ] ^ / ( _ : < [ } | 1 2 3 4 5 6 7 8 9 0 a b c d e f g h i j k l m n o p q r s t u v w x y z . "};
